%!PS-Adobe-3.0 EPSF-3.0
%%Creator: (MATLAB, The Mathworks, Inc. Version 9.2.0.538062 \(R2017a\). Operating System: Linux)
%%Title: /home/chris/Storage/christina/Desktop/THMMY/????????/Project/authMultimediaAssignment2018/tex/figures/decoded_encoded.eps
%%CreationDate: 2019-02-17T20:41:10
%%Pages: (atend)
%%BoundingBox: 0 0 1023 497
%%LanguageLevel: 3
%%EndComments
%%BeginProlog
%%BeginResource: procset (Apache XML Graphics Std ProcSet) 1.2 0
%%Version: 1.2 0
%%Copyright: (Copyright 2001-2003,2010 The Apache Software Foundation. License terms: http://www.apache.org/licenses/LICENSE-2.0)
/bd{bind def}bind def
/ld{load def}bd
/GR/grestore ld
/M/moveto ld
/LJ/setlinejoin ld
/C/curveto ld
/f/fill ld
/LW/setlinewidth ld
/GC/setgray ld
/t/show ld
/N/newpath ld
/CT/concat ld
/cp/closepath ld
/S/stroke ld
/L/lineto ld
/CC/setcmykcolor ld
/A/ashow ld
/GS/gsave ld
/RC/setrgbcolor ld
/RM/rmoveto ld
/ML/setmiterlimit ld
/re {4 2 roll M
1 index 0 rlineto
0 exch rlineto
neg 0 rlineto
cp } bd
/_ctm matrix def
/_tm matrix def
/BT { _ctm currentmatrix pop matrix _tm copy pop 0 0 moveto } bd
/ET { _ctm setmatrix } bd
/iTm { _ctm setmatrix _tm concat } bd
/Tm { _tm astore pop iTm 0 0 moveto } bd
/ux 0.0 def
/uy 0.0 def
/F {
  /Tp exch def
  /Tf exch def
  Tf findfont Tp scalefont setfont
  /cf Tf def  /cs Tp def
} bd
/ULS {currentpoint /uy exch def /ux exch def} bd
/ULE {
  /Tcx currentpoint pop def
  gsave
  newpath
  cf findfont cs scalefont dup
  /FontMatrix get 0 get /Ts exch def /FontInfo get dup
  /UnderlinePosition get Ts mul /To exch def
  /UnderlineThickness get Ts mul /Tt exch def
  ux uy To add moveto  Tcx uy To add lineto
  Tt setlinewidth stroke
  grestore
} bd
/OLE {
  /Tcx currentpoint pop def
  gsave
  newpath
  cf findfont cs scalefont dup
  /FontMatrix get 0 get /Ts exch def /FontInfo get dup
  /UnderlinePosition get Ts mul /To exch def
  /UnderlineThickness get Ts mul /Tt exch def
  ux uy To add cs add moveto Tcx uy To add cs add lineto
  Tt setlinewidth stroke
  grestore
} bd
/SOE {
  /Tcx currentpoint pop def
  gsave
  newpath
  cf findfont cs scalefont dup
  /FontMatrix get 0 get /Ts exch def /FontInfo get dup
  /UnderlinePosition get Ts mul /To exch def
  /UnderlineThickness get Ts mul /Tt exch def
  ux uy To add cs 10 mul 26 idiv add moveto Tcx uy To add cs 10 mul 26 idiv add lineto
  Tt setlinewidth stroke
  grestore
} bd
/QT {
/Y22 exch store
/X22 exch store
/Y21 exch store
/X21 exch store
currentpoint
/Y21 load 2 mul add 3 div exch
/X21 load 2 mul add 3 div exch
/X21 load 2 mul /X22 load add 3 div
/Y21 load 2 mul /Y22 load add 3 div
/X22 load /Y22 load curveto
} bd
/SSPD {
dup length /d exch dict def
{
/v exch def
/k exch def
currentpagedevice k known {
/cpdv currentpagedevice k get def
v cpdv ne {
/upd false def
/nullv v type /nulltype eq def
/nullcpdv cpdv type /nulltype eq def
nullv nullcpdv or
{
/upd true def
} {
/sametype v type cpdv type eq def
sametype {
v type /arraytype eq {
/vlen v length def
/cpdvlen cpdv length def
vlen cpdvlen eq {
0 1 vlen 1 sub {
/i exch def
/obj v i get def
/cpdobj cpdv i get def
obj cpdobj ne {
/upd true def
exit
} if
} for
} {
/upd true def
} ifelse
} {
v type /dicttype eq {
v {
/dv exch def
/dk exch def
/cpddv cpdv dk get def
dv cpddv ne {
/upd true def
exit
} if
} forall
} {
/upd true def
} ifelse
} ifelse
} if
} ifelse
upd true eq {
d k v put
} if
} if
} if
} forall
d length 0 gt {
d setpagedevice
} if
} bd
/RE { % /NewFontName [NewEncodingArray] /FontName RE -
  findfont dup length dict begin
  {
    1 index /FID ne
    {def} {pop pop} ifelse
  } forall
  /Encoding exch def
  /FontName 1 index def
  currentdict definefont pop
  end
} bind def
%%EndResource
%%BeginResource: procset (Apache XML Graphics EPS ProcSet) 1.0 0
%%Version: 1.0 0
%%Copyright: (Copyright 2002-2003 The Apache Software Foundation. License terms: http://www.apache.org/licenses/LICENSE-2.0)
/BeginEPSF { %def
/b4_Inc_state save def         % Save state for cleanup
/dict_count countdictstack def % Count objects on dict stack
/op_count count 1 sub def      % Count objects on operand stack
userdict begin                 % Push userdict on dict stack
/showpage { } def              % Redefine showpage, { } = null proc
0 setgray 0 setlinecap         % Prepare graphics state
1 setlinewidth 0 setlinejoin
10 setmiterlimit [ ] 0 setdash newpath
/languagelevel where           % If level not equal to 1 then
{pop languagelevel             % set strokeadjust and
1 ne                           % overprint to their defaults.
{false setstrokeadjust false setoverprint
} if
} if
} bd
/EndEPSF { %def
count op_count sub {pop} repeat            % Clean up stacks
countdictstack dict_count sub {end} repeat
b4_Inc_state restore
} bd
%%EndResource
%FOPBeginFontDict
%%IncludeResource: font Courier-Bold
%%IncludeResource: font Helvetica
%%IncludeResource: font Courier-BoldOblique
%%IncludeResource: font Courier-Oblique
%%IncludeResource: font Times-Roman
%%IncludeResource: font Helvetica-BoldOblique
%%IncludeResource: font Helvetica-Bold
%%IncludeResource: font Helvetica-Oblique
%%IncludeResource: font Times-BoldItalic
%%IncludeResource: font Courier
%%IncludeResource: font Times-Italic
%%IncludeResource: font Times-Bold
%%IncludeResource: font Symbol
%%IncludeResource: font ZapfDingbats
%FOPEndFontDict
%%BeginResource: encoding WinAnsiEncoding
/WinAnsiEncoding [
/.notdef /.notdef /.notdef /.notdef /.notdef
/.notdef /.notdef /.notdef /.notdef /.notdef
/.notdef /.notdef /.notdef /.notdef /.notdef
/.notdef /.notdef /.notdef /.notdef /.notdef
/.notdef /.notdef /.notdef /.notdef /.notdef
/.notdef /.notdef /.notdef /.notdef /.notdef
/.notdef /.notdef /space /exclam /quotedbl
/numbersign /dollar /percent /ampersand /quotesingle
/parenleft /parenright /asterisk /plus /comma
/hyphen /period /slash /zero /one
/two /three /four /five /six
/seven /eight /nine /colon /semicolon
/less /equal /greater /question /at
/A /B /C /D /E
/F /G /H /I /J
/K /L /M /N /O
/P /Q /R /S /T
/U /V /W /X /Y
/Z /bracketleft /backslash /bracketright /asciicircum
/underscore /quoteleft /a /b /c
/d /e /f /g /h
/i /j /k /l /m
/n /o /p /q /r
/s /t /u /v /w
/x /y /z /braceleft /bar
/braceright /asciitilde /bullet /Euro /bullet
/quotesinglbase /florin /quotedblbase /ellipsis /dagger
/daggerdbl /circumflex /perthousand /Scaron /guilsinglleft
/OE /bullet /Zcaron /bullet /bullet
/quoteleft /quoteright /quotedblleft /quotedblright /bullet
/endash /emdash /asciitilde /trademark /scaron
/guilsinglright /oe /bullet /zcaron /Ydieresis
/space /exclamdown /cent /sterling /currency
/yen /brokenbar /section /dieresis /copyright
/ordfeminine /guillemotleft /logicalnot /sfthyphen /registered
/macron /degree /plusminus /twosuperior /threesuperior
/acute /mu /paragraph /middot /cedilla
/onesuperior /ordmasculine /guillemotright /onequarter /onehalf
/threequarters /questiondown /Agrave /Aacute /Acircumflex
/Atilde /Adieresis /Aring /AE /Ccedilla
/Egrave /Eacute /Ecircumflex /Edieresis /Igrave
/Iacute /Icircumflex /Idieresis /Eth /Ntilde
/Ograve /Oacute /Ocircumflex /Otilde /Odieresis
/multiply /Oslash /Ugrave /Uacute /Ucircumflex
/Udieresis /Yacute /Thorn /germandbls /agrave
/aacute /acircumflex /atilde /adieresis /aring
/ae /ccedilla /egrave /eacute /ecircumflex
/edieresis /igrave /iacute /icircumflex /idieresis
/eth /ntilde /ograve /oacute /ocircumflex
/otilde /odieresis /divide /oslash /ugrave
/uacute /ucircumflex /udieresis /yacute /thorn
/ydieresis
] def
%%EndResource
%FOPBeginFontReencode
/Courier-Bold findfont
dup length dict begin
  {1 index /FID ne {def} {pop pop} ifelse} forall
  /Encoding WinAnsiEncoding def
  currentdict
end
/Courier-Bold exch definefont pop
/Helvetica findfont
dup length dict begin
  {1 index /FID ne {def} {pop pop} ifelse} forall
  /Encoding WinAnsiEncoding def
  currentdict
end
/Helvetica exch definefont pop
/Courier-BoldOblique findfont
dup length dict begin
  {1 index /FID ne {def} {pop pop} ifelse} forall
  /Encoding WinAnsiEncoding def
  currentdict
end
/Courier-BoldOblique exch definefont pop
/Courier-Oblique findfont
dup length dict begin
  {1 index /FID ne {def} {pop pop} ifelse} forall
  /Encoding WinAnsiEncoding def
  currentdict
end
/Courier-Oblique exch definefont pop
/Times-Roman findfont
dup length dict begin
  {1 index /FID ne {def} {pop pop} ifelse} forall
  /Encoding WinAnsiEncoding def
  currentdict
end
/Times-Roman exch definefont pop
/Helvetica-BoldOblique findfont
dup length dict begin
  {1 index /FID ne {def} {pop pop} ifelse} forall
  /Encoding WinAnsiEncoding def
  currentdict
end
/Helvetica-BoldOblique exch definefont pop
/Helvetica-Bold findfont
dup length dict begin
  {1 index /FID ne {def} {pop pop} ifelse} forall
  /Encoding WinAnsiEncoding def
  currentdict
end
/Helvetica-Bold exch definefont pop
/Helvetica-Oblique findfont
dup length dict begin
  {1 index /FID ne {def} {pop pop} ifelse} forall
  /Encoding WinAnsiEncoding def
  currentdict
end
/Helvetica-Oblique exch definefont pop
/Times-BoldItalic findfont
dup length dict begin
  {1 index /FID ne {def} {pop pop} ifelse} forall
  /Encoding WinAnsiEncoding def
  currentdict
end
/Times-BoldItalic exch definefont pop
/Courier findfont
dup length dict begin
  {1 index /FID ne {def} {pop pop} ifelse} forall
  /Encoding WinAnsiEncoding def
  currentdict
end
/Courier exch definefont pop
/Times-Italic findfont
dup length dict begin
  {1 index /FID ne {def} {pop pop} ifelse} forall
  /Encoding WinAnsiEncoding def
  currentdict
end
/Times-Italic exch definefont pop
/Times-Bold findfont
dup length dict begin
  {1 index /FID ne {def} {pop pop} ifelse} forall
  /Encoding WinAnsiEncoding def
  currentdict
end
/Times-Bold exch definefont pop
%FOPEndFontReencode
%%EndProlog
%%Page: 1 1
%%PageBoundingBox: 0 0 1023 497
%%BeginPageSetup
[1 0 0 -1 0 497] CT
%%EndPageSetup
GS
[0.75 0 0 0.75 0 -0.25] CT
1 GC
N
0 0 1364 663 re
f
GR
GS
[0.75 0 0 0.75 0 -0.25] CT
1 GC
N
0 0 1364 663 re
f
GR
GS
[0.75 0 0 0.75 0 -0.25] CT
1 GC
N
177 590 M
1234 590 L
1234 50 L
177 50 L
cp
f
GR
GS
[0.75 0 0 0.75 0 -0.25] CT
0.149 GC
2 setlinecap
1 LJ
0.667 LW
N
177 590 M
1234 590 L
S
GR
GS
[0.75 0 0 0.75 0 -0.25] CT
0.149 GC
2 setlinecap
1 LJ
0.667 LW
N
177 50 M
1234 50 L
S
GR
GS
[0.75 0 0 0.75 0 -0.25] CT
0.149 GC
2 setlinecap
1 LJ
0.667 LW
N
177 590 M
177 579.43 L
S
GR
GS
[0.75 0 0 0.75 0 -0.25] CT
0.149 GC
2 setlinecap
1 LJ
0.667 LW
N
388.4 590 M
388.4 579.43 L
S
GR
GS
[0.75 0 0 0.75 0 -0.25] CT
0.149 GC
2 setlinecap
1 LJ
0.667 LW
N
599.8 590 M
599.8 579.43 L
S
GR
GS
[0.75 0 0 0.75 0 -0.25] CT
0.149 GC
2 setlinecap
1 LJ
0.667 LW
N
811.2 590 M
811.2 579.43 L
S
GR
GS
[0.75 0 0 0.75 0 -0.25] CT
0.149 GC
2 setlinecap
1 LJ
0.667 LW
N
1022.6 590 M
1022.6 579.43 L
S
GR
GS
[0.75 0 0 0.75 0 -0.25] CT
0.149 GC
2 setlinecap
1 LJ
0.667 LW
N
1234 590 M
1234 579.43 L
S
GR
GS
[0.75 0 0 0.75 0 -0.25] CT
0.149 GC
2 setlinecap
1 LJ
0.667 LW
N
177 50 M
177 60.57 L
S
GR
GS
[0.75 0 0 0.75 0 -0.25] CT
0.149 GC
2 setlinecap
1 LJ
0.667 LW
N
388.4 50 M
388.4 60.57 L
S
GR
GS
[0.75 0 0 0.75 0 -0.25] CT
0.149 GC
2 setlinecap
1 LJ
0.667 LW
N
599.8 50 M
599.8 60.57 L
S
GR
GS
[0.75 0 0 0.75 0 -0.25] CT
0.149 GC
2 setlinecap
1 LJ
0.667 LW
N
811.2 50 M
811.2 60.57 L
S
GR
GS
[0.75 0 0 0.75 0 -0.25] CT
0.149 GC
2 setlinecap
1 LJ
0.667 LW
N
1022.6 50 M
1022.6 60.57 L
S
GR
GS
[0.75 0 0 0.75 0 -0.25] CT
0.149 GC
2 setlinecap
1 LJ
0.667 LW
N
1234 50 M
1234 60.57 L
S
GR
GS
[0.75 0 0 0.75 132.75 446.24998] CT
0.149 GC
/Helvetica 13.333 F
GS
[1 0 0 1 0 0] CT
-4.5 13 moveto 
1 -1 scale
(0) t 
GR
GR
GS
[0.75 0 0 0.75 291.3 446.24998] CT
0.149 GC
/Helvetica 13.333 F
GS
[1 0 0 1 0 0] CT
-12.5 13 moveto 
1 -1 scale
(500) t 
GR
GR
GS
[0.75 0 0 0.75 449.84999 446.24998] CT
0.149 GC
/Helvetica 13.333 F
GS
[1 0 0 1 0 0] CT
-17 13 moveto 
1 -1 scale
(1000) t 
GR
GR
GS
[0.75 0 0 0.75 608.40001 446.24998] CT
0.149 GC
/Helvetica 13.333 F
GS
[1 0 0 1 0 0] CT
-17 13 moveto 
1 -1 scale
(1500) t 
GR
GR
GS
[0.75 0 0 0.75 766.94998 446.24998] CT
0.149 GC
/Helvetica 13.333 F
GS
[1 0 0 1 0 0] CT
-17 13 moveto 
1 -1 scale
(2000) t 
GR
GR
GS
[0.75 0 0 0.75 925.5 446.24998] CT
0.149 GC
/Helvetica 13.333 F
GS
[1 0 0 1 0 0] CT
-17 13 moveto 
1 -1 scale
(2500) t 
GR
GR
GS
[0.75 0 0 0.75 0 -0.25] CT
0.149 GC
2 setlinecap
1 LJ
0.667 LW
N
177 590 M
177 50 L
S
GR
GS
[0.75 0 0 0.75 0 -0.25] CT
0.149 GC
2 setlinecap
1 LJ
0.667 LW
N
1234 590 M
1234 50 L
S
GR
GS
[0.75 0 0 0.75 0 -0.25] CT
0.149 GC
2 setlinecap
1 LJ
0.667 LW
N
177 590 M
187.57 590 L
S
GR
GS
[0.75 0 0 0.75 0 -0.25] CT
0.149 GC
2 setlinecap
1 LJ
0.667 LW
N
177 530 M
187.57 530 L
S
GR
GS
[0.75 0 0 0.75 0 -0.25] CT
0.149 GC
2 setlinecap
1 LJ
0.667 LW
N
177 470 M
187.57 470 L
S
GR
GS
[0.75 0 0 0.75 0 -0.25] CT
0.149 GC
2 setlinecap
1 LJ
0.667 LW
N
177 410 M
187.57 410 L
S
GR
GS
[0.75 0 0 0.75 0 -0.25] CT
0.149 GC
2 setlinecap
1 LJ
0.667 LW
N
177 350 M
187.57 350 L
S
GR
GS
[0.75 0 0 0.75 0 -0.25] CT
0.149 GC
2 setlinecap
1 LJ
0.667 LW
N
177 290 M
187.57 290 L
S
GR
GS
[0.75 0 0 0.75 0 -0.25] CT
0.149 GC
2 setlinecap
1 LJ
0.667 LW
N
177 230 M
187.57 230 L
S
GR
GS
[0.75 0 0 0.75 0 -0.25] CT
0.149 GC
2 setlinecap
1 LJ
0.667 LW
N
177 170 M
187.57 170 L
S
GR
GS
[0.75 0 0 0.75 0 -0.25] CT
0.149 GC
2 setlinecap
1 LJ
0.667 LW
N
177 110 M
187.57 110 L
S
GR
GS
[0.75 0 0 0.75 0 -0.25] CT
0.149 GC
2 setlinecap
1 LJ
0.667 LW
N
177 50 M
187.57 50 L
S
GR
GS
[0.75 0 0 0.75 0 -0.25] CT
0.149 GC
2 setlinecap
1 LJ
0.667 LW
N
1234 590 M
1223.43 590 L
S
GR
GS
[0.75 0 0 0.75 0 -0.25] CT
0.149 GC
2 setlinecap
1 LJ
0.667 LW
N
1234 530 M
1223.43 530 L
S
GR
GS
[0.75 0 0 0.75 0 -0.25] CT
0.149 GC
2 setlinecap
1 LJ
0.667 LW
N
1234 470 M
1223.43 470 L
S
GR
GS
[0.75 0 0 0.75 0 -0.25] CT
0.149 GC
2 setlinecap
1 LJ
0.667 LW
N
1234 410 M
1223.43 410 L
S
GR
GS
[0.75 0 0 0.75 0 -0.25] CT
0.149 GC
2 setlinecap
1 LJ
0.667 LW
N
1234 350 M
1223.43 350 L
S
GR
GS
[0.75 0 0 0.75 0 -0.25] CT
0.149 GC
2 setlinecap
1 LJ
0.667 LW
N
1234 290 M
1223.43 290 L
S
GR
GS
[0.75 0 0 0.75 0 -0.25] CT
0.149 GC
2 setlinecap
1 LJ
0.667 LW
N
1234 230 M
1223.43 230 L
S
GR
GS
[0.75 0 0 0.75 0 -0.25] CT
0.149 GC
2 setlinecap
1 LJ
0.667 LW
N
1234 170 M
1223.43 170 L
S
GR
GS
[0.75 0 0 0.75 0 -0.25] CT
0.149 GC
2 setlinecap
1 LJ
0.667 LW
N
1234 110 M
1223.43 110 L
S
GR
GS
[0.75 0 0 0.75 0 -0.25] CT
0.149 GC
2 setlinecap
1 LJ
0.667 LW
N
1234 50 M
1223.43 50 L
S
GR
GS
[0.75 0 0 0.75 128.75 442.25] CT
0.149 GC
/Helvetica 13.333 F
GS
[1 0 0 1 0 0] CT
-13 4.5 moveto 
1 -1 scale
(-1) t 
GR
GR
GS
[0.75 0 0 0.75 128.75 397.25] CT
0.149 GC
/Helvetica 13.333 F
GS
[1 0 0 1 0 0] CT
-26 4.5 moveto 
1 -1 scale
(-0.8) t 
GR
GR
GS
[0.75 0 0 0.75 128.75 352.25] CT
0.149 GC
/Helvetica 13.333 F
GS
[1 0 0 1 0 0] CT
-26 4.5 moveto 
1 -1 scale
(-0.6) t 
GR
GR
GS
[0.75 0 0 0.75 128.75 307.25] CT
0.149 GC
/Helvetica 13.333 F
GS
[1 0 0 1 0 0] CT
-26 4.5 moveto 
1 -1 scale
(-0.4) t 
GR
GR
GS
[0.75 0 0 0.75 128.75 262.25] CT
0.149 GC
/Helvetica 13.333 F
GS
[1 0 0 1 0 0] CT
-26 4.5 moveto 
1 -1 scale
(-0.2) t 
GR
GR
GS
[0.75 0 0 0.75 128.75 217.25] CT
0.149 GC
/Helvetica 13.333 F
GS
[1 0 0 1 0 0] CT
-9 4.5 moveto 
1 -1 scale
(0) t 
GR
GR
GS
[0.75 0 0 0.75 128.75 172.25] CT
0.149 GC
/Helvetica 13.333 F
GS
[1 0 0 1 0 0] CT
-21 4.5 moveto 
1 -1 scale
(0.2) t 
GR
GR
GS
[0.75 0 0 0.75 128.75 127.25] CT
0.149 GC
/Helvetica 13.333 F
GS
[1 0 0 1 0 0] CT
-21 4.5 moveto 
1 -1 scale
(0.4) t 
GR
GR
GS
[0.75 0 0 0.75 128.75 82.24999] CT
0.149 GC
/Helvetica 13.333 F
GS
[1 0 0 1 0 0] CT
-21 4.5 moveto 
1 -1 scale
(0.6) t 
GR
GR
GS
[0.75 0 0 0.75 128.75 37.25] CT
0.149 GC
/Helvetica 13.333 F
GS
[1 0 0 1 0 0] CT
-21 4.5 moveto 
1 -1 scale
(0.8) t 
GR
GR
GS
[0.75 0 0 0.75 0 -0.25] CT
1 0 0 RC
1 LJ
0.667 LW
N
177.423 294.583 M
177.846 287.69 L
178.268 288.785 L
178.691 293.523 L
179.114 291.948 L
179.537 316.199 L
179.96 314.872 L
180.382 297.397 L
180.805 325.088 L
181.228 326.535 L
181.651 295.674 L
182.074 268.358 L
182.496 252.982 L
182.919 247.371 L
183.342 245.496 L
183.765 241.139 L
184.188 218.915 L
184.61 211.015 L
185.033 246.034 L
185.456 256.519 L
185.879 247.956 L
186.302 249.395 L
186.724 236.977 L
187.147 234.838 L
187.57 232.334 L
187.993 242.984 L
188.416 236.055 L
188.838 220.035 L
189.261 221.887 L
189.684 208.577 L
190.107 190.769 L
190.53 199.617 L
190.952 232.318 L
191.375 268.932 L
191.798 293.669 L
192.221 294.238 L
192.644 297.515 L
193.066 298.058 L
193.489 301.247 L
193.912 323.579 L
194.335 368.543 L
194.758 402.672 L
195.18 420.541 L
195.603 412.112 L
196.026 404.823 L
196.449 418.833 L
196.872 396.543 L
197.294 355.886 L
197.717 344.062 L
198.14 384.844 L
198.563 381.189 L
198.986 369.621 L
199.408 389.647 L
199.831 396.763 L
200.254 420.114 L
200.677 432.997 L
201.1 456.913 L
201.522 461.165 L
201.945 436.672 L
202.368 429.556 L
202.791 431.125 L
203.214 465.648 L
203.636 533.532 L
204.059 567.74 L
204.482 535.243 L
204.905 504.813 L
205.328 514.67 L
205.75 500.342 L
206.173 478.885 L
206.596 450.939 L
207.019 432.124 L
207.442 477.406 L
207.864 503.106 L
208.287 512.024 L
208.71 527.831 L
209.133 514.302 L
209.556 502.727 L
209.978 514.13 L
210.401 532.259 L
210.824 536.652 L
211.247 524.439 L
211.67 529.997 L
212.092 543.085 L
212.515 510.337 L
212.938 441.745 L
213.361 416.315 L
213.784 414.017 L
214.206 392.897 L
214.629 397.544 L
215.052 401.97 L
215.475 399.418 L
215.898 368.094 L
216.32 354.088 L
216.743 370.5 L
217.166 376.417 L
217.589 368.122 L
218.012 296.6 L
218.434 269.851 L
218.857 307.388 L
219.28 322.602 L
219.703 297.143 L
220.126 257.293 L
220.548 229.609 L
220.971 225.899 L
221.394 247.521 L
221.817 235.938 L
222.24 196.607 L
222.662 162.597 L
223.085 163.591 L
223.508 201.928 L
223.931 221.568 L
224.354 208.23 L
224.776 189.844 L
225.199 178.25 L
225.622 199.805 L
226.045 202.557 L
226.468 160.982 L
226.89 140.874 L
227.313 160.086 L
227.736 214.874 L
228.159 228.462 L
228.582 205.256 L
229.004 189.566 L
229.427 183.506 L
229.85 198.429 L
230.273 216.839 L
230.696 214.224 L
231.118 178.383 L
231.541 188.563 L
231.964 232.099 L
232.387 241.62 L
232.81 209.703 L
233.232 171.847 L
233.655 182.613 L
234.078 177.521 L
234.501 147.154 L
234.924 150.7 L
235.346 165.387 L
235.769 168.883 L
236.192 186.763 L
236.615 180.151 L
237.038 147.52 L
237.46 173.052 L
237.883 220.357 L
238.306 241.888 L
238.729 232.791 L
239.152 208.604 L
239.574 225.192 L
239.997 256.67 L
240.42 260.035 L
240.843 237.667 L
241.266 231.546 L
241.688 264.419 L
242.111 260.397 L
242.534 239.682 L
242.957 230.591 L
243.38 223.001 L
243.802 232.866 L
244.225 215.453 L
244.648 210.187 L
245.071 216.159 L
245.494 208.53 L
245.916 198.736 L
246.339 191.633 L
246.762 179.449 L
247.185 143.704 L
247.608 172.978 L
248.03 217.745 L
248.453 195.194 L
248.876 160.111 L
249.299 144.593 L
249.722 148.825 L
250.144 122.473 L
250.567 114.38 L
250.99 167.865 L
251.413 186.781 L
251.836 169.735 L
252.258 171.018 L
252.681 208.56 L
253.104 237.08 L
253.527 242.425 L
253.95 249.881 L
254.372 237.743 L
254.795 221.378 L
255.218 208.398 L
255.641 218.848 L
256.064 229.552 L
256.486 227.895 L
256.909 211.082 L
257.332 184.528 L
257.755 177.61 L
258.178 165.504 L
258.6 171.324 L
259.023 181.955 L
259.446 196.739 L
259.869 212.281 L
260.292 201.193 L
260.714 185.484 L
261.137 177.104 L
261.56 156.147 L
261.983 123.908 L
262.406 122.649 L
262.828 128.075 L
263.251 114.72 L
263.674 97.465 L
264.097 87.931 L
264.52 80.304 L
264.942 61.429 L
265.365 84.797 L
265.788 140.897 L
266.211 121.283 L
266.634 69.649 L
267.056 79.509 L
267.479 119.298 L
267.902 121.855 L
268.325 102.489 L
268.748 98.377 L
269.17 97.525 L
269.593 110.407 L
270.016 119.866 L
270.439 117.475 L
270.862 105.83 L
271.284 96.859 L
271.707 109.792 L
272.13 138.223 L
272.553 159.062 L
272.976 151.831 L
273.398 139.923 L
273.821 143.913 L
274.244 148.358 L
274.667 156.432 L
275.09 188.237 L
275.512 217.749 L
275.935 217.61 L
276.358 192.757 L
276.781 183.093 L
277.204 176.586 L
277.626 171.27 L
278.049 182.746 L
278.472 202.942 L
278.895 231.706 L
279.318 238.062 L
279.74 216.036 L
280.163 164.291 L
280.586 123.164 L
281.009 127.658 L
281.432 180.887 L
281.854 219.673 L
282.277 218.618 L
282.7 253.084 L
283.123 287.418 L
283.546 292.529 L
283.968 309.574 L
284.391 322.553 L
284.814 328.451 L
285.237 333.412 L
285.66 336.977 L
286.082 389.749 L
286.505 447.012 L
286.928 464.91 L
287.351 432.15 L
287.774 383.413 L
288.196 384.492 L
288.619 383.827 L
289.042 381.904 L
289.465 378.55 L
289.888 368.236 L
290.31 361.867 L
290.733 359.127 L
291.156 372.963 L
291.579 367.117 L
292.002 341.97 L
292.424 335.78 L
292.847 352.989 L
293.27 358.657 L
293.693 354.429 L
294.116 377.834 L
294.538 405.507 L
294.961 426.096 L
295.384 416.409 L
295.807 385.026 L
296.23 368.803 L
296.652 337.752 L
297.075 346.207 L
297.498 359.113 L
297.921 341.169 L
298.344 341.057 L
298.766 335.338 L
299.189 347.653 L
299.612 339.51 L
300.035 306.39 L
300.458 302.261 L
300.88 326.199 L
301.303 342.529 L
301.726 317.238 L
302.149 301.296 L
302.572 304.23 L
302.994 293.515 L
303.417 248.359 L
303.84 194.568 L
304.263 184.759 L
304.686 189.832 L
305.108 206.045 L
305.531 223.002 L
305.954 228.305 L
306.377 236.937 L
306.8 238.907 L
307.222 241.86 L
307.645 227.437 L
308.068 216.664 L
308.491 227.489 L
308.914 262.461 L
309.336 302.325 L
309.759 288.817 L
310.182 248.808 L
310.605 243.513 L
311.028 277.72 L
311.45 302.22 L
311.873 320.509 L
312.296 314.453 L
312.719 288.103 L
313.142 293.079 L
313.564 314.94 L
313.987 357.254 L
314.41 391.758 L
314.833 396.25 L
315.256 372.488 L
315.678 339.767 L
316.101 319.15 L
316.524 299.165 L
316.947 306.305 L
317.37 313.489 L
317.792 300.374 L
318.215 312.285 L
318.638 341.979 L
319.061 342.436 L
319.484 341.424 L
319.906 365.939 L
320.329 370.974 L
320.752 362.113 L
321.175 361.494 L
321.598 379.792 L
322.02 396.848 L
322.443 392.202 L
322.866 398.509 L
323.289 419.595 L
323.712 415.371 L
324.134 400.067 L
324.557 397.919 L
324.98 406.133 L
325.403 418.096 L
325.826 396.495 L
326.248 388.196 L
326.671 396.708 L
327.094 414.924 L
327.517 420.791 L
327.94 385.918 L
328.362 387.077 L
328.785 404.035 L
329.208 403.321 L
329.631 385.928 L
330.054 378.542 L
330.476 379.473 L
330.899 388.082 L
331.322 380.303 L
331.745 365.241 L
332.168 398.507 L
332.59 408.805 L
333.013 404.535 L
333.436 393.245 L
333.859 375.836 L
334.282 367.411 L
334.704 368.418 L
335.127 393.74 L
335.55 398.067 L
335.973 379.308 L
336.396 371.879 L
336.818 378.559 L
337.241 361.563 L
337.664 323.778 L
338.087 302.4 L
338.51 318.494 L
338.932 343.5 L
339.355 344.827 L
339.778 322.275 L
340.201 284.326 L
340.624 271.399 L
341.046 280.66 L
341.469 293.362 L
341.892 328.16 L
342.315 378.117 L
342.738 394.248 L
343.16 372.251 L
343.583 351.458 L
344.006 354.805 L
344.429 370.552 L
344.852 379.309 L
345.274 377.257 L
345.697 349.358 L
346.12 323.01 L
346.543 303.512 L
346.966 279.959 L
347.388 282.758 L
347.811 288.217 L
348.234 276.651 L
348.657 263.013 L
349.08 269.538 L
349.502 269.196 L
349.925 240.719 L
350.348 228.007 L
350.771 227.121 L
351.194 229.132 L
351.616 238.841 L
352.039 263.568 L
352.462 280.352 L
352.885 283.139 L
353.308 292.907 L
353.73 297.601 L
354.153 315.036 L
354.576 329.009 L
354.999 337.541 L
355.422 379.627 L
355.844 406.146 L
356.267 389.338 L
356.69 376.51 L
357.113 372.518 L
357.536 378.707 L
357.958 366.64 L
358.381 341.835 L
358.804 346.14 L
359.227 356.136 L
359.65 363.608 L
360.072 349.628 L
360.495 313.677 L
360.918 295.976 L
361.341 309.484 L
361.764 329.803 L
362.186 352.331 L
362.609 357.225 L
363.032 344.49 L
363.455 343.308 L
363.878 331.334 L
364.3 325.441 L
364.723 340.1 L
365.146 352.927 L
365.569 347.127 L
365.992 338.377 L
366.414 340.358 L
366.837 356.054 L
367.26 393.172 L
367.683 412.486 L
368.106 399.724 L
368.528 387.516 L
368.951 372.575 L
369.374 360.423 L
369.797 388.135 L
370.22 409.259 L
370.642 380.599 L
371.065 372.871 L
371.488 400.591 L
371.911 391.314 L
372.334 347.268 L
372.756 308.697 L
373.179 317.035 L
373.602 365.812 L
374.025 397.517 L
374.448 414.097 L
374.87 420.388 L
375.293 415.338 L
375.716 423.165 L
376.139 445.464 L
376.562 450.191 L
376.984 436.705 L
377.407 422.509 L
377.83 415.585 L
378.253 424.897 L
378.676 424.266 L
379.098 392.478 L
379.521 362.543 L
379.944 351.843 L
380.367 333.74 L
380.79 312.363 L
381.212 324.476 L
381.635 345.13 L
382.058 349.02 L
382.481 377.35 L
382.904 381.469 L
383.326 357.365 L
383.749 361.731 L
384.172 364.573 L
384.595 362.051 L
385.018 363.768 L
385.44 367.718 L
385.863 381.944 L
386.286 386.409 L
386.709 364.669 L
387.132 363.799 L
387.554 380.789 L
387.977 391.854 L
388.4 387.773 L
388.823 376.741 L
389.246 382.145 L
389.668 378.546 L
390.091 371.326 L
390.514 368.5 L
390.937 359.631 L
391.36 330.336 L
391.782 318.281 L
392.205 316.288 L
392.628 290.361 L
393.051 264.116 L
393.474 239.497 L
393.896 240.029 L
394.319 262.549 L
394.742 264.46 L
395.165 245.973 L
395.588 250.484 L
396.01 241.537 L
396.433 222.775 L
396.856 229.506 L
397.279 242.71 L
397.702 258.463 L
398.124 254.588 L
398.547 247.171 L
398.97 253.111 L
399.393 267.735 L
399.816 250.828 L
400.238 229.61 L
400.661 213.656 L
401.084 191.49 L
401.507 214.763 L
401.93 243.238 L
402.352 260.745 L
402.775 269.594 L
403.198 291.715 L
403.621 284.795 L
404.044 245.291 L
404.466 246.376 L
404.889 225.434 L
405.312 210.443 L
405.735 216.824 L
406.158 208.539 L
406.58 210.048 L
407.003 222.564 L
407.426 243.403 L
407.849 241.289 L
408.272 239.765 L
408.694 241.237 L
409.117 230.323 L
409.54 268.884 L
409.963 308.25 L
410.386 296.514 L
410.808 287.939 L
411.231 289.087 L
411.654 286.638 L
412.077 282.098 L
412.5 254.225 L
412.922 220.435 L
413.345 233.643 L
413.768 251.856 L
414.191 261.14 L
414.614 284.208 L
415.036 283.558 L
415.459 281.035 L
415.882 288 L
416.305 302.951 L
416.728 313.493 L
417.15 298.541 L
417.573 274.786 L
417.996 267.337 L
418.419 292.863 L
418.842 296.964 L
419.264 272.49 L
419.687 246.516 L
420.11 221.898 L
420.533 223.004 L
420.956 226.461 L
421.378 198.538 L
421.801 187.812 L
422.224 215.066 L
422.647 205.927 L
423.07 204.676 L
423.492 242.176 L
423.915 240.664 L
424.338 203.556 L
424.761 155.646 L
425.184 140.942 L
425.606 168.139 L
426.029 174.897 L
426.452 153.828 L
426.875 150.49 L
427.298 152.67 L
427.72 139.415 L
428.143 138.091 L
428.566 149.737 L
428.989 177.765 L
429.412 209.532 L
429.834 229.179 L
430.257 223.698 L
430.68 202.622 L
431.103 198.738 L
431.526 195.804 L
431.948 204.32 L
432.371 223.482 L
432.794 203.811 L
433.217 162.84 L
433.64 172.703 L
434.062 208.948 L
434.485 220.558 L
434.908 236.447 L
435.331 251.897 L
435.754 235.907 L
436.176 223.426 L
436.599 255.735 L
437.022 287.156 L
437.445 280.96 L
437.868 273.484 L
438.29 286.131 L
438.713 294.861 L
439.136 294.297 L
439.559 295.741 L
439.982 281.04 L
440.404 259.944 L
440.827 246.313 L
441.25 233.907 L
441.673 252.721 L
442.096 286.801 L
442.518 284.744 L
442.941 251.507 L
443.364 230.109 L
443.787 247.187 L
444.21 266.117 L
444.632 280.518 L
445.055 282.862 L
445.478 282.961 L
445.901 318.885 L
446.324 348.46 L
446.746 367.653 L
447.169 363.364 L
447.592 351.008 L
448.015 374.798 L
448.438 398.485 L
448.86 400.934 L
449.283 387.647 L
449.706 395.041 L
450.129 401.598 L
450.552 375.271 L
450.974 346.068 L
451.397 327.364 L
451.82 326.325 L
452.243 347.985 L
452.666 384.438 L
453.088 392.926 L
453.511 369.661 L
453.934 348.937 L
454.357 334.14 L
454.78 326.011 L
455.202 329.72 L
455.625 317.738 L
456.048 302.871 L
456.471 322.162 L
456.894 340.058 L
457.316 350.484 L
457.739 335.208 L
458.162 321.123 L
458.585 336.063 L
459.008 315.976 L
459.43 289.807 L
459.853 299.044 L
460.276 313.476 L
460.699 298.094 L
461.122 287.903 L
461.544 302.719 L
461.967 320.477 L
462.39 341.992 L
462.813 335.504 L
463.236 316.609 L
463.658 310.171 L
464.081 294.748 L
464.504 278.329 L
464.927 262.54 L
465.35 267.907 L
465.772 288.531 L
466.195 272.002 L
466.618 253.142 L
467.041 239.477 L
467.464 227.625 L
467.886 214.93 L
468.309 188.303 L
468.732 192.387 L
469.155 216.601 L
469.578 233.58 L
470 218.22 L
470.423 195.175 L
470.846 194.712 L
471.269 196.928 L
471.692 198.745 L
472.114 194.35 L
472.537 181.842 L
472.96 160.81 L
473.383 150.768 L
473.806 160.903 L
474.228 166.736 L
474.651 166.917 L
475.074 159.97 L
475.497 145.244 L
475.92 157.623 L
476.342 186.9 L
476.765 208.08 L
477.188 208.867 L
477.611 208.495 L
478.034 205.729 L
478.456 199.762 L
478.879 228.138 L
479.302 235.667 L
479.725 226.378 L
480.148 236.215 L
480.57 256.28 L
480.993 271.71 L
481.416 246.65 L
481.839 198.592 L
482.262 192.901 L
482.684 220.692 L
483.107 219.084 L
483.53 193.691 L
483.953 173.518 L
484.376 187.82 L
484.798 203.434 L
485.221 196.77 L
485.644 201.899 L
486.067 207.433 L
486.49 185.887 L
486.912 169.398 L
487.335 183.866 L
487.758 201.181 L
488.181 221.251 L
488.604 239.237 L
489.026 248.636 L
489.449 253.456 L
489.872 241.676 L
490.295 226.232 L
490.718 253.715 L
491.14 285.498 L
491.563 285.063 L
491.986 277.76 L
492.409 282.836 L
492.832 300.557 L
493.254 294.072 L
493.677 289.854 L
494.1 304.783 L
494.523 330.061 L
494.946 343.747 L
495.368 338.981 L
495.791 329.327 L
496.214 323.348 L
496.637 348.599 L
497.06 357.551 L
497.482 348.485 L
497.905 357.431 L
498.328 354.86 L
498.751 336.293 L
499.174 329.653 L
499.596 360.954 L
500.019 399.702 L
500.442 397.092 L
500.865 390.304 L
501.288 402.903 L
501.71 400.109 L
502.133 380.005 L
502.556 387.572 L
502.979 397.841 L
503.402 383.433 L
503.824 388.531 L
504.247 384.118 L
504.67 387.237 L
505.093 404.991 L
505.516 390.795 L
505.938 383.655 L
506.361 379.016 L
506.784 365.945 L
507.207 377.428 L
507.63 388.503 L
508.052 408.207 L
508.475 403.84 L
508.898 357.299 L
509.321 358.151 L
509.744 354.287 L
510.166 336.052 L
510.589 348.207 L
511.012 340.529 L
511.435 308.576 L
511.858 283.775 L
512.28 272.965 L
512.703 291.827 L
513.126 310.334 L
513.549 288.494 L
513.972 299.587 L
514.394 319.631 L
514.817 303.466 L
515.24 283.704 L
515.663 282.719 L
516.086 287.48 L
516.508 282.815 L
516.931 287.56 L
517.354 297.77 L
517.777 298.676 L
518.2 253.099 L
518.622 225.897 L
519.045 246.511 L
519.468 271.278 L
519.891 281.888 L
520.314 273.634 L
520.736 294.928 L
521.159 313.45 L
521.582 291.865 L
522.005 266.498 L
522.428 267.335 L
522.85 292.424 L
523.273 311.057 L
523.696 307.425 L
524.119 317.074 L
524.542 335.48 L
524.964 345.81 L
525.387 357.328 L
525.81 362.574 L
526.233 361.263 L
526.656 356.295 L
527.078 359.011 L
527.501 358.539 L
527.924 370.929 L
528.347 389.774 L
528.77 391.164 L
529.192 395.467 L
529.615 396.074 L
530.038 378.172 L
530.461 376.839 L
530.884 402.184 L
531.306 391.911 L
531.729 367.311 L
532.152 365.447 L
532.575 349.386 L
532.998 339.122 L
533.42 347.614 L
533.843 336.308 L
534.266 319.819 L
534.689 321.41 L
535.112 346.285 L
535.534 357.318 L
535.957 348.901 L
536.38 370.501 L
536.803 383.951 L
537.226 363.324 L
537.648 339.063 L
538.071 334.582 L
538.494 333.977 L
538.917 325.291 L
539.34 328.444 L
539.762 344.285 L
540.185 346.359 L
540.608 342.516 L
541.031 353.755 L
541.454 356.244 L
541.876 369.9 L
542.299 384.394 L
542.722 384.862 L
543.145 408.746 L
543.568 445.037 L
543.99 457.179 L
544.413 439.64 L
544.836 412.316 L
545.259 383.719 L
545.682 360.042 L
546.104 366.829 L
546.527 385.423 L
546.95 368.388 L
547.373 345.05 L
547.796 336.542 L
548.218 349.005 L
548.641 362.82 L
549.064 351.141 L
549.487 338.37 L
549.91 311.302 L
550.332 305.615 L
550.755 315.63 L
551.178 269.761 L
551.601 234.303 L
552.024 236.342 L
552.446 229.61 L
552.869 248.198 L
553.292 278.127 L
553.715 274.787 L
554.138 234.961 L
554.56 186.924 L
554.983 183.154 L
555.406 241.003 L
555.829 277.333 L
556.252 260.228 L
556.674 281.453 L
557.097 290.145 L
557.52 276.072 L
557.943 270.471 L
558.366 236.796 L
558.788 226.691 L
559.211 234.247 L
559.634 244.96 L
560.057 256.101 L
560.48 265.371 L
560.902 274.363 L
561.325 257.345 L
561.748 220.971 L
562.171 198.101 L
562.594 205.616 L
563.016 205.271 L
563.439 209.514 L
563.862 212.463 L
564.285 191.087 L
564.708 183.822 L
565.13 181.271 L
565.553 166.328 L
565.976 135.191 L
566.399 95.983 L
566.822 89.084 L
567.244 119.619 L
567.667 147.723 L
568.09 178.72 L
568.513 200.071 L
568.936 176.634 L
569.358 152.59 L
569.781 154.602 L
570.204 170.614 L
570.627 176.878 L
571.05 172.81 L
571.472 175.908 L
571.895 184.498 L
572.318 194.167 L
572.741 200.047 L
573.164 196.068 L
573.586 167.848 L
574.009 164.068 L
574.432 190.736 L
574.855 206.612 L
575.278 219.509 L
575.7 218.594 L
576.123 223.353 L
576.546 260.472 L
576.969 294.949 L
577.392 300.542 L
577.814 314.375 L
578.237 335.651 L
578.66 354.939 L
579.083 384.979 L
579.506 382.661 L
579.928 348.926 L
580.351 331.054 L
580.774 351.312 L
581.197 385.242 L
581.62 394.682 L
582.042 392.747 L
582.465 403.656 L
582.888 415.594 L
583.311 414.826 L
583.734 421.106 L
584.156 426.029 L
584.579 421.636 L
585.002 424.797 L
585.425 418.666 L
585.848 407.294 L
586.27 388.544 L
586.693 378.145 L
587.116 401.775 L
587.539 414.991 L
587.962 406.277 L
588.384 397.996 L
588.807 393.231 L
589.23 378.905 L
589.653 383.788 L
590.076 415.3 L
590.498 439.516 L
590.921 457.17 L
591.344 449.374 L
591.767 439.444 L
592.19 421.701 L
592.612 409.538 L
593.035 431.517 L
593.458 426.463 L
593.881 422.272 L
594.304 411.892 L
594.726 393.937 L
595.149 402.256 L
595.572 374.822 L
595.995 367.523 L
596.418 396.125 L
596.84 393.564 L
597.263 378.517 L
597.686 375.728 L
598.109 379.081 L
598.532 347.372 L
598.954 330.299 L
599.377 340.18 L
599.8 357.936 L
600.223 387.775 L
600.646 383.93 L
601.068 382.464 L
601.491 379.768 L
601.914 386.578 L
602.337 418.839 L
602.76 420.471 L
603.182 392.649 L
603.605 391.592 L
604.028 414.038 L
604.451 407.097 L
604.874 401.329 L
605.296 389.046 L
605.719 378.742 L
606.142 385.295 L
606.565 394.054 L
606.988 412.304 L
607.41 406.009 L
607.833 394.547 L
608.256 387.921 L
608.679 367.314 L
609.102 337.893 L
609.524 342.029 L
609.947 363.831 L
610.37 338.21 L
610.793 327.528 L
611.216 359.581 L
611.638 363.355 L
612.061 346.888 L
612.484 356.484 L
612.907 369.963 L
613.33 388.939 L
613.752 417.16 L
614.175 391.046 L
614.598 345.507 L
615.021 352.382 L
615.444 359.008 L
615.866 350.448 L
616.289 347.831 L
616.712 341.285 L
617.135 330.235 L
617.558 312.176 L
617.98 313.842 L
618.403 321.462 L
618.826 332.788 L
619.249 352.466 L
619.672 357.551 L
620.094 356.621 L
620.517 351.152 L
620.94 348.498 L
621.363 339.97 L
621.786 318.72 L
622.208 296.237 L
622.631 314.595 L
623.054 357.823 L
623.477 365.288 L
623.9 354.951 L
624.322 329.838 L
624.745 308.566 L
625.168 302.089 L
625.591 301.954 L
626.014 311.655 L
626.436 310.539 L
626.859 317.56 L
627.282 313.103 L
627.705 304.958 L
628.128 337.757 L
628.55 350.204 L
628.973 334.815 L
629.396 318.686 L
629.819 302.927 L
630.242 304.872 L
630.664 305.162 L
631.087 318.231 L
631.51 323.093 L
631.933 300.092 L
632.356 306.963 L
632.778 328.509 L
633.201 331.249 L
633.624 298.554 L
634.047 280.776 L
634.47 335.01 L
634.892 368.459 L
635.315 359.406 L
635.738 340.246 L
636.161 305.007 L
636.584 269.632 L
637.006 258.797 L
637.429 299.381 L
637.852 321.949 L
638.275 310 L
638.698 305.284 L
639.12 313.666 L
639.543 339.034 L
639.966 324.829 L
640.389 291.224 L
640.812 295.572 L
641.234 316.37 L
641.657 339.604 L
642.08 338.352 L
642.503 281.327 L
642.926 242.786 L
643.348 285.127 L
643.771 345.227 L
644.194 357.062 L
644.617 325.659 L
645.04 295.287 L
645.462 281.295 L
645.885 285.475 L
646.308 291.818 L
646.731 275.269 L
647.154 247.094 L
647.576 222.733 L
647.999 202.405 L
648.422 186.701 L
648.845 167.15 L
649.268 136.331 L
649.69 131.131 L
650.113 149.854 L
650.536 165.801 L
650.959 179.575 L
651.382 180.932 L
651.804 166.364 L
652.227 153.215 L
652.65 157.601 L
653.073 160.03 L
653.496 158.726 L
653.918 171.768 L
654.341 199.69 L
654.764 228.667 L
655.187 240.553 L
655.61 217.591 L
656.032 192.437 L
656.455 192.126 L
656.878 179.865 L
657.301 191.738 L
657.724 200.08 L
658.146 178.161 L
658.569 182.975 L
658.992 190.849 L
659.415 186.206 L
659.838 166.59 L
660.26 163.41 L
660.683 169.196 L
661.106 176.707 L
661.529 182.996 L
661.952 144.343 L
662.374 126.202 L
662.797 115.707 L
663.22 96.894 L
663.643 106.492 L
664.066 100.977 L
664.488 83.878 L
664.911 69.783 L
665.334 69.119 L
665.757 77.666 L
666.18 74.065 L
666.602 91.746 L
667.025 130.049 L
667.448 137.698 L
667.871 95.676 L
668.294 66.548 L
668.716 95.435 L
669.139 119.311 L
669.562 118.524 L
669.985 114.57 L
670.408 125.058 L
670.83 143.446 L
671.253 142.737 L
671.676 146.211 L
672.099 153.251 L
672.522 162.603 L
672.944 187.974 L
673.367 218.469 L
673.79 235.43 L
674.213 235.523 L
674.636 235.801 L
675.058 244.494 L
675.481 238.851 L
675.904 220.779 L
676.327 217.62 L
676.75 223.417 L
677.172 220.646 L
677.595 204.766 L
678.018 211.173 L
678.441 233.441 L
678.864 228.37 L
679.286 208.317 L
679.709 218.509 L
680.132 243.825 L
680.555 238.647 L
680.978 219.418 L
681.4 227.961 L
681.823 248.578 L
682.246 239.302 L
682.669 220.173 L
683.092 210.283 L
683.514 235.351 L
683.937 252.82 L
684.36 256.75 L
684.783 266.187 L
685.206 239.653 L
685.628 232.859 L
686.051 242.449 L
686.474 242.038 L
686.897 228.012 L
687.32 213.583 L
687.742 212.457 L
688.165 223.098 L
688.588 236.401 L
689.011 228.89 L
689.434 243.694 L
689.856 266.299 L
690.279 258.984 L
690.702 256.365 L
691.125 295.329 L
691.548 303.982 L
691.97 276.007 L
692.393 272.531 L
692.816 286.475 L
693.239 316.126 L
693.662 314.36 L
694.084 305.007 L
694.507 308.267 L
694.93 299.935 L
695.353 307.963 L
695.776 312.89 L
696.198 305.284 L
696.621 313.723 L
697.044 335.222 L
697.467 347.202 L
697.89 322.681 L
698.312 291.724 L
698.735 285.334 L
699.158 317.264 L
699.581 359.941 L
700.004 334.791 L
700.426 308.853 L
700.849 328.59 L
701.272 357.836 L
701.695 350.626 L
702.118 331.738 L
702.54 349.095 L
702.963 349.053 L
703.386 349.414 L
703.809 356.072 L
704.232 378.288 L
704.654 382.356 L
705.077 354.643 L
705.5 359.245 L
705.923 384.521 L
706.346 422.404 L
706.768 429.266 L
707.191 406.879 L
707.614 394.76 L
708.037 394.421 L
708.46 401.79 L
708.882 421.465 L
709.305 443.136 L
709.728 427.428 L
710.151 399.671 L
710.574 395.248 L
710.996 410.681 L
711.419 432.539 L
711.842 442.711 L
712.265 431.005 L
712.688 432.903 L
713.11 456.21 L
713.533 451.393 L
713.956 432.694 L
714.379 428.748 L
714.802 429.273 L
715.224 430.272 L
715.647 417.196 L
716.07 399.721 L
716.493 408.84 L
716.916 411.373 L
717.338 393.708 L
717.761 392.246 L
718.184 398.966 L
718.607 376.366 L
719.03 344.352 L
719.452 323.574 L
719.875 292.275 L
720.298 296.735 L
720.721 309.367 L
721.144 275.826 L
721.566 256.223 L
721.989 255.362 L
722.412 260.284 L
722.835 268.511 L
723.258 234.864 L
723.68 181.398 L
724.103 184.266 L
724.526 212.734 L
724.949 227.118 L
725.372 243.095 L
725.794 244.872 L
726.217 250.13 L
726.64 261.039 L
727.063 255.039 L
727.486 236.395 L
727.908 236.271 L
728.331 255.915 L
728.754 250.066 L
729.177 243.938 L
729.6 237.821 L
730.022 213.887 L
730.445 216.146 L
730.868 227.124 L
731.291 225.416 L
731.714 228.418 L
732.136 232.711 L
732.559 220.941 L
732.982 212.34 L
733.405 243.702 L
733.828 267.469 L
734.25 257.367 L
734.673 235.346 L
735.096 223.434 L
735.519 225.936 L
735.942 225.793 L
736.364 240.517 L
736.787 257.458 L
737.21 253.979 L
737.633 244.353 L
738.056 268.122 L
738.478 296.824 L
738.901 301.474 L
739.324 306.417 L
739.747 314.425 L
740.17 324.876 L
740.592 326.365 L
741.015 324.845 L
741.438 295.009 L
741.861 280.416 L
742.284 301.61 L
742.706 310.461 L
743.129 315.452 L
743.552 308.293 L
743.975 298.563 L
744.398 298.17 L
744.82 315.607 L
745.243 307.716 L
745.666 305.407 L
746.089 345.853 L
746.512 367.101 L
746.934 368.911 L
747.357 337.942 L
747.78 319.155 L
748.203 353.062 L
748.626 388.499 L
749.048 400.169 L
749.471 397.71 L
749.894 381.276 L
750.317 363.965 L
750.74 372.334 L
751.162 371.256 L
751.585 351.248 L
752.008 337.873 L
752.431 348.028 L
752.854 358.302 L
753.276 338.836 L
753.699 343.385 L
754.122 367.104 L
754.545 373.159 L
754.968 380.321 L
755.39 388.298 L
755.813 389.612 L
756.236 383.794 L
756.659 374.285 L
757.082 357.775 L
757.504 348.041 L
757.927 349.353 L
758.35 344.954 L
758.773 339.243 L
759.196 319.409 L
759.618 283.882 L
760.041 276.809 L
760.464 305.98 L
760.887 322.579 L
761.31 326.864 L
761.732 325.122 L
762.155 312.625 L
762.578 314.139 L
763.001 300.3 L
763.424 286.4 L
763.846 307.235 L
764.269 305.67 L
764.692 293.585 L
765.115 296.027 L
765.538 289.584 L
765.96 279.018 L
766.383 280.555 L
766.806 308.97 L
767.229 301.942 L
767.652 278.109 L
768.074 291.812 L
768.497 297.448 L
768.92 291.495 L
769.343 272.617 L
769.766 256.431 L
770.188 257.426 L
770.611 261.449 L
771.034 263.359 L
771.457 255.952 L
771.88 229.656 L
772.302 211.11 L
772.725 222.461 L
773.148 228.935 L
773.571 233.433 L
773.994 235.418 L
774.416 225.835 L
774.839 231.422 L
775.262 253.709 L
775.685 260.756 L
776.108 251.799 L
776.53 228.127 L
776.953 203.934 L
777.376 216.265 L
777.799 232.196 L
778.222 228.941 L
778.644 221.776 L
779.067 219.105 L
779.49 215.825 L
779.913 201.061 L
780.336 182.99 L
780.758 180.589 L
781.181 190.754 L
781.604 192.992 L
782.027 199.423 L
782.45 214.189 L
782.872 223.605 L
783.295 227.373 L
783.718 219.633 L
784.141 219.893 L
784.564 234.75 L
784.986 251.332 L
785.409 284.839 L
785.832 308.39 L
786.255 315.586 L
786.678 302.663 L
787.1 280.17 L
787.523 289.476 L
787.946 305.387 L
788.369 312.07 L
788.792 296.773 L
789.214 289.059 L
789.637 298.677 L
790.06 299.958 L
790.483 305.282 L
790.906 284.216 L
791.328 248.252 L
791.751 239.706 L
792.174 234.246 L
792.597 218.956 L
793.02 212.351 L
793.442 224.566 L
793.865 257.28 L
794.288 276.163 L
794.711 277.33 L
795.134 274.715 L
795.556 269.889 L
795.979 274.275 L
796.402 283.938 L
796.825 287.894 L
797.248 281.491 L
797.67 295.668 L
798.093 326.715 L
798.516 349.407 L
798.939 342.73 L
799.362 316.428 L
799.784 308.604 L
800.207 301.199 L
800.63 268.333 L
801.053 246.649 L
801.476 282.053 L
801.898 304.263 L
802.321 288.347 L
802.744 272.511 L
803.167 262.864 L
803.59 281.966 L
804.012 289.161 L
804.435 283.109 L
804.858 279.648 L
805.281 263.122 L
805.704 259.199 L
806.126 265.936 L
806.549 270.059 L
806.972 262.863 L
807.395 253.372 L
807.818 255.356 L
808.24 260.085 L
808.663 257.628 L
809.086 247.938 L
809.509 239.286 L
809.932 237.357 L
810.354 246.418 L
810.777 248.651 L
811.2 228.771 L
811.623 190.49 L
812.046 167.994 L
812.468 181.127 L
812.891 226.087 L
813.314 258.929 L
813.737 208.606 L
814.16 147.226 L
814.582 149.277 L
815.005 186.039 L
815.428 223.222 L
815.851 235.84 L
816.274 236.566 L
816.696 233.444 L
817.119 242.093 L
817.542 260.743 L
817.965 243.233 L
818.388 228.96 L
818.81 242.168 L
819.233 241.174 L
819.656 241.09 L
820.079 240.882 L
820.502 232.433 L
820.924 230.358 L
821.347 238.537 L
821.77 239.711 L
822.193 255.464 L
822.616 271.705 L
823.038 238.18 L
823.461 211.114 L
823.884 199.325 L
824.307 194.952 L
824.73 219.596 L
825.152 264.457 L
825.575 299.451 L
825.998 305.346 L
826.421 300.561 L
826.844 288.613 L
827.266 282.268 L
827.689 275.786 L
828.112 273.104 L
828.535 286.889 L
828.958 304.4 L
829.38 324.021 L
829.803 329.183 L
830.226 302.688 L
830.649 285.294 L
831.072 301.19 L
831.494 326.192 L
831.917 342.495 L
832.34 349.119 L
832.763 361.845 L
833.186 352.267 L
833.608 331.817 L
834.031 351.176 L
834.454 375.208 L
834.877 360.966 L
835.3 347.265 L
835.722 357.206 L
836.145 359.705 L
836.568 352.318 L
836.991 357.845 L
837.414 369.589 L
837.836 363.327 L
838.259 366.168 L
838.682 370.703 L
839.105 366.954 L
839.528 384.269 L
839.95 388.377 L
840.373 378.636 L
840.796 397.468 L
841.219 405.235 L
841.642 383.74 L
842.064 378.579 L
842.487 372.349 L
842.91 351.095 L
843.333 363.82 L
843.756 401.479 L
844.178 404.561 L
844.601 380.383 L
845.024 343.25 L
845.447 324.235 L
845.87 329.089 L
846.292 321.192 L
846.715 326.884 L
847.138 336.703 L
847.561 314.779 L
847.984 282.875 L
848.406 285.909 L
848.829 307.226 L
849.252 309.575 L
849.675 297.967 L
850.098 306.153 L
850.52 324.433 L
850.943 315.621 L
851.366 285.764 L
851.789 263.776 L
852.212 269.852 L
852.634 270.418 L
853.057 278.593 L
853.48 286.662 L
853.903 248.883 L
854.326 198.062 L
854.748 208.82 L
855.171 251.389 L
855.594 242.98 L
856.017 229.64 L
856.44 239.378 L
856.862 254.27 L
857.285 243.725 L
857.708 228.819 L
858.131 240.456 L
858.554 240.25 L
858.976 248.082 L
859.399 261.2 L
859.822 259.738 L
860.245 251.591 L
860.668 247.243 L
861.09 264.385 L
861.513 265.204 L
861.936 245.794 L
862.359 226.11 L
862.782 210.267 L
863.204 219.179 L
863.627 226.61 L
864.05 244.891 L
864.473 248.315 L
864.896 225.755 L
865.318 214.432 L
865.741 201.888 L
866.164 217.583 L
866.587 222.307 L
867.01 198.905 L
867.432 192.656 L
867.855 198.441 L
868.278 190.295 L
868.701 174.19 L
869.124 181.975 L
869.546 207.102 L
869.969 225.156 L
870.392 219.887 L
870.815 204.788 L
871.238 201.445 L
871.66 208.861 L
872.083 215.902 L
872.506 232.672 L
872.929 239.376 L
873.352 258.91 L
873.774 304.738 L
874.197 316.822 L
874.62 324.625 L
875.043 366.681 L
875.466 410.185 L
875.888 424.536 L
876.311 412.285 L
876.734 387.703 L
877.157 399.28 L
877.58 437.059 L
878.002 457.847 L
878.425 450.774 L
878.848 417.371 L
879.271 399.524 L
879.694 393.409 L
880.116 400.81 L
880.539 424.676 L
880.962 427.149 L
881.385 401.048 L
881.808 378.744 L
882.23 366.292 L
882.653 354.069 L
883.076 345.913 L
883.499 338.548 L
883.922 328.042 L
884.344 324.628 L
884.767 339.558 L
885.19 341.406 L
885.613 339.951 L
886.036 343.153 L
886.458 343.08 L
886.881 341.174 L
887.304 330.086 L
887.727 349.668 L
888.15 368.757 L
888.572 348.924 L
888.995 325.017 L
889.418 316.701 L
889.841 326.059 L
890.264 323.763 L
890.686 326.097 L
891.109 345.735 L
891.532 349.476 L
891.955 341.107 L
892.378 324.578 L
892.8 321.913 L
893.223 313.356 L
893.646 288.072 L
894.069 276.368 L
894.492 272.787 L
894.914 275.374 L
895.337 277.951 L
895.76 286.023 L
896.183 292.954 L
896.606 294.59 L
897.028 280.793 L
897.451 270.246 L
897.874 282.82 L
898.297 281.061 L
898.72 266.656 L
899.142 264.404 L
899.565 268.265 L
899.988 260.108 L
900.411 265.858 L
900.834 272.212 L
901.256 259.32 L
901.679 264.382 L
902.102 280.281 L
902.525 283.481 L
902.948 285.148 L
903.37 300.287 L
903.793 321.243 L
904.216 340.669 L
904.639 347.972 L
905.062 342.827 L
905.484 361.766 L
905.907 391.477 L
906.33 386.846 L
906.753 380.85 L
907.176 392.608 L
907.598 405.63 L
908.021 416.335 L
908.444 438.062 L
908.867 447.459 L
909.29 430.785 L
909.712 457.959 L
910.135 496.383 L
910.558 489.1 L
910.981 461.062 L
911.404 452.88 L
911.826 463.002 L
912.249 444.913 L
912.672 412.611 L
913.095 414.405 L
913.518 439.681 L
913.94 418.445 L
914.363 381.383 L
914.786 412.591 L
915.209 448.27 L
915.632 425.231 L
916.054 408.957 L
916.477 401.728 L
916.9 372.432 L
917.323 350.118 L
917.746 342.436 L
918.168 330.25 L
918.591 321.407 L
919.014 330.733 L
919.437 348.308 L
919.86 383.666 L
920.282 386.152 L
920.705 368.825 L
921.128 377.165 L
921.551 374.483 L
921.974 353.848 L
922.396 330.226 L
922.819 343.993 L
923.242 357.805 L
923.665 346.622 L
924.088 332.522 L
924.51 327.359 L
924.933 335.495 L
925.356 323.315 L
925.779 305.693 L
926.202 302.251 L
926.624 301.629 L
927.047 290.53 L
927.47 299.585 L
927.893 315.299 L
928.316 307.21 L
928.738 296.583 L
929.161 285.449 L
929.584 298.619 L
930.007 329.094 L
930.43 354.42 L
930.852 359.689 L
931.275 358.574 L
931.698 387.78 L
932.121 418.022 L
932.544 431.683 L
932.966 438.866 L
933.389 447.338 L
933.812 461.286 L
934.235 463.519 L
934.658 455.06 L
935.08 437.43 L
935.503 404.015 L
935.926 394.856 L
936.349 410.029 L
936.772 411.782 L
937.194 409.215 L
937.617 392.186 L
938.04 374.139 L
938.463 382.078 L
938.886 380.826 L
939.308 369.518 L
939.731 398.979 L
940.154 433.631 L
940.577 419.521 L
941 408.158 L
941.422 401.419 L
941.845 399.767 L
942.268 426.509 L
942.691 443.304 L
943.114 456.347 L
943.536 454.471 L
943.959 439.75 L
944.382 420.338 L
944.805 384.139 L
945.228 357.442 L
945.65 333.919 L
946.073 314.864 L
946.496 306.958 L
946.919 316.361 L
947.342 314.6 L
947.764 280.51 L
948.187 254.617 L
948.61 237.361 L
949.033 222.311 L
949.456 206.614 L
949.878 168.734 L
950.301 126.869 L
950.724 146.65 L
951.147 195.949 L
951.57 207.464 L
951.992 203.219 L
952.415 195.951 L
952.838 190.757 L
953.261 198.235 L
953.684 216.627 L
954.106 216.566 L
954.529 187.898 L
954.952 159.186 L
955.375 158.951 L
955.798 193.904 L
956.22 219.845 L
956.643 210.397 L
957.066 196.633 L
957.489 198.34 L
957.912 203.324 L
958.334 200.649 L
958.757 183.331 L
959.18 164.323 L
959.603 162.457 L
960.026 181.29 L
960.448 200.637 L
960.871 222.284 L
961.294 235.497 L
961.717 224.969 L
962.14 241.109 L
962.562 278.578 L
962.985 295.782 L
963.408 275.078 L
963.831 269.192 L
964.254 284.969 L
964.676 252.776 L
965.099 233.276 L
965.522 245.227 L
965.945 240.87 L
966.368 229.163 L
966.79 215.108 L
967.213 210.672 L
967.636 203.369 L
968.059 201.155 L
968.482 235.484 L
968.904 266.149 L
969.327 279.62 L
969.75 289.465 L
970.173 282.959 L
970.596 276.907 L
971.018 294.227 L
971.441 306.412 L
971.864 283.728 L
972.287 279.874 L
972.71 285.03 L
973.132 248.508 L
973.555 229.97 L
973.978 253.228 L
974.401 271.387 L
974.824 276.595 L
975.246 275.56 L
975.669 294.619 L
976.092 328.157 L
976.515 322.962 L
976.938 295.649 L
977.36 275.46 L
977.783 274.918 L
978.206 284.226 L
978.629 277.968 L
979.052 257.492 L
979.474 247.259 L
979.897 254.5 L
980.32 251.142 L
980.743 250.884 L
981.166 248.262 L
981.588 224.517 L
982.011 214.91 L
982.434 236.616 L
982.857 256.85 L
983.28 275.351 L
983.702 302.27 L
984.125 307.076 L
984.548 307.9 L
984.971 329.47 L
985.394 340.597 L
985.816 339.455 L
986.239 353.603 L
986.662 373.739 L
987.085 391.242 L
987.508 412.07 L
987.93 422.939 L
988.353 409.62 L
988.776 405.006 L
989.199 405.982 L
989.622 390.57 L
990.044 381.84 L
990.467 379.681 L
990.89 388.494 L
991.313 392.503 L
991.736 381.321 L
992.158 366.302 L
992.581 351.434 L
993.004 339.597 L
993.427 341.528 L
993.85 351.633 L
994.272 366.862 L
994.695 388.564 L
995.118 382.723 L
995.541 382.06 L
995.964 380.385 L
996.386 365.259 L
996.809 365.783 L
997.232 353.518 L
997.655 342.599 L
998.078 348.016 L
998.5 357.078 L
998.923 369.299 L
999.346 358.272 L
999.769 322.831 L
1000.192 310.261 L
1000.614 306.156 L
1001.037 290.56 L
1001.46 288.192 L
1001.883 300.018 L
1002.306 304.684 L
1002.728 301.268 L
1003.151 321.809 L
1003.574 348.192 L
1003.997 344.138 L
1004.42 322.616 L
1004.842 314.226 L
1005.265 335.514 L
1005.688 362.111 L
1006.111 377.253 L
1006.534 394.795 L
1006.956 398.053 L
1007.379 403.032 L
1007.802 423.602 L
1008.225 413.386 L
1008.648 380.597 L
1009.07 365.856 L
1009.493 362.213 L
1009.916 362.159 L
1010.339 364.386 L
1010.762 345.602 L
1011.184 325.335 L
1011.607 310.463 L
1012.03 289.291 L
1012.453 259.868 L
1012.876 244.934 L
1013.298 260.136 L
1013.721 240.882 L
1014.144 196.693 L
1014.567 190.748 L
1014.99 227.443 L
1015.412 254.073 L
1015.835 253.972 L
1016.258 257.052 L
1016.681 261.494 L
1017.104 271.27 L
1017.526 280.935 L
1017.949 296.363 L
1018.372 318.555 L
1018.795 319.552 L
1019.218 329.818 L
1019.64 344.283 L
1020.063 311.246 L
1020.486 300.658 L
1020.909 325.168 L
1021.332 332.815 L
1021.754 334.873 L
1022.177 332.329 L
1022.6 315.431 L
1023.023 291.615 L
1023.446 281.804 L
1023.868 264.443 L
1024.291 265.115 L
1024.714 279.023 L
1025.137 261.087 L
1025.56 226.455 L
1025.982 211.72 L
1026.405 216.009 L
1026.828 210.327 L
1027.251 225.932 L
1027.674 239.614 L
1028.096 247.704 L
1028.519 259.075 L
1028.942 260.732 L
1029.365 259.797 L
1029.788 260.418 L
1030.21 280.055 L
1030.633 275.549 L
1031.056 254.538 L
1031.479 250.313 L
1031.902 266.123 L
1032.324 271.172 L
1032.747 250.067 L
1033.17 246.196 L
1033.593 253.656 L
1034.016 259.745 L
1034.438 267.288 L
1034.861 271.328 L
1035.284 260.055 L
1035.707 260.226 L
1036.13 277.522 L
1036.552 296.383 L
1036.975 313.921 L
1037.398 310.664 L
1037.821 302.643 L
1038.244 309.103 L
1038.666 332.389 L
1039.089 334.723 L
1039.512 320.447 L
1039.935 320.869 L
1040.358 324.41 L
1040.78 327.363 L
1041.203 319.807 L
1041.626 325.829 L
1042.049 347.361 L
1042.472 354.018 L
1042.894 353.623 L
S
GR
GS
[0.75 0 0 0.75 0 -0.25] CT
1 LJ
0.667 LW
N
177.423 297.819 M
177.846 291.062 L
178.268 293.259 L
178.691 298.295 L
179.114 304.566 L
179.537 323.087 L
179.96 316.111 L
180.382 305.518 L
180.805 327.253 L
181.228 336.271 L
181.651 315.278 L
182.074 291.675 L
182.496 275.223 L
182.919 274.427 L
183.342 278.3 L
183.765 274.995 L
184.188 256.364 L
184.61 246.577 L
185.033 271.232 L
185.456 286.997 L
185.879 288.38 L
186.302 288.737 L
186.724 277.183 L
187.147 267.762 L
187.57 268.705 L
187.993 277.622 L
188.416 271.973 L
188.838 252.875 L
189.261 250.074 L
189.684 236.469 L
190.107 215.403 L
190.53 223.221 L
190.952 244.526 L
191.375 273.85 L
191.798 294.303 L
192.221 296.866 L
192.644 292.573 L
193.066 289.084 L
193.489 293.561 L
193.912 306.479 L
194.335 336.436 L
194.758 362.235 L
195.18 374.503 L
195.603 362.464 L
196.026 356.019 L
196.449 373.652 L
196.872 357.511 L
197.294 320.45 L
197.717 313.346 L
198.14 341.965 L
198.563 347.175 L
198.986 345.554 L
199.408 364.478 L
199.831 374.412 L
200.254 388.969 L
200.677 394.141 L
201.1 407.288 L
201.522 411.5 L
201.945 399.369 L
202.368 396.284 L
202.791 393.784 L
203.214 431.614 L
203.636 482.755 L
204.059 501.853 L
204.482 482.462 L
204.905 460.233 L
205.328 465.671 L
205.75 454.117 L
206.173 441.346 L
206.596 424.116 L
207.019 406.107 L
207.442 430.076 L
207.864 447.892 L
208.287 456.415 L
208.71 468.024 L
209.133 454.557 L
209.556 449.714 L
209.978 457.587 L
210.401 463.767 L
210.824 470.652 L
211.247 465.854 L
211.67 472.227 L
212.092 477.646 L
212.515 443.049 L
212.938 391.303 L
213.361 373.569 L
213.784 371.784 L
214.206 363.737 L
214.629 362.235 L
215.052 362.574 L
215.475 366.794 L
215.898 353.611 L
216.32 351.258 L
216.743 357.355 L
217.166 361.594 L
217.589 355.488 L
218.012 296.812 L
218.434 274.857 L
218.857 311.304 L
219.28 326.429 L
219.703 306.663 L
220.126 285.432 L
220.548 269.117 L
220.971 267.011 L
221.394 283.436 L
221.817 272.275 L
222.24 244.077 L
222.662 221.061 L
223.085 218.433 L
223.508 243.546 L
223.931 259.925 L
224.354 252.793 L
224.776 237.311 L
225.199 222.809 L
225.622 231.827 L
226.045 234.638 L
226.468 202.155 L
226.89 189.484 L
227.313 211.631 L
227.736 250.632 L
228.159 260.447 L
228.582 237.65 L
229.004 220.365 L
229.427 214.625 L
229.85 233.741 L
230.273 253.736 L
230.696 247.941 L
231.118 225.547 L
231.541 236.396 L
231.964 269.52 L
232.387 276.661 L
232.81 254.139 L
233.232 224.393 L
233.655 237.604 L
234.078 235.279 L
234.501 211.027 L
234.924 221.921 L
235.346 231.571 L
235.769 235.49 L
236.192 244.233 L
236.615 239.161 L
237.038 216.767 L
237.46 233.091 L
237.883 269.584 L
238.306 277.741 L
238.729 263.019 L
239.152 239.591 L
239.574 252.473 L
239.997 271.158 L
240.42 275.663 L
240.843 258.112 L
241.266 249.204 L
241.688 280.396 L
242.111 281.66 L
242.534 270.28 L
242.957 260.255 L
243.38 257.545 L
243.802 263.331 L
244.225 243.601 L
244.648 237.467 L
245.071 236.204 L
245.494 226.719 L
245.916 214.908 L
246.339 206.733 L
246.762 202.476 L
247.185 178.068 L
247.608 194.849 L
248.03 224.897 L
248.453 209.406 L
248.876 185.428 L
249.299 172.062 L
249.722 174.268 L
250.144 157.258 L
250.567 157.761 L
250.99 187.91 L
251.413 195.536 L
251.836 189.283 L
252.258 194.611 L
252.681 231.351 L
253.104 249.525 L
253.527 246.815 L
253.95 248.682 L
254.372 240.296 L
254.795 233.1 L
255.218 231.296 L
255.641 240.122 L
256.064 246.174 L
256.486 244.745 L
256.909 227.589 L
257.332 203.071 L
257.755 188.624 L
258.178 175.825 L
258.6 185.593 L
259.023 201.716 L
259.446 211.036 L
259.869 220.457 L
260.292 212.784 L
260.714 201.249 L
261.137 193.018 L
261.56 176.2 L
261.983 159.711 L
262.406 165.296 L
262.828 173.224 L
263.251 156.498 L
263.674 139.881 L
264.097 133.646 L
264.52 125.754 L
264.942 115.5 L
265.365 134.241 L
265.788 177.5 L
266.211 165.653 L
266.634 127.201 L
267.056 136.951 L
267.479 159.931 L
267.902 158.466 L
268.325 143.726 L
268.748 134.745 L
269.17 131.257 L
269.593 138.746 L
270.016 151.618 L
270.439 149.714 L
270.862 140.485 L
271.284 132.108 L
271.707 139.158 L
272.13 156.974 L
272.553 166.523 L
272.976 165.406 L
273.398 159.08 L
273.821 166.175 L
274.244 176.108 L
274.667 183.396 L
275.09 203.895 L
275.512 219.568 L
275.935 214.094 L
276.358 207.694 L
276.781 211.576 L
277.204 206.156 L
277.626 197.88 L
278.049 206.284 L
278.472 226.746 L
278.895 242.429 L
279.318 244.398 L
279.74 232.862 L
280.163 197.806 L
280.586 162.568 L
281.009 165.47 L
281.432 205.808 L
281.854 233.1 L
282.277 229.191 L
282.7 251.301 L
283.123 275.938 L
283.546 281.788 L
283.968 300.666 L
284.391 305.463 L
284.814 312.467 L
285.237 320.276 L
285.66 319.343 L
286.082 357.062 L
286.505 399.515 L
286.928 410.795 L
287.351 385.325 L
287.774 351.761 L
288.196 357.044 L
288.619 364.597 L
289.042 357.776 L
289.465 343.632 L
289.888 331.446 L
290.31 330.686 L
290.733 338.624 L
291.156 350.809 L
291.579 341.489 L
292.002 326.996 L
292.424 327.289 L
292.847 338.917 L
293.27 339.969 L
293.693 337.516 L
294.116 359.003 L
294.538 383.887 L
294.961 402.408 L
295.384 392.338 L
295.807 374.686 L
296.23 362.556 L
296.652 337.809 L
297.075 343.879 L
297.498 346.964 L
297.921 335.035 L
298.344 333.753 L
298.766 326.182 L
299.189 332.609 L
299.612 322.501 L
300.035 294.358 L
300.458 291.904 L
300.88 311.423 L
301.303 313.959 L
301.726 290.284 L
302.149 284.104 L
302.572 284.186 L
302.994 278.419 L
303.417 250.239 L
303.84 207.987 L
304.263 198.429 L
304.686 200.443 L
305.108 210.276 L
305.531 230.115 L
305.954 238.584 L
306.377 242.136 L
306.8 249.021 L
307.222 253.782 L
307.645 241.459 L
308.068 229.117 L
308.491 240.36 L
308.914 268.265 L
309.336 295.365 L
309.759 280.662 L
310.182 244.901 L
310.605 246.1 L
311.028 271.754 L
311.45 288.947 L
311.873 298.752 L
312.296 296.528 L
312.719 275.974 L
313.142 276.789 L
313.564 298.212 L
313.987 329.597 L
314.41 360.349 L
314.833 359.946 L
315.256 339.118 L
315.678 316.779 L
316.101 301.673 L
316.524 283.472 L
316.947 282.648 L
317.37 294.44 L
317.792 290.156 L
318.215 304.163 L
318.638 327.976 L
319.061 326.612 L
319.484 327.93 L
319.906 343.064 L
320.329 343.329 L
320.752 336.536 L
321.175 340.043 L
321.598 351.276 L
322.02 357.932 L
322.443 354.746 L
322.866 367.518 L
323.289 391.038 L
323.712 388.062 L
324.134 371.921 L
324.557 364.286 L
324.98 377.314 L
325.403 390.214 L
325.826 375.016 L
326.248 371.866 L
326.671 377.955 L
327.094 392.182 L
327.517 394.37 L
327.94 364.323 L
328.362 360.56 L
328.785 371.317 L
329.208 363.911 L
329.631 347.678 L
330.054 349.061 L
330.476 356.586 L
330.899 358.683 L
331.322 351.844 L
331.745 345.206 L
332.168 368.397 L
332.59 377.964 L
333.013 375.025 L
333.436 369.019 L
333.859 356.275 L
334.282 348.694 L
334.704 346.982 L
335.127 367.097 L
335.55 371.876 L
335.973 352.54 L
336.396 346.763 L
336.818 348.795 L
337.241 338.111 L
337.664 314.893 L
338.087 301.801 L
338.51 318.738 L
338.932 338.184 L
339.355 338.578 L
339.778 323.435 L
340.201 294.33 L
340.624 284.305 L
341.046 297.068 L
341.469 309.986 L
341.892 334.147 L
342.315 365.732 L
342.738 374.43 L
343.16 359.095 L
343.583 336.664 L
344.006 338.743 L
344.429 356.156 L
344.852 356.724 L
345.274 354.948 L
345.697 336.078 L
346.12 316.276 L
346.543 304.008 L
346.966 288.16 L
347.388 293.781 L
347.811 298.35 L
348.234 287.83 L
348.657 283.024 L
349.08 294.88 L
349.502 293.827 L
349.925 274.216 L
350.348 267.02 L
350.771 264.384 L
351.194 261.756 L
351.616 267.771 L
352.039 284.113 L
352.462 294.074 L
352.885 295.447 L
353.308 298.817 L
353.73 296.885 L
354.153 303.037 L
354.576 309.363 L
354.999 315.461 L
355.422 350.754 L
355.844 369.889 L
356.267 353.217 L
356.69 337.571 L
357.113 330.247 L
357.536 336.426 L
357.958 332.023 L
358.381 316.486 L
358.804 322.08 L
359.227 333.561 L
359.65 332.957 L
360.072 323.984 L
360.495 303.458 L
360.918 292.609 L
361.341 306.507 L
361.764 318.217 L
362.186 328.608 L
362.609 330.897 L
363.032 321.897 L
363.455 322.382 L
363.878 315.012 L
364.3 306.855 L
364.723 316.971 L
365.146 327.711 L
365.569 326.639 L
365.992 325.532 L
366.414 329.578 L
366.837 337.04 L
367.26 360.889 L
367.683 377.625 L
368.106 369.211 L
368.528 362.052 L
368.951 354.133 L
369.374 347.706 L
369.797 365.43 L
370.22 377.753 L
370.642 358.463 L
371.065 353.721 L
371.488 373.908 L
371.911 367.289 L
372.334 333.268 L
372.756 305.07 L
373.179 308.961 L
373.602 343.357 L
374.025 366.218 L
374.448 379.694 L
374.87 388.062 L
375.293 381.718 L
375.716 389.875 L
376.139 408.094 L
376.562 415.592 L
376.984 406.034 L
377.407 390.79 L
377.83 390.964 L
378.253 401.621 L
378.676 400.834 L
379.098 375.263 L
379.521 352.723 L
379.944 343.32 L
380.367 328.333 L
380.79 315.003 L
381.212 325.284 L
381.635 340.308 L
382.058 341.196 L
382.481 356.156 L
382.904 362.098 L
383.326 348.823 L
383.749 347.111 L
384.172 348.768 L
384.595 346.387 L
385.018 345.637 L
385.44 345.042 L
385.863 351.844 L
386.286 354.792 L
386.709 335.374 L
387.132 332.435 L
387.554 348.539 L
387.977 358.161 L
388.4 357.346 L
388.823 345.847 L
389.246 342.478 L
389.668 339.109 L
390.091 330.97 L
390.514 332.993 L
390.937 327.061 L
391.36 303.403 L
391.782 291.584 L
392.205 285.816 L
392.628 271.25 L
393.051 254.542 L
393.474 239.664 L
393.896 236.872 L
394.319 250.147 L
394.742 254.816 L
395.165 247.968 L
395.588 251.832 L
396.01 240.946 L
396.433 229.456 L
396.856 236.304 L
397.279 249.277 L
397.702 265.079 L
398.124 269.474 L
398.547 265.848 L
398.97 267.542 L
399.393 279.078 L
399.816 268.476 L
400.238 251.731 L
400.661 241.971 L
401.084 229.648 L
401.507 246.165 L
401.93 270.042 L
402.352 278.052 L
402.775 281.055 L
403.198 296.958 L
403.621 292.911 L
404.044 269.922 L
404.466 270.792 L
404.889 258.304 L
405.312 247.217 L
405.735 248.426 L
406.158 248.856 L
406.58 253.461 L
407.003 258.103 L
407.426 271.195 L
407.849 263.166 L
408.272 262.598 L
408.694 267.075 L
409.117 256.098 L
409.54 285.093 L
409.963 313.849 L
410.386 306.672 L
410.808 298.588 L
411.231 299.219 L
411.654 296.5 L
412.077 289.606 L
412.5 271.763 L
412.922 248.792 L
413.345 258.671 L
413.768 271.003 L
414.191 277.32 L
414.614 294.056 L
415.036 292.609 L
415.459 290.815 L
415.882 294.834 L
416.305 304.401 L
416.728 312.421 L
417.15 302.9 L
417.573 290.797 L
417.996 286.521 L
418.419 301.197 L
418.842 300.583 L
419.264 279.627 L
419.687 262.479 L
420.11 243.693 L
420.533 245.084 L
420.956 251.676 L
421.378 232.075 L
421.801 222.526 L
422.224 239.115 L
422.647 231.571 L
423.07 229.713 L
423.492 255.366 L
423.915 254.935 L
424.338 231.306 L
424.761 193.696 L
425.184 177.582 L
425.606 197.349 L
426.029 199.766 L
426.452 185.52 L
426.875 186.609 L
427.298 186.024 L
427.72 171.247 L
428.143 167.823 L
428.566 178.882 L
428.989 199.647 L
429.412 221.519 L
429.834 231.983 L
430.257 227.817 L
430.68 213.16 L
431.103 206.422 L
431.526 206.687 L
431.948 219.834 L
432.371 239.545 L
432.794 223.176 L
433.217 189.036 L
433.64 195.206 L
434.062 222.471 L
434.485 232.285 L
434.908 246.027 L
435.331 263.083 L
435.754 255.237 L
436.176 242.914 L
436.599 260.547 L
437.022 286.082 L
437.445 284.736 L
437.868 276.862 L
438.29 283.271 L
438.713 290.504 L
439.136 292.609 L
439.559 291.392 L
439.982 276.166 L
440.404 254.24 L
440.827 241.953 L
441.25 234.327 L
441.673 247.593 L
442.096 272.88 L
442.518 273.722 L
442.941 254.185 L
443.364 239.307 L
443.787 246.577 L
444.21 257.7 L
444.632 265.473 L
445.055 267.405 L
445.478 271.131 L
445.901 297.571 L
446.324 320.569 L
446.746 334.632 L
447.169 332.343 L
447.592 321.604 L
448.015 332.352 L
448.438 349.875 L
448.86 355.35 L
449.283 347.458 L
449.706 353.885 L
450.129 362.125 L
450.552 347.321 L
450.974 326.026 L
451.397 309.382 L
451.82 306.983 L
452.243 324.598 L
452.666 355.982 L
453.088 362.894 L
453.511 339.96 L
453.934 327.985 L
454.357 323.234 L
454.78 320.212 L
455.202 326.026 L
455.625 313.996 L
456.048 303.458 L
456.471 316.065 L
456.894 324.589 L
457.316 329.001 L
457.739 318.317 L
458.162 313.593 L
458.585 330.576 L
459.008 317.411 L
459.43 290.476 L
459.853 293.25 L
460.276 300.519 L
460.699 288.654 L
461.122 281.238 L
461.544 289.194 L
461.967 303.879 L
462.39 325.651 L
462.813 326.905 L
463.236 304.035 L
463.658 290.842 L
464.081 285.029 L
464.504 276.588 L
464.927 263.624 L
465.35 268.806 L
465.772 286.082 L
466.195 278.354 L
466.618 266.956 L
467.041 255.759 L
467.464 246.247 L
467.886 236.707 L
468.309 224.128 L
468.732 231.333 L
469.155 244.929 L
469.578 258.488 L
470 252.308 L
470.423 235.801 L
470.846 235.59 L
471.269 232.276 L
471.692 230.216 L
472.114 229.731 L
472.537 222.993 L
472.96 204.6 L
473.383 187.653 L
473.806 194.932 L
474.228 201.029 L
474.651 198.759 L
475.074 192.148 L
475.497 179.78 L
475.92 189.841 L
476.342 214.844 L
476.765 227.35 L
477.188 227.772 L
477.611 234.482 L
478.034 230.381 L
478.456 222.251 L
478.879 241.541 L
479.302 244.141 L
479.725 237.101 L
480.148 246.906 L
480.57 261.216 L
480.993 275.397 L
481.416 257.947 L
481.839 218.149 L
482.262 212.162 L
482.684 233.356 L
483.107 230.656 L
483.53 212.162 L
483.953 202.814 L
484.376 212.592 L
484.798 226.71 L
485.221 220.09 L
485.644 221.683 L
486.067 228.504 L
486.49 215.934 L
486.912 207.154 L
487.335 212.006 L
487.758 221.482 L
488.181 236.021 L
488.604 253.324 L
489.026 261.39 L
489.449 263.541 L
489.872 255.164 L
490.295 242.017 L
490.718 258.314 L
491.14 278.235 L
491.563 278.712 L
491.986 273.365 L
492.409 278.245 L
492.832 293.149 L
493.254 289.002 L
493.677 282.136 L
494.1 292.582 L
494.523 312.101 L
494.946 322.538 L
495.368 319.297 L
495.791 310.197 L
496.214 305.271 L
496.637 324.854 L
497.06 332.261 L
497.482 326.584 L
497.905 337.214 L
498.328 332.352 L
498.751 316.422 L
499.174 309.849 L
499.596 332.554 L
500.019 366.849 L
500.442 363.663 L
500.865 356.568 L
501.288 366.703 L
501.71 364.341 L
502.133 353.327 L
502.556 362.29 L
502.979 366.437 L
503.402 353.254 L
503.824 359.04 L
504.247 360.697 L
504.67 365.787 L
505.093 378.87 L
505.516 369.083 L
505.938 367.783 L
506.361 362.528 L
506.784 351.075 L
507.207 362.437 L
507.63 373.395 L
508.052 394.388 L
508.475 395.194 L
508.898 364.304 L
509.321 362.537 L
509.744 356.687 L
510.166 339.548 L
510.589 347.706 L
511.012 345.334 L
511.435 328.324 L
511.858 313.282 L
512.28 294.285 L
512.703 303.916 L
513.126 322.272 L
513.549 315.836 L
513.972 322.593 L
514.394 334.064 L
514.817 326.758 L
515.24 313.822 L
515.663 311.506 L
516.086 313.923 L
516.508 318.391 L
516.931 327.152 L
517.354 333.011 L
517.777 329.587 L
518.2 295.667 L
518.622 270.106 L
519.045 282.319 L
519.468 303.358 L
519.891 309.684 L
520.314 303.669 L
520.736 318.793 L
521.159 330.997 L
521.582 311.442 L
522.005 290.925 L
522.428 290.824 L
522.85 304.777 L
523.273 313.987 L
523.696 312.668 L
524.119 320.276 L
524.542 334.531 L
524.964 343.741 L
525.387 351.075 L
525.81 351.578 L
526.233 347.523 L
526.656 344.694 L
527.078 349.106 L
527.501 352.778 L
527.924 359.333 L
528.347 373.423 L
528.77 377.14 L
529.192 378.76 L
529.615 379.053 L
530.038 364.835 L
530.461 364.075 L
530.884 382.249 L
531.306 371.052 L
531.729 355.341 L
532.152 356.943 L
532.575 340.958 L
532.998 333.79 L
533.42 339.741 L
533.843 331.052 L
534.266 320.35 L
534.689 323.096 L
535.112 338.88 L
535.534 339.557 L
535.957 327.692 L
536.38 340.812 L
536.803 354.435 L
537.226 339.503 L
537.648 319.965 L
538.071 313.41 L
538.494 310.251 L
538.917 305.07 L
539.34 306.507 L
539.762 318.143 L
540.185 327.061 L
540.608 328.864 L
541.031 331.153 L
541.454 327.555 L
541.876 335.465 L
542.299 351.185 L
542.722 352.75 L
543.145 371.07 L
543.568 403.132 L
543.99 413.715 L
544.413 401.154 L
544.836 379.42 L
545.259 356.632 L
545.682 339.008 L
546.104 346.168 L
546.527 358.747 L
546.95 348.759 L
547.373 335.3 L
547.796 329.816 L
548.218 338.029 L
548.641 345.188 L
549.064 335.676 L
549.487 323.06 L
549.91 300.922 L
550.332 298.807 L
550.755 311.368 L
551.178 277.045 L
551.601 248.627 L
552.024 250.513 L
552.446 243.207 L
552.869 254.093 L
553.292 276.111 L
553.715 271.818 L
554.138 243.647 L
554.56 215.266 L
554.983 207.969 L
555.406 245.057 L
555.829 270.49 L
556.252 257.792 L
556.674 275.535 L
557.097 281.183 L
557.52 270.92 L
557.943 267.231 L
558.366 242.081 L
558.788 231.37 L
559.211 236.13 L
559.634 245.762 L
560.057 256.656 L
560.48 262.736 L
560.902 264.988 L
561.325 250.815 L
561.748 225.739 L
562.171 216.337 L
562.594 221.766 L
563.016 217.582 L
563.439 218.14 L
563.862 216.74 L
564.285 205.982 L
564.708 207.419 L
565.13 205.533 L
565.553 188.102 L
565.976 164.042 L
566.399 139.423 L
566.822 132.841 L
567.244 150.501 L
567.667 170.963 L
568.09 196.927 L
568.513 210.056 L
568.936 189.951 L
569.358 166.843 L
569.781 162.467 L
570.204 177.299 L
570.627 187.324 L
571.05 188.376 L
571.472 190.345 L
571.895 196.003 L
572.318 202.485 L
572.741 208.271 L
573.164 211.558 L
573.586 189.814 L
574.009 182.224 L
574.432 202.466 L
574.855 217.307 L
575.278 230.765 L
575.7 231.681 L
576.123 232.239 L
576.546 259.257 L
576.969 287.528 L
577.392 290.064 L
577.814 295.099 L
578.237 310.261 L
578.66 323.316 L
579.083 341.352 L
579.506 338.532 L
579.928 311.478 L
580.351 298.743 L
580.774 317.896 L
581.197 346.378 L
581.62 352.704 L
582.042 349.738 L
582.465 362.125 L
582.888 373.002 L
583.311 371.839 L
583.734 381.544 L
584.156 392.777 L
584.579 394.883 L
585.002 396.091 L
585.425 392.997 L
585.848 387.43 L
586.27 367.188 L
586.693 355.323 L
587.116 372.544 L
587.539 385.828 L
587.962 379.2 L
588.384 367.582 L
588.807 363.499 L
589.23 349.702 L
589.653 348.759 L
590.076 369.01 L
590.498 390.543 L
590.921 411.371 L
591.344 402.564 L
591.767 387.256 L
592.19 377.14 L
592.612 374.888 L
593.035 391.614 L
593.458 389.152 L
593.881 387.11 L
594.304 382.294 L
594.726 369.871 L
595.149 374.549 L
595.572 360.175 L
595.995 352.384 L
596.418 366.328 L
596.84 365.769 L
597.263 353.492 L
597.686 349.921 L
598.109 352.228 L
598.532 328.251 L
598.954 313.904 L
599.377 318.848 L
599.8 333.167 L
600.223 355.808 L
600.646 351.679 L
601.068 350.361 L
601.491 352.695 L
601.914 359.534 L
602.337 382.734 L
602.76 387.147 L
603.182 368.012 L
603.605 366.95 L
604.028 386.689 L
604.451 386.552 L
604.874 386.817 L
605.296 377.689 L
605.719 363.26 L
606.142 368.9 L
606.565 382.523 L
606.988 399.946 L
607.41 394.562 L
607.833 382.02 L
608.256 375.217 L
608.679 358.948 L
609.102 335.602 L
609.524 337.324 L
609.947 354.453 L
610.37 333.286 L
610.793 319.901 L
611.216 341.453 L
611.638 342.89 L
612.061 327.161 L
612.484 333.213 L
612.907 347.312 L
613.33 364.03 L
613.752 383.475 L
614.175 363.233 L
614.598 328.425 L
615.021 329.78 L
615.444 338.898 L
615.866 338.468 L
616.289 337.314 L
616.712 332.508 L
617.135 326.703 L
617.558 319.141 L
617.98 322.162 L
618.403 326.493 L
618.826 337.763 L
619.249 358.454 L
619.672 358.427 L
620.094 350.828 L
620.517 342.853 L
620.94 339.402 L
621.363 333.781 L
621.786 317.878 L
622.208 304.044 L
622.631 318.235 L
623.054 352.549 L
623.477 357.566 L
623.9 350.974 L
624.322 337.095 L
624.745 322.895 L
625.168 322.172 L
625.591 319.535 L
626.014 321.384 L
626.436 316.047 L
626.859 314.637 L
627.282 311.332 L
627.705 310.59 L
628.128 338.431 L
628.55 345.124 L
628.973 327.537 L
629.396 309.904 L
629.819 293.616 L
630.242 298.35 L
630.664 305.161 L
631.087 317.191 L
631.51 323.133 L
631.933 308.997 L
632.356 314.509 L
632.778 327.738 L
633.201 329.999 L
633.624 307.56 L
634.047 291.447 L
634.47 332.307 L
634.892 361.851 L
635.315 350.654 L
635.738 333.808 L
636.161 311.414 L
636.584 286.347 L
637.006 280.607 L
637.429 307.175 L
637.852 314.71 L
638.275 302.918 L
638.698 305.866 L
639.12 313.95 L
639.543 330.237 L
639.966 321.21 L
640.389 295.328 L
640.812 299.65 L
641.234 318.473 L
641.657 338.569 L
642.08 340.409 L
642.503 298.139 L
642.926 265.052 L
643.348 291.273 L
643.771 335.053 L
644.194 341.91 L
644.617 318.702 L
645.04 300.574 L
645.462 291.648 L
645.885 296.061 L
646.308 301.911 L
646.731 287.556 L
647.154 266.791 L
647.576 251.072 L
647.999 237.513 L
648.422 224.604 L
648.845 210.093 L
649.268 190.922 L
649.69 185.593 L
650.113 196.479 L
650.536 205.506 L
650.959 210.157 L
651.382 208.958 L
651.804 203.464 L
652.227 200.928 L
652.65 208.069 L
653.073 211.32 L
653.496 208.893 L
653.918 216.447 L
654.341 238.749 L
654.764 267.405 L
655.187 275.773 L
655.61 252.674 L
656.032 232.404 L
656.455 228.852 L
656.878 215.32 L
657.301 220.145 L
657.724 229.731 L
658.146 216.685 L
658.569 220.484 L
658.992 223.386 L
659.415 211.402 L
659.838 197.257 L
660.26 196.213 L
660.683 200.461 L
661.106 204.673 L
661.529 208.719 L
661.952 185.227 L
662.374 174.735 L
662.797 169.791 L
663.22 156.232 L
663.643 157.276 L
664.066 147.654 L
664.488 135.486 L
664.911 125.251 L
665.334 125.635 L
665.757 129.343 L
666.18 121.79 L
666.602 132.319 L
667.025 157.67 L
667.448 163.502 L
667.871 129.05 L
668.294 103.654 L
668.716 126.395 L
669.139 150.556 L
669.562 152.946 L
669.985 147.672 L
670.408 153.01 L
670.83 164.316 L
671.253 165.113 L
671.676 171.128 L
672.099 175.468 L
672.522 177.784 L
672.944 199.225 L
673.367 223.414 L
673.79 233.539 L
674.213 230.683 L
674.636 231.251 L
675.058 237.888 L
675.481 233.018 L
675.904 222.388 L
676.327 218.14 L
676.75 226.243 L
677.172 228.522 L
677.595 216.895 L
678.018 217.234 L
678.441 229.557 L
678.864 227.579 L
679.286 215.549 L
679.709 220.988 L
680.132 228.953 L
680.555 223.002 L
680.978 214.341 L
681.4 222.297 L
681.823 232.624 L
682.246 220.466 L
682.669 202.604 L
683.092 202.384 L
683.514 229.548 L
683.937 240.25 L
684.36 243.564 L
684.783 250.76 L
685.206 233.301 L
685.628 228.934 L
686.051 237.073 L
686.474 234.125 L
686.897 220.154 L
687.32 211.32 L
687.742 214.918 L
688.165 226.554 L
688.588 230.225 L
689.011 219.303 L
689.434 228.257 L
689.856 245.276 L
690.279 241.614 L
690.702 245.203 L
691.125 279.27 L
691.548 285.056 L
691.97 262.836 L
692.393 259.202 L
692.816 269.163 L
693.239 287.711 L
693.662 285.871 L
694.084 283.408 L
694.507 287.821 L
694.93 284.049 L
695.353 291.611 L
695.776 295.896 L
696.198 291.318 L
696.621 290.174 L
697.044 305.207 L
697.467 319.929 L
697.89 305.582 L
698.312 281.248 L
698.735 273.118 L
699.158 297.581 L
699.581 325.806 L
700.004 309.849 L
700.426 291.483 L
700.849 303.422 L
701.272 319.095 L
701.695 316.971 L
702.118 314.673 L
702.54 323.847 L
702.963 315.003 L
703.386 313.026 L
703.809 327.28 L
704.232 345.49 L
704.654 348.942 L
705.077 332.371 L
705.5 335.712 L
705.923 357.868 L
706.346 389.655 L
706.768 394.379 L
707.191 374.97 L
707.614 367.188 L
708.037 365.797 L
708.46 374.329 L
708.882 391.761 L
709.305 407.49 L
709.728 395.981 L
710.151 370.988 L
710.574 362.693 L
710.996 374.888 L
711.419 391.459 L
711.842 394.05 L
712.265 389.93 L
712.688 392.695 L
713.11 408.048 L
713.533 405.759 L
713.956 393.519 L
714.379 393.629 L
714.802 389.005 L
715.224 385.892 L
715.647 374.961 L
716.07 362.043 L
716.493 369.843 L
716.916 373.624 L
717.338 361.695 L
717.761 357.941 L
718.184 361.237 L
718.607 345.792 L
719.03 329.825 L
719.452 315.269 L
719.875 289.002 L
720.298 295.768 L
720.721 302.076 L
721.144 273.685 L
721.566 263.999 L
721.989 268.476 L
722.412 272.33 L
722.835 279.252 L
723.258 256.602 L
723.68 216.675 L
724.103 213.224 L
724.526 229.822 L
724.949 242.063 L
725.372 255.146 L
725.794 258.597 L
726.217 261.555 L
726.64 268.696 L
727.063 263.157 L
727.486 246.586 L
727.908 250.815 L
728.331 267.679 L
728.754 261.6 L
729.177 256.281 L
729.6 257.27 L
730.022 246.659 L
730.445 246.476 L
730.868 251.365 L
731.291 251.703 L
731.714 260.456 L
732.136 264.576 L
732.559 250.989 L
732.982 242.356 L
733.405 264.063 L
733.828 281.037 L
734.25 272.971 L
734.673 260.291 L
735.096 252.802 L
735.519 254.066 L
735.942 255.732 L
736.364 266.572 L
736.787 283.143 L
737.21 281.385 L
737.633 274.93 L
738.056 294.532 L
738.478 310.746 L
738.901 308.549 L
739.324 311.661 L
739.747 319.819 L
740.17 327.674 L
740.592 327.07 L
741.015 326.484 L
741.438 307.889 L
741.861 297.15 L
742.284 312.073 L
742.706 317.621 L
743.129 323.353 L
743.552 320.258 L
743.975 312.879 L
744.398 313.044 L
744.82 322.895 L
745.243 320.688 L
745.666 320.762 L
746.089 347.294 L
746.512 360.789 L
746.934 358.271 L
747.357 337.507 L
747.78 327.72 L
748.203 355.121 L
748.626 382.349 L
749.048 390.287 L
749.471 385.874 L
749.894 369.138 L
750.317 355.204 L
750.74 362.51 L
751.162 363.489 L
751.585 345.811 L
752.008 328.48 L
752.431 338.761 L
752.854 348.694 L
753.276 332.609 L
753.699 337.745 L
754.122 353.126 L
754.545 352.924 L
754.968 354.902 L
755.39 363.077 L
755.813 365.595 L
756.236 359.37 L
756.659 350.526 L
757.082 339.228 L
757.504 330.613 L
757.927 326.09 L
758.35 321.741 L
758.773 319.727 L
759.196 306.617 L
759.618 279.05 L
760.041 275.315 L
760.464 296.683 L
760.887 309.061 L
761.31 313.364 L
761.732 312.192 L
762.155 306.022 L
762.578 307.395 L
763.001 294.468 L
763.424 277.979 L
763.846 289.698 L
764.269 288.526 L
764.692 281.623 L
765.115 289.908 L
765.538 290.366 L
765.96 280.625 L
766.383 276.176 L
766.806 294.861 L
767.229 293.928 L
767.652 278.739 L
768.074 285.844 L
768.497 289.423 L
768.92 285.367 L
769.343 274.464 L
769.766 264.347 L
770.188 267.954 L
770.611 274.024 L
771.034 274.903 L
771.457 270.481 L
771.88 253.049 L
772.302 240.25 L
772.725 246.046 L
773.148 250.074 L
773.571 255.219 L
773.994 259.183 L
774.416 251.685 L
774.839 254.825 L
775.262 268.915 L
775.685 267.817 L
776.108 262.25 L
776.53 249.918 L
776.953 233.686 L
777.376 242.567 L
777.799 248.517 L
778.222 239.646 L
778.644 234.153 L
779.067 230.93 L
779.49 225.995 L
779.913 214.469 L
780.336 202.613 L
780.758 202.741 L
781.181 212.977 L
781.604 213.407 L
782.027 212.931 L
782.45 223.011 L
782.872 232.477 L
783.295 237.119 L
783.718 232.908 L
784.141 238.438 L
784.564 253.516 L
784.986 265.61 L
785.409 286.054 L
785.832 300.062 L
786.255 301.737 L
786.678 289.945 L
787.1 275.718 L
787.523 283.289 L
787.946 291.959 L
788.369 291.282 L
788.792 282.868 L
789.214 281.376 L
789.637 289.387 L
790.06 290.348 L
790.483 293.827 L
790.906 279.114 L
791.328 248.82 L
791.751 237.211 L
792.174 232.02 L
792.597 226.838 L
793.02 228.943 L
793.442 238.941 L
793.865 258.927 L
794.288 271.049 L
794.711 275.727 L
795.134 275.617 L
795.556 269.446 L
795.979 274.601 L
796.402 286.933 L
796.825 293.305 L
797.248 293.644 L
797.67 304.273 L
798.093 320.624 L
798.516 334.376 L
798.939 332.947 L
799.362 315.69 L
799.784 310.023 L
800.207 303.101 L
800.63 278.116 L
801.053 263.77 L
801.476 291.95 L
801.898 307.487 L
802.321 292.49 L
802.744 279.792 L
803.167 272.706 L
803.59 287.894 L
804.012 293.699 L
804.435 291.089 L
804.858 288.233 L
805.281 274.903 L
805.704 269.959 L
806.126 273.429 L
806.549 276.148 L
806.972 266.361 L
807.395 258.707 L
807.818 259.687 L
808.24 263.816 L
808.663 264.768 L
809.086 259.888 L
809.509 255.686 L
809.932 255.988 L
810.354 263.834 L
810.777 267.725 L
811.2 256.766 L
811.623 227.369 L
812.046 206.476 L
812.468 213.608 L
812.891 244.553 L
813.314 265.528 L
813.737 231.214 L
814.16 185.346 L
814.582 180.759 L
815.005 200.873 L
815.428 225.291 L
815.851 239.06 L
816.274 235.334 L
816.696 228.843 L
817.119 240.781 L
817.542 259.962 L
817.965 247.932 L
818.388 237.403 L
818.81 247.281 L
819.233 244.443 L
819.656 244.507 L
820.079 249.213 L
820.502 248.426 L
820.924 249.845 L
821.347 254.276 L
821.77 255.887 L
822.193 272.687 L
822.616 288.407 L
823.038 265.912 L
823.461 242.997 L
823.884 233.759 L
824.307 230.06 L
824.73 245.771 L
825.152 281.129 L
825.575 306.91 L
825.998 306.736 L
826.421 299.311 L
826.844 286.365 L
827.266 278.831 L
827.689 275.828 L
828.112 275.287 L
828.535 285.349 L
828.958 296.4 L
829.38 308.787 L
829.803 311.039 L
830.226 293.625 L
830.649 280.973 L
831.072 291.08 L
831.494 312.403 L
831.917 328.489 L
832.34 337.104 L
832.763 346.909 L
833.186 343.046 L
833.608 331.025 L
834.031 347.98 L
834.454 366.886 L
834.877 356.458 L
835.3 346.021 L
835.722 354.224 L
836.145 360.908 L
836.568 356.559 L
836.991 359.937 L
837.414 363.279 L
837.836 354.142 L
838.259 352.448 L
838.682 352.704 L
839.105 349.509 L
839.528 360.624 L
839.95 362.849 L
840.373 355.607 L
840.796 371.94 L
841.219 378.367 L
841.642 360.459 L
842.064 357.328 L
842.487 355.717 L
842.91 339.979 L
843.333 350.214 L
843.756 377.268 L
844.178 377.094 L
844.601 358.307 L
845.024 332.242 L
845.447 321.512 L
845.87 328.132 L
846.292 322.126 L
846.715 320.414 L
847.138 325.513 L
847.561 305.875 L
847.984 279.957 L
848.406 284.214 L
848.829 303.98 L
849.252 309.418 L
849.675 299.238 L
850.098 302.836 L
850.52 314.133 L
850.943 303.824 L
851.366 281.824 L
851.789 270.27 L
852.212 277.393 L
852.634 279.188 L
853.057 280.094 L
853.48 284.937 L
853.903 257.389 L
854.326 219.761 L
854.748 227.634 L
855.171 257.206 L
855.594 253.901 L
856.017 239.564 L
856.44 242.686 L
856.862 253.013 L
857.285 251.209 L
857.708 245.084 L
858.131 253.846 L
858.554 259.449 L
858.976 270.289 L
859.399 283.472 L
859.822 282.987 L
860.245 274.18 L
860.668 267.277 L
861.09 280.845 L
861.513 282.191 L
861.936 266.013 L
862.359 254.221 L
862.782 245.661 L
863.204 248.389 L
863.627 250.458 L
864.05 261.335 L
864.473 266.041 L
864.896 251.008 L
865.318 237.092 L
865.741 228.239 L
866.164 237.137 L
866.587 231.397 L
867.01 204.435 L
867.432 200.443 L
867.855 205.698 L
868.278 194.437 L
868.701 181.437 L
869.124 188.065 L
869.546 207.41 L
869.969 217.069 L
870.392 210.798 L
870.815 207.401 L
871.238 215.558 L
871.66 222.947 L
872.083 230.17 L
872.506 242.695 L
872.929 244.7 L
873.352 254.844 L
873.774 289.982 L
874.197 309.217 L
874.62 319.315 L
875.043 351.533 L
875.466 381.901 L
875.888 391.459 L
876.311 382.01 L
876.734 358.71 L
877.157 363.773 L
877.58 395.643 L
878.002 415.381 L
878.425 414.31 L
878.848 391.541 L
879.271 375.162 L
879.694 370.283 L
880.116 378.898 L
880.539 401.063 L
880.962 403.818 L
881.385 385.966 L
881.808 367.032 L
882.23 353.858 L
882.653 343.714 L
883.076 341.068 L
883.499 342.515 L
883.922 337.946 L
884.344 339.594 L
884.767 353.84 L
885.19 356.495 L
885.613 349.546 L
886.036 346.351 L
886.458 348.347 L
886.881 353.913 L
887.304 349.445 L
887.727 361.613 L
888.15 378.01 L
888.572 364.167 L
888.995 345.508 L
889.418 338.688 L
889.841 342.13 L
890.264 337.891 L
890.686 336.582 L
891.109 345.847 L
891.532 346.964 L
891.955 341.91 L
892.378 333.744 L
892.8 332.197 L
893.223 324.79 L
893.646 309.006 L
894.069 296.079 L
894.492 285.596 L
894.914 282.969 L
895.337 286.228 L
895.76 299.613 L
896.183 310.416 L
896.606 308.43 L
897.028 296.235 L
897.451 286.603 L
897.874 293.625 L
898.297 293.342 L
898.72 280.03 L
899.142 277.531 L
899.565 277.476 L
899.988 269.886 L
900.411 274.253 L
900.834 275.965 L
901.256 262.736 L
901.679 263.495 L
902.102 273.264 L
902.525 273.337 L
902.948 271.644 L
903.37 281.064 L
903.793 296.876 L
904.216 308.97 L
904.639 314.573 L
905.062 308.512 L
905.484 318.766 L
905.907 342.094 L
906.33 340.922 L
906.753 334.559 L
907.176 342.991 L
907.598 356.797 L
908.021 364.414 L
908.444 381.919 L
908.867 390.14 L
909.29 378.632 L
909.712 396.677 L
910.135 421.598 L
910.558 417.359 L
910.981 400.715 L
911.404 401.053 L
911.826 411.664 L
912.249 400.22 L
912.672 378.449 L
913.095 380.536 L
913.518 399.927 L
913.94 386.268 L
914.363 358.93 L
914.786 382.139 L
915.209 410.438 L
915.632 394.141 L
916.054 381.168 L
916.477 375.986 L
916.9 354.389 L
917.323 338.166 L
917.746 331.345 L
918.168 316.111 L
918.591 303.376 L
919.014 303.815 L
919.437 319.48 L
919.86 351.542 L
920.282 359.25 L
920.705 347.44 L
921.128 346.827 L
921.551 341.599 L
921.974 320.688 L
922.396 306.58 L
922.819 321.851 L
923.242 333.332 L
923.665 328.644 L
924.088 319.242 L
924.51 314.252 L
924.933 316.971 L
925.356 304.859 L
925.779 288.746 L
926.202 289.048 L
926.624 292.106 L
927.047 283.427 L
927.47 285.432 L
927.893 294.449 L
928.316 293.131 L
928.738 289.057 L
929.161 281.953 L
929.584 289.277 L
930.007 311.46 L
930.43 333.158 L
930.852 333.808 L
931.275 326.282 L
931.698 344.364 L
932.121 364.075 L
932.544 373.157 L
932.966 374.128 L
933.389 374.668 L
933.812 386.79 L
934.235 393.757 L
934.658 392.493 L
935.08 382.661 L
935.503 362.244 L
935.926 357.41 L
936.349 370.292 L
936.772 374.723 L
937.194 370.969 L
937.617 355.231 L
938.04 341.581 L
938.463 354.215 L
938.886 357.95 L
939.308 346.827 L
939.731 365.595 L
940.154 392.448 L
940.577 383.054 L
941 367.124 L
941.422 361.045 L
941.845 363.132 L
942.268 382.084 L
942.691 395.624 L
943.114 400.587 L
943.536 394.681 L
943.959 380.024 L
944.382 362.739 L
944.805 340.729 L
945.228 327.711 L
945.65 316.614 L
946.073 300.089 L
946.496 292.646 L
946.919 305.903 L
947.342 310.746 L
947.764 291.804 L
948.187 277.814 L
948.61 271.598 L
949.033 263.358 L
949.456 251.703 L
949.878 223.258 L
950.301 190.537 L
950.724 205.872 L
951.147 241.66 L
951.57 247.959 L
951.992 243.802 L
952.415 235.782 L
952.838 226.389 L
953.261 231.434 L
953.684 248.755 L
954.106 251.008 L
954.529 231.644 L
954.952 209.69 L
955.375 206.669 L
955.798 227.158 L
956.22 241.495 L
956.643 234.995 L
957.066 224.43 L
957.489 220.786 L
957.912 218.14 L
958.334 211.439 L
958.757 196.644 L
959.18 182.746 L
959.603 184.348 L
960.026 198.832 L
960.448 214.066 L
960.871 233.75 L
961.294 247.693 L
961.717 243.317 L
962.14 254.285 L
962.562 282.328 L
962.985 296.473 L
963.408 284.489 L
963.831 282.264 L
964.254 289.89 L
964.676 262.424 L
965.099 248.069 L
965.522 257.05 L
965.945 252.079 L
966.368 239.463 L
966.79 223.395 L
967.213 222.297 L
967.636 222.535 L
968.059 222.452 L
968.482 248.517 L
968.904 272.477 L
969.327 282.822 L
969.75 295.557 L
970.173 295.585 L
970.596 288.434 L
971.018 303.916 L
971.441 316.074 L
971.864 301.728 L
972.287 300.638 L
972.71 302.671 L
973.132 277.091 L
973.555 264.741 L
973.978 283.39 L
974.401 301.462 L
974.824 306.681 L
975.246 304.612 L
975.669 317.383 L
976.092 341.837 L
976.515 338.276 L
976.938 313.438 L
977.36 295.612 L
977.783 293.918 L
978.206 302.479 L
978.629 297.874 L
979.052 281.449 L
979.474 277.448 L
979.897 284.305 L
980.32 280.295 L
980.743 277.164 L
981.166 278.483 L
981.588 262.141 L
982.011 250.989 L
982.434 265.702 L
982.857 283.994 L
983.28 298.743 L
983.702 313.868 L
984.125 312.476 L
984.548 312.275 L
984.971 329.862 L
985.394 337.296 L
985.816 339.997 L
986.239 352.128 L
986.662 368.69 L
987.085 383.777 L
987.508 398.774 L
987.93 406.547 L
988.353 396.403 L
988.776 395.597 L
989.199 398.215 L
989.622 389.335 L
990.044 381.406 L
990.467 376.472 L
990.89 380.518 L
991.313 380.07 L
991.736 370.219 L
992.158 361.136 L
992.581 351.523 L
993.004 342.213 L
993.427 340.235 L
993.85 341.48 L
994.272 352.759 L
994.695 371.757 L
995.118 368.305 L
995.541 362.839 L
995.964 357.273 L
996.386 346.937 L
996.809 347.724 L
997.232 336.243 L
997.655 326.969 L
998.078 333.057 L
998.5 337.745 L
998.923 342.094 L
999.346 335.428 L
999.769 318.464 L
1000.192 315.928 L
1000.614 314.051 L
1001.037 301.563 L
1001.46 300.748 L
1001.883 310.81 L
1002.306 316.422 L
1002.728 312.714 L
1003.151 324.662 L
1003.574 345.453 L
1003.997 342.377 L
1004.42 324.644 L
1004.842 312.348 L
1005.265 323.783 L
1005.688 342.625 L
1006.111 355.158 L
1006.534 369.202 L
1006.956 371.4 L
1007.379 375.007 L
1007.802 392.365 L
1008.225 389.911 L
1008.648 367.234 L
1009.07 358.042 L
1009.493 355.268 L
1009.916 359.772 L
1010.339 366.309 L
1010.762 349.052 L
1011.184 330.668 L
1011.607 322.043 L
1012.03 308.027 L
1012.453 283.729 L
1012.876 270.078 L
1013.298 277.869 L
1013.721 263.248 L
1014.144 226.536 L
1014.567 221.592 L
1014.99 248.81 L
1015.412 262.873 L
1015.835 258.57 L
1016.258 257.38 L
1016.681 261.609 L
1017.104 270.417 L
1017.526 278.29 L
1017.949 290.806 L
1018.372 307.624 L
1018.795 309.693 L
1019.218 318.674 L
1019.64 323.71 L
1020.063 298.762 L
1020.486 294.779 L
1020.909 313.071 L
1021.332 317.96 L
1021.754 320.661 L
1022.177 326.081 L
1022.6 314.088 L
1023.023 295.832 L
1023.446 289.542 L
1023.868 275.306 L
1024.291 273.878 L
1024.714 286.091 L
1025.137 277.476 L
1025.56 253.589 L
1025.982 240.8 L
1026.405 238.859 L
1026.828 235.425 L
1027.251 249.268 L
1027.674 260.41 L
1028.096 265.62 L
1028.519 273.218 L
1028.942 269.163 L
1029.365 262.443 L
1029.788 263.459 L
1030.21 281.074 L
1030.633 282.401 L
1031.056 267.505 L
1031.479 267.011 L
1031.902 277.045 L
1032.324 276.13 L
1032.747 259.87 L
1033.17 259 L
1033.593 266.132 L
1034.016 267.139 L
1034.438 270.124 L
1034.861 271.754 L
1035.284 261.738 L
1035.707 258.35 L
1036.13 272.22 L
1036.552 286.063 L
1036.975 297.343 L
1037.398 296.949 L
1037.821 287.4 L
1038.244 285.486 L
1038.666 297.892 L
1039.089 305.198 L
1039.512 299.888 L
1039.935 296.015 L
1040.358 296.949 L
1040.78 300.492 L
1041.203 298.057 L
1041.626 302.213 L
1042.049 318.4 L
1042.472 329.349 L
1042.894 331.565 L
S
GR
%%Trailer
%%Pages: 1
%%EOF
