%!PS-Adobe-3.0 EPSF-3.0
%%Creator: (MATLAB, The Mathworks, Inc. Version 9.2.0.538062 \(R2017a\). Operating System: Linux)
%%Title: /home/chris/Storage/christina/Desktop/THMMY/????????/Project/authMultimediaAssignment2018/tex/figures/decoded_fram2.eps
%%CreationDate: 2019-02-17T20:37:52
%%Pages: (atend)
%%BoundingBox: 0 0 426 319
%%LanguageLevel: 3
%%EndComments
%%BeginProlog
%%BeginResource: procset (Apache XML Graphics Std ProcSet) 1.2 0
%%Version: 1.2 0
%%Copyright: (Copyright 2001-2003,2010 The Apache Software Foundation. License terms: http://www.apache.org/licenses/LICENSE-2.0)
/bd{bind def}bind def
/ld{load def}bd
/GR/grestore ld
/M/moveto ld
/LJ/setlinejoin ld
/C/curveto ld
/f/fill ld
/LW/setlinewidth ld
/GC/setgray ld
/t/show ld
/N/newpath ld
/CT/concat ld
/cp/closepath ld
/S/stroke ld
/L/lineto ld
/CC/setcmykcolor ld
/A/ashow ld
/GS/gsave ld
/RC/setrgbcolor ld
/RM/rmoveto ld
/ML/setmiterlimit ld
/re {4 2 roll M
1 index 0 rlineto
0 exch rlineto
neg 0 rlineto
cp } bd
/_ctm matrix def
/_tm matrix def
/BT { _ctm currentmatrix pop matrix _tm copy pop 0 0 moveto } bd
/ET { _ctm setmatrix } bd
/iTm { _ctm setmatrix _tm concat } bd
/Tm { _tm astore pop iTm 0 0 moveto } bd
/ux 0.0 def
/uy 0.0 def
/F {
  /Tp exch def
  /Tf exch def
  Tf findfont Tp scalefont setfont
  /cf Tf def  /cs Tp def
} bd
/ULS {currentpoint /uy exch def /ux exch def} bd
/ULE {
  /Tcx currentpoint pop def
  gsave
  newpath
  cf findfont cs scalefont dup
  /FontMatrix get 0 get /Ts exch def /FontInfo get dup
  /UnderlinePosition get Ts mul /To exch def
  /UnderlineThickness get Ts mul /Tt exch def
  ux uy To add moveto  Tcx uy To add lineto
  Tt setlinewidth stroke
  grestore
} bd
/OLE {
  /Tcx currentpoint pop def
  gsave
  newpath
  cf findfont cs scalefont dup
  /FontMatrix get 0 get /Ts exch def /FontInfo get dup
  /UnderlinePosition get Ts mul /To exch def
  /UnderlineThickness get Ts mul /Tt exch def
  ux uy To add cs add moveto Tcx uy To add cs add lineto
  Tt setlinewidth stroke
  grestore
} bd
/SOE {
  /Tcx currentpoint pop def
  gsave
  newpath
  cf findfont cs scalefont dup
  /FontMatrix get 0 get /Ts exch def /FontInfo get dup
  /UnderlinePosition get Ts mul /To exch def
  /UnderlineThickness get Ts mul /Tt exch def
  ux uy To add cs 10 mul 26 idiv add moveto Tcx uy To add cs 10 mul 26 idiv add lineto
  Tt setlinewidth stroke
  grestore
} bd
/QT {
/Y22 exch store
/X22 exch store
/Y21 exch store
/X21 exch store
currentpoint
/Y21 load 2 mul add 3 div exch
/X21 load 2 mul add 3 div exch
/X21 load 2 mul /X22 load add 3 div
/Y21 load 2 mul /Y22 load add 3 div
/X22 load /Y22 load curveto
} bd
/SSPD {
dup length /d exch dict def
{
/v exch def
/k exch def
currentpagedevice k known {
/cpdv currentpagedevice k get def
v cpdv ne {
/upd false def
/nullv v type /nulltype eq def
/nullcpdv cpdv type /nulltype eq def
nullv nullcpdv or
{
/upd true def
} {
/sametype v type cpdv type eq def
sametype {
v type /arraytype eq {
/vlen v length def
/cpdvlen cpdv length def
vlen cpdvlen eq {
0 1 vlen 1 sub {
/i exch def
/obj v i get def
/cpdobj cpdv i get def
obj cpdobj ne {
/upd true def
exit
} if
} for
} {
/upd true def
} ifelse
} {
v type /dicttype eq {
v {
/dv exch def
/dk exch def
/cpddv cpdv dk get def
dv cpddv ne {
/upd true def
exit
} if
} forall
} {
/upd true def
} ifelse
} ifelse
} if
} ifelse
upd true eq {
d k v put
} if
} if
} if
} forall
d length 0 gt {
d setpagedevice
} if
} bd
/RE { % /NewFontName [NewEncodingArray] /FontName RE -
  findfont dup length dict begin
  {
    1 index /FID ne
    {def} {pop pop} ifelse
  } forall
  /Encoding exch def
  /FontName 1 index def
  currentdict definefont pop
  end
} bind def
%%EndResource
%%BeginResource: procset (Apache XML Graphics EPS ProcSet) 1.0 0
%%Version: 1.0 0
%%Copyright: (Copyright 2002-2003 The Apache Software Foundation. License terms: http://www.apache.org/licenses/LICENSE-2.0)
/BeginEPSF { %def
/b4_Inc_state save def         % Save state for cleanup
/dict_count countdictstack def % Count objects on dict stack
/op_count count 1 sub def      % Count objects on operand stack
userdict begin                 % Push userdict on dict stack
/showpage { } def              % Redefine showpage, { } = null proc
0 setgray 0 setlinecap         % Prepare graphics state
1 setlinewidth 0 setlinejoin
10 setmiterlimit [ ] 0 setdash newpath
/languagelevel where           % If level not equal to 1 then
{pop languagelevel             % set strokeadjust and
1 ne                           % overprint to their defaults.
{false setstrokeadjust false setoverprint
} if
} if
} bd
/EndEPSF { %def
count op_count sub {pop} repeat            % Clean up stacks
countdictstack dict_count sub {end} repeat
b4_Inc_state restore
} bd
%%EndResource
%FOPBeginFontDict
%%IncludeResource: font Courier-Bold
%%IncludeResource: font Helvetica
%%IncludeResource: font Courier-BoldOblique
%%IncludeResource: font Courier-Oblique
%%IncludeResource: font Times-Roman
%%IncludeResource: font Helvetica-BoldOblique
%%IncludeResource: font Helvetica-Bold
%%IncludeResource: font Helvetica-Oblique
%%IncludeResource: font Times-BoldItalic
%%IncludeResource: font Courier
%%IncludeResource: font Times-Italic
%%IncludeResource: font Times-Bold
%%IncludeResource: font Symbol
%%IncludeResource: font ZapfDingbats
%FOPEndFontDict
%%BeginResource: encoding WinAnsiEncoding
/WinAnsiEncoding [
/.notdef /.notdef /.notdef /.notdef /.notdef
/.notdef /.notdef /.notdef /.notdef /.notdef
/.notdef /.notdef /.notdef /.notdef /.notdef
/.notdef /.notdef /.notdef /.notdef /.notdef
/.notdef /.notdef /.notdef /.notdef /.notdef
/.notdef /.notdef /.notdef /.notdef /.notdef
/.notdef /.notdef /space /exclam /quotedbl
/numbersign /dollar /percent /ampersand /quotesingle
/parenleft /parenright /asterisk /plus /comma
/hyphen /period /slash /zero /one
/two /three /four /five /six
/seven /eight /nine /colon /semicolon
/less /equal /greater /question /at
/A /B /C /D /E
/F /G /H /I /J
/K /L /M /N /O
/P /Q /R /S /T
/U /V /W /X /Y
/Z /bracketleft /backslash /bracketright /asciicircum
/underscore /quoteleft /a /b /c
/d /e /f /g /h
/i /j /k /l /m
/n /o /p /q /r
/s /t /u /v /w
/x /y /z /braceleft /bar
/braceright /asciitilde /bullet /Euro /bullet
/quotesinglbase /florin /quotedblbase /ellipsis /dagger
/daggerdbl /circumflex /perthousand /Scaron /guilsinglleft
/OE /bullet /Zcaron /bullet /bullet
/quoteleft /quoteright /quotedblleft /quotedblright /bullet
/endash /emdash /asciitilde /trademark /scaron
/guilsinglright /oe /bullet /zcaron /Ydieresis
/space /exclamdown /cent /sterling /currency
/yen /brokenbar /section /dieresis /copyright
/ordfeminine /guillemotleft /logicalnot /sfthyphen /registered
/macron /degree /plusminus /twosuperior /threesuperior
/acute /mu /paragraph /middot /cedilla
/onesuperior /ordmasculine /guillemotright /onequarter /onehalf
/threequarters /questiondown /Agrave /Aacute /Acircumflex
/Atilde /Adieresis /Aring /AE /Ccedilla
/Egrave /Eacute /Ecircumflex /Edieresis /Igrave
/Iacute /Icircumflex /Idieresis /Eth /Ntilde
/Ograve /Oacute /Ocircumflex /Otilde /Odieresis
/multiply /Oslash /Ugrave /Uacute /Ucircumflex
/Udieresis /Yacute /Thorn /germandbls /agrave
/aacute /acircumflex /atilde /adieresis /aring
/ae /ccedilla /egrave /eacute /ecircumflex
/edieresis /igrave /iacute /icircumflex /idieresis
/eth /ntilde /ograve /oacute /ocircumflex
/otilde /odieresis /divide /oslash /ugrave
/uacute /ucircumflex /udieresis /yacute /thorn
/ydieresis
] def
%%EndResource
%FOPBeginFontReencode
/Courier-Bold findfont
dup length dict begin
  {1 index /FID ne {def} {pop pop} ifelse} forall
  /Encoding WinAnsiEncoding def
  currentdict
end
/Courier-Bold exch definefont pop
/Helvetica findfont
dup length dict begin
  {1 index /FID ne {def} {pop pop} ifelse} forall
  /Encoding WinAnsiEncoding def
  currentdict
end
/Helvetica exch definefont pop
/Courier-BoldOblique findfont
dup length dict begin
  {1 index /FID ne {def} {pop pop} ifelse} forall
  /Encoding WinAnsiEncoding def
  currentdict
end
/Courier-BoldOblique exch definefont pop
/Courier-Oblique findfont
dup length dict begin
  {1 index /FID ne {def} {pop pop} ifelse} forall
  /Encoding WinAnsiEncoding def
  currentdict
end
/Courier-Oblique exch definefont pop
/Times-Roman findfont
dup length dict begin
  {1 index /FID ne {def} {pop pop} ifelse} forall
  /Encoding WinAnsiEncoding def
  currentdict
end
/Times-Roman exch definefont pop
/Helvetica-BoldOblique findfont
dup length dict begin
  {1 index /FID ne {def} {pop pop} ifelse} forall
  /Encoding WinAnsiEncoding def
  currentdict
end
/Helvetica-BoldOblique exch definefont pop
/Helvetica-Bold findfont
dup length dict begin
  {1 index /FID ne {def} {pop pop} ifelse} forall
  /Encoding WinAnsiEncoding def
  currentdict
end
/Helvetica-Bold exch definefont pop
/Helvetica-Oblique findfont
dup length dict begin
  {1 index /FID ne {def} {pop pop} ifelse} forall
  /Encoding WinAnsiEncoding def
  currentdict
end
/Helvetica-Oblique exch definefont pop
/Times-BoldItalic findfont
dup length dict begin
  {1 index /FID ne {def} {pop pop} ifelse} forall
  /Encoding WinAnsiEncoding def
  currentdict
end
/Times-BoldItalic exch definefont pop
/Courier findfont
dup length dict begin
  {1 index /FID ne {def} {pop pop} ifelse} forall
  /Encoding WinAnsiEncoding def
  currentdict
end
/Courier exch definefont pop
/Times-Italic findfont
dup length dict begin
  {1 index /FID ne {def} {pop pop} ifelse} forall
  /Encoding WinAnsiEncoding def
  currentdict
end
/Times-Italic exch definefont pop
/Times-Bold findfont
dup length dict begin
  {1 index /FID ne {def} {pop pop} ifelse} forall
  /Encoding WinAnsiEncoding def
  currentdict
end
/Times-Bold exch definefont pop
%FOPEndFontReencode
%%EndProlog
%%Page: 1 1
%%PageBoundingBox: 0 0 426 319
%%BeginPageSetup
[1 0 0 -1 0 319] CT
%%EndPageSetup
GS
[0.75 0 0 0.75 0 0.25] CT
1 GC
N
0 0 568 425 re
f
GR
GS
[0.75 0 0 0.75 0 0.25] CT
1 GC
N
0 0 568 425 re
f
GR
GS
[0.75 0 0 0.75 0 0.25] CT
1 GC
N
74 378 M
514 378 L
514 32 L
74 32 L
cp
f
GR
GS
[0.75 0 0 0.75 0 0.25] CT
0.149 GC
2 setlinecap
1 LJ
0.667 LW
N
74 378 M
514 378 L
S
GR
GS
[0.75 0 0 0.75 0 0.25] CT
0.149 GC
2 setlinecap
1 LJ
0.667 LW
N
74 32 M
514 32 L
S
GR
GS
[0.75 0 0 0.75 0 0.25] CT
0.149 GC
2 setlinecap
1 LJ
0.667 LW
N
74 378 M
74 373.6 L
S
GR
GS
[0.75 0 0 0.75 0 0.25] CT
0.149 GC
2 setlinecap
1 LJ
0.667 LW
N
162 378 M
162 373.6 L
S
GR
GS
[0.75 0 0 0.75 0 0.25] CT
0.149 GC
2 setlinecap
1 LJ
0.667 LW
N
250 378 M
250 373.6 L
S
GR
GS
[0.75 0 0 0.75 0 0.25] CT
0.149 GC
2 setlinecap
1 LJ
0.667 LW
N
338 378 M
338 373.6 L
S
GR
GS
[0.75 0 0 0.75 0 0.25] CT
0.149 GC
2 setlinecap
1 LJ
0.667 LW
N
426 378 M
426 373.6 L
S
GR
GS
[0.75 0 0 0.75 0 0.25] CT
0.149 GC
2 setlinecap
1 LJ
0.667 LW
N
514 378 M
514 373.6 L
S
GR
GS
[0.75 0 0 0.75 0 0.25] CT
0.149 GC
2 setlinecap
1 LJ
0.667 LW
N
74 32 M
74 36.4 L
S
GR
GS
[0.75 0 0 0.75 0 0.25] CT
0.149 GC
2 setlinecap
1 LJ
0.667 LW
N
162 32 M
162 36.4 L
S
GR
GS
[0.75 0 0 0.75 0 0.25] CT
0.149 GC
2 setlinecap
1 LJ
0.667 LW
N
250 32 M
250 36.4 L
S
GR
GS
[0.75 0 0 0.75 0 0.25] CT
0.149 GC
2 setlinecap
1 LJ
0.667 LW
N
338 32 M
338 36.4 L
S
GR
GS
[0.75 0 0 0.75 0 0.25] CT
0.149 GC
2 setlinecap
1 LJ
0.667 LW
N
426 32 M
426 36.4 L
S
GR
GS
[0.75 0 0 0.75 0 0.25] CT
0.149 GC
2 setlinecap
1 LJ
0.667 LW
N
514 32 M
514 36.4 L
S
GR
GS
[0.75 0 0 0.75 55.5 287.75001] CT
0.149 GC
/Helvetica 13.333 F
GS
[1 0 0 1 0 0] CT
-4.5 13 moveto 
1 -1 scale
(0) t 
GR
GR
GS
[0.75 0 0 0.75 121.5 287.75001] CT
0.149 GC
/Helvetica 13.333 F
GS
[1 0 0 1 0 0] CT
-12.5 13 moveto 
1 -1 scale
(500) t 
GR
GR
GS
[0.75 0 0 0.75 187.5 287.75001] CT
0.149 GC
/Helvetica 13.333 F
GS
[1 0 0 1 0 0] CT
-17 13 moveto 
1 -1 scale
(1000) t 
GR
GR
GS
[0.75 0 0 0.75 253.5 287.75001] CT
0.149 GC
/Helvetica 13.333 F
GS
[1 0 0 1 0 0] CT
-17 13 moveto 
1 -1 scale
(1500) t 
GR
GR
GS
[0.75 0 0 0.75 319.5 287.75001] CT
0.149 GC
/Helvetica 13.333 F
GS
[1 0 0 1 0 0] CT
-17 13 moveto 
1 -1 scale
(2000) t 
GR
GR
GS
[0.75 0 0 0.75 385.5 287.75001] CT
0.149 GC
/Helvetica 13.333 F
GS
[1 0 0 1 0 0] CT
-17 13 moveto 
1 -1 scale
(2500) t 
GR
GR
GS
[0.75 0 0 0.75 0 0.25] CT
0.149 GC
2 setlinecap
1 LJ
0.667 LW
N
74 378 M
74 32 L
S
GR
GS
[0.75 0 0 0.75 0 0.25] CT
0.149 GC
2 setlinecap
1 LJ
0.667 LW
N
514 378 M
514 32 L
S
GR
GS
[0.75 0 0 0.75 0 0.25] CT
0.149 GC
2 setlinecap
1 LJ
0.667 LW
N
74 378 M
78.4 378 L
S
GR
GS
[0.75 0 0 0.75 0 0.25] CT
0.149 GC
2 setlinecap
1 LJ
0.667 LW
N
74 339.556 M
78.4 339.556 L
S
GR
GS
[0.75 0 0 0.75 0 0.25] CT
0.149 GC
2 setlinecap
1 LJ
0.667 LW
N
74 301.111 M
78.4 301.111 L
S
GR
GS
[0.75 0 0 0.75 0 0.25] CT
0.149 GC
2 setlinecap
1 LJ
0.667 LW
N
74 262.667 M
78.4 262.667 L
S
GR
GS
[0.75 0 0 0.75 0 0.25] CT
0.149 GC
2 setlinecap
1 LJ
0.667 LW
N
74 224.222 M
78.4 224.222 L
S
GR
GS
[0.75 0 0 0.75 0 0.25] CT
0.149 GC
2 setlinecap
1 LJ
0.667 LW
N
74 185.778 M
78.4 185.778 L
S
GR
GS
[0.75 0 0 0.75 0 0.25] CT
0.149 GC
2 setlinecap
1 LJ
0.667 LW
N
74 147.333 M
78.4 147.333 L
S
GR
GS
[0.75 0 0 0.75 0 0.25] CT
0.149 GC
2 setlinecap
1 LJ
0.667 LW
N
74 108.889 M
78.4 108.889 L
S
GR
GS
[0.75 0 0 0.75 0 0.25] CT
0.149 GC
2 setlinecap
1 LJ
0.667 LW
N
74 70.444 M
78.4 70.444 L
S
GR
GS
[0.75 0 0 0.75 0 0.25] CT
0.149 GC
2 setlinecap
1 LJ
0.667 LW
N
74 32 M
78.4 32 L
S
GR
GS
[0.75 0 0 0.75 0 0.25] CT
0.149 GC
2 setlinecap
1 LJ
0.667 LW
N
514 378 M
509.6 378 L
S
GR
GS
[0.75 0 0 0.75 0 0.25] CT
0.149 GC
2 setlinecap
1 LJ
0.667 LW
N
514 339.556 M
509.6 339.556 L
S
GR
GS
[0.75 0 0 0.75 0 0.25] CT
0.149 GC
2 setlinecap
1 LJ
0.667 LW
N
514 301.111 M
509.6 301.111 L
S
GR
GS
[0.75 0 0 0.75 0 0.25] CT
0.149 GC
2 setlinecap
1 LJ
0.667 LW
N
514 262.667 M
509.6 262.667 L
S
GR
GS
[0.75 0 0 0.75 0 0.25] CT
0.149 GC
2 setlinecap
1 LJ
0.667 LW
N
514 224.222 M
509.6 224.222 L
S
GR
GS
[0.75 0 0 0.75 0 0.25] CT
0.149 GC
2 setlinecap
1 LJ
0.667 LW
N
514 185.778 M
509.6 185.778 L
S
GR
GS
[0.75 0 0 0.75 0 0.25] CT
0.149 GC
2 setlinecap
1 LJ
0.667 LW
N
514 147.333 M
509.6 147.333 L
S
GR
GS
[0.75 0 0 0.75 0 0.25] CT
0.149 GC
2 setlinecap
1 LJ
0.667 LW
N
514 108.889 M
509.6 108.889 L
S
GR
GS
[0.75 0 0 0.75 0 0.25] CT
0.149 GC
2 setlinecap
1 LJ
0.667 LW
N
514 70.444 M
509.6 70.444 L
S
GR
GS
[0.75 0 0 0.75 0 0.25] CT
0.149 GC
2 setlinecap
1 LJ
0.667 LW
N
514 32 M
509.6 32 L
S
GR
GS
[0.75 0 0 0.75 51.5 283.75] CT
0.149 GC
/Helvetica 13.333 F
GS
[1 0 0 1 0 0] CT
-13 4.5 moveto 
1 -1 scale
(-1) t 
GR
GR
GS
[0.75 0 0 0.75 51.5 254.91668] CT
0.149 GC
/Helvetica 13.333 F
GS
[1 0 0 1 0 0] CT
-26 4.5 moveto 
1 -1 scale
(-0.8) t 
GR
GR
GS
[0.75 0 0 0.75 51.5 226.08334] CT
0.149 GC
/Helvetica 13.333 F
GS
[1 0 0 1 0 0] CT
-26 4.5 moveto 
1 -1 scale
(-0.6) t 
GR
GR
GS
[0.75 0 0 0.75 51.5 197.24999] CT
0.149 GC
/Helvetica 13.333 F
GS
[1 0 0 1 0 0] CT
-26 4.5 moveto 
1 -1 scale
(-0.4) t 
GR
GR
GS
[0.75 0 0 0.75 51.5 168.41667] CT
0.149 GC
/Helvetica 13.333 F
GS
[1 0 0 1 0 0] CT
-26 4.5 moveto 
1 -1 scale
(-0.2) t 
GR
GR
GS
[0.75 0 0 0.75 51.5 139.58333] CT
0.149 GC
/Helvetica 13.333 F
GS
[1 0 0 1 0 0] CT
-9 4.5 moveto 
1 -1 scale
(0) t 
GR
GR
GS
[0.75 0 0 0.75 51.5 110.75] CT
0.149 GC
/Helvetica 13.333 F
GS
[1 0 0 1 0 0] CT
-21 4.5 moveto 
1 -1 scale
(0.2) t 
GR
GR
GS
[0.75 0 0 0.75 51.5 81.91666] CT
0.149 GC
/Helvetica 13.333 F
GS
[1 0 0 1 0 0] CT
-21 4.5 moveto 
1 -1 scale
(0.4) t 
GR
GR
GS
[0.75 0 0 0.75 51.5 53.08333] CT
0.149 GC
/Helvetica 13.333 F
GS
[1 0 0 1 0 0] CT
-21 4.5 moveto 
1 -1 scale
(0.6) t 
GR
GR
GS
[0.75 0 0 0.75 51.5 24.25] CT
0.149 GC
/Helvetica 13.333 F
GS
[1 0 0 1 0 0] CT
-21 4.5 moveto 
1 -1 scale
(0.8) t 
GR
GR
GS
[0.75 0 0 0.75 0 0.25] CT
0 0.447 0.741 RC
1 LJ
0.667 LW
N
74.176 188.714 M
74.352 184.298 L
74.528 184.999 L
74.704 188.035 L
74.88 187.026 L
75.056 202.565 L
75.232 201.714 L
75.408 190.517 L
75.584 208.26 L
75.76 209.187 L
75.936 189.413 L
76.112 171.911 L
76.288 162.059 L
76.464 158.463 L
76.64 157.262 L
76.816 154.471 L
76.992 140.231 L
77.168 135.169 L
77.344 157.607 L
77.52 164.325 L
77.696 158.838 L
77.872 159.76 L
78.048 151.804 L
78.224 150.433 L
78.4 148.829 L
78.576 155.653 L
78.752 151.213 L
78.928 140.949 L
79.104 142.135 L
79.28 133.607 L
79.456 122.196 L
79.632 127.865 L
79.808 148.819 L
79.984 172.279 L
80.16 188.129 L
80.336 188.493 L
80.512 190.593 L
80.688 190.941 L
80.864 192.984 L
81.04 207.293 L
81.216 236.104 L
81.392 257.972 L
81.568 269.421 L
81.744 264.02 L
81.92 259.349 L
82.096 268.326 L
82.272 254.044 L
82.448 227.994 L
82.624 220.417 L
82.8 246.548 L
82.976 244.206 L
83.152 236.794 L
83.328 249.626 L
83.504 254.185 L
83.68 269.147 L
83.856 277.402 L
84.032 292.726 L
84.208 295.45 L
84.384 279.757 L
84.56 275.197 L
84.736 276.202 L
84.912 298.322 L
85.088 341.819 L
85.264 363.737 L
85.44 342.915 L
85.616 323.418 L
85.792 329.733 L
85.968 320.552 L
86.144 306.804 L
86.32 288.898 L
86.496 276.842 L
86.672 305.857 L
86.848 322.323 L
87.024 328.038 L
87.2 338.166 L
87.376 329.497 L
87.552 322.081 L
87.728 329.387 L
87.904 341.003 L
88.08 343.818 L
88.256 335.993 L
88.432 339.553 L
88.608 347.94 L
88.784 326.957 L
88.96 283.007 L
89.136 266.713 L
89.312 265.241 L
89.488 251.708 L
89.664 254.686 L
89.84 257.521 L
90.016 255.887 L
90.192 235.816 L
90.368 226.842 L
90.544 237.357 L
90.72 241.149 L
90.896 235.834 L
91.072 190.007 L
91.248 172.867 L
91.424 196.919 L
91.6 206.667 L
91.776 190.355 L
91.952 164.821 L
92.128 147.083 L
92.304 144.706 L
92.48 158.56 L
92.656 151.138 L
92.832 125.937 L
93.008 104.145 L
93.184 104.783 L
93.36 129.346 L
93.536 141.931 L
93.712 133.384 L
93.888 121.604 L
94.064 114.175 L
94.24 127.986 L
94.416 129.75 L
94.592 103.111 L
94.768 90.227 L
94.944 102.537 L
95.12 137.642 L
95.296 146.348 L
95.472 131.479 L
95.648 121.426 L
95.824 117.542 L
96 127.105 L
96.176 138.901 L
96.352 137.225 L
96.528 114.26 L
96.704 120.783 L
96.88 148.678 L
97.056 154.779 L
97.232 134.328 L
97.408 110.072 L
97.584 116.97 L
97.76 113.708 L
97.936 94.25 L
98.112 96.523 L
98.288 105.933 L
98.464 108.173 L
98.64 119.629 L
98.816 115.393 L
98.992 94.485 L
99.168 110.844 L
99.344 141.155 L
99.52 154.951 L
99.696 149.122 L
99.872 133.624 L
100.048 144.253 L
100.224 164.422 L
100.4 166.578 L
100.576 152.246 L
100.752 148.324 L
100.928 169.387 L
101.104 166.81 L
101.28 153.537 L
101.456 147.712 L
101.632 142.849 L
101.808 149.17 L
101.984 138.013 L
102.16 134.638 L
102.336 138.465 L
102.512 133.577 L
102.688 127.302 L
102.864 122.75 L
103.04 114.943 L
103.216 92.04 L
103.392 110.797 L
103.568 139.481 L
103.744 125.031 L
103.92 102.553 L
104.096 92.61 L
104.272 95.321 L
104.448 78.436 L
104.624 73.251 L
104.8 107.521 L
104.976 119.641 L
105.152 108.719 L
105.328 109.541 L
105.504 133.596 L
105.68 151.87 L
105.856 155.295 L
106.032 160.072 L
106.208 152.294 L
106.384 141.809 L
106.56 133.492 L
106.736 140.188 L
106.912 147.046 L
107.088 145.984 L
107.264 135.212 L
107.44 118.197 L
107.616 113.765 L
107.792 106.008 L
107.968 109.737 L
108.144 116.549 L
108.32 126.022 L
108.496 135.98 L
108.672 128.875 L
108.848 118.81 L
109.024 113.441 L
109.2 100.013 L
109.376 79.356 L
109.552 78.549 L
109.728 82.026 L
109.904 73.469 L
110.08 62.413 L
110.256 56.304 L
110.432 51.417 L
110.608 39.323 L
110.784 54.296 L
110.96 90.241 L
111.136 77.674 L
111.312 44.59 L
111.488 50.908 L
111.664 76.402 L
111.84 78.041 L
112.016 65.632 L
112.192 62.997 L
112.368 62.451 L
112.544 70.705 L
112.72 76.766 L
112.896 75.234 L
113.072 67.772 L
113.248 62.024 L
113.424 70.311 L
113.6 88.528 L
113.776 101.881 L
113.952 97.248 L
114.128 89.617 L
114.304 92.174 L
114.48 95.022 L
114.656 100.196 L
114.832 120.574 L
115.008 139.484 L
115.184 139.395 L
115.36 123.47 L
115.536 117.278 L
115.712 113.109 L
115.888 109.703 L
116.064 117.056 L
116.24 129.996 L
116.416 148.427 L
116.592 152.499 L
116.768 138.386 L
116.944 105.231 L
117.12 78.879 L
117.296 81.758 L
117.472 115.864 L
117.648 140.716 L
117.824 140.04 L
118 162.124 L
118.176 184.123 L
118.352 187.398 L
118.528 198.319 L
118.704 206.636 L
118.88 210.415 L
119.056 213.593 L
119.232 215.878 L
119.408 249.691 L
119.584 286.381 L
119.76 297.85 L
119.936 276.859 L
120.112 245.631 L
120.288 246.323 L
120.464 245.896 L
120.64 244.664 L
120.816 242.515 L
120.992 235.907 L
121.168 231.826 L
121.344 230.071 L
121.52 238.936 L
121.696 235.19 L
121.872 219.077 L
122.048 215.111 L
122.224 226.137 L
122.4 229.769 L
122.576 227.06 L
122.752 242.056 L
122.928 259.788 L
123.104 272.98 L
123.28 266.773 L
123.456 246.665 L
123.632 236.27 L
123.808 216.374 L
123.984 221.792 L
124.16 230.061 L
124.336 218.564 L
124.512 218.492 L
124.688 214.828 L
124.864 222.719 L
125.04 217.501 L
125.216 196.279 L
125.392 193.634 L
125.568 208.972 L
125.744 219.435 L
125.92 203.231 L
126.096 193.016 L
126.272 194.896 L
126.448 188.03 L
126.624 159.097 L
126.8 124.631 L
126.976 118.345 L
127.152 121.596 L
127.328 131.984 L
127.504 142.849 L
127.68 146.247 L
127.856 151.778 L
128.032 153.041 L
128.208 154.933 L
128.384 145.691 L
128.56 138.789 L
128.736 145.724 L
128.912 168.132 L
129.088 193.675 L
129.264 185.02 L
129.44 159.384 L
129.616 155.991 L
129.792 177.91 L
129.968 193.608 L
130.144 205.326 L
130.32 201.446 L
130.496 184.562 L
130.672 187.751 L
130.848 201.758 L
131.024 228.87 L
131.2 250.978 L
131.376 253.857 L
131.552 238.631 L
131.728 217.665 L
131.904 204.455 L
132.08 191.65 L
132.256 196.225 L
132.432 200.828 L
132.608 192.425 L
132.784 200.057 L
132.96 219.083 L
133.136 219.376 L
133.312 218.727 L
133.488 234.435 L
133.664 237.661 L
133.84 231.984 L
134.016 231.587 L
134.192 243.311 L
134.368 254.239 L
134.544 251.263 L
134.72 255.304 L
134.896 268.815 L
135.072 266.108 L
135.248 256.302 L
135.424 254.926 L
135.6 260.189 L
135.776 267.854 L
135.952 254.013 L
136.128 248.696 L
136.304 254.15 L
136.48 265.822 L
136.656 269.581 L
136.832 247.236 L
137.008 247.979 L
137.184 258.844 L
137.36 258.387 L
137.536 247.243 L
137.712 242.51 L
137.888 243.107 L
138.064 248.623 L
138.24 243.639 L
138.416 233.988 L
138.592 255.302 L
138.768 261.901 L
138.944 259.165 L
139.12 251.931 L
139.296 240.776 L
139.472 235.378 L
139.648 236.024 L
139.824 252.248 L
140 255.021 L
140.176 243.001 L
140.352 238.241 L
140.528 242.521 L
140.704 231.631 L
140.88 207.421 L
141.056 193.723 L
141.232 204.035 L
141.408 220.057 L
141.584 220.907 L
141.76 206.458 L
141.936 182.142 L
142.112 173.859 L
142.288 179.793 L
142.464 187.932 L
142.64 210.228 L
142.816 242.238 L
142.992 252.574 L
143.168 238.48 L
143.344 225.156 L
143.52 227.301 L
143.696 237.391 L
143.872 243.001 L
144.048 241.687 L
144.224 223.811 L
144.4 206.929 L
144.576 194.435 L
144.752 179.344 L
144.928 181.137 L
145.104 184.636 L
145.28 177.225 L
145.456 168.486 L
145.632 172.667 L
145.808 172.448 L
145.984 154.201 L
146.16 146.057 L
146.336 145.489 L
146.512 146.777 L
146.688 152.998 L
146.864 168.842 L
147.04 179.596 L
147.216 181.381 L
147.392 187.64 L
147.568 190.648 L
147.744 201.819 L
147.92 210.772 L
148.096 216.239 L
148.272 243.205 L
148.448 260.197 L
148.624 249.428 L
148.8 241.208 L
148.976 238.65 L
149.152 242.616 L
149.328 234.884 L
149.504 218.991 L
149.68 221.749 L
149.856 228.154 L
150.032 232.941 L
150.208 223.984 L
150.384 200.949 L
150.56 189.607 L
150.736 198.262 L
150.912 211.281 L
151.088 225.716 L
151.264 228.851 L
151.44 220.692 L
151.616 219.935 L
151.792 212.262 L
151.968 208.486 L
152.144 217.879 L
152.32 226.098 L
152.496 222.382 L
152.672 216.775 L
152.848 218.044 L
153.024 228.102 L
153.2 251.884 L
153.376 264.26 L
153.552 256.083 L
153.728 248.26 L
153.904 238.687 L
154.08 230.901 L
154.256 248.657 L
154.432 262.192 L
154.608 243.828 L
154.784 238.877 L
154.96 256.638 L
155.136 250.694 L
155.312 222.472 L
155.488 197.758 L
155.664 203.1 L
155.84 234.354 L
156.016 254.669 L
156.192 265.292 L
156.368 269.323 L
156.544 266.087 L
156.72 271.102 L
156.896 285.39 L
157.072 288.419 L
157.248 279.777 L
157.424 270.682 L
157.6 266.245 L
157.776 272.212 L
157.952 271.807 L
158.128 251.439 L
158.304 232.259 L
158.48 225.403 L
158.656 213.804 L
158.832 200.107 L
159.008 207.868 L
159.184 221.102 L
159.36 223.594 L
159.536 241.747 L
159.712 244.386 L
159.888 228.941 L
160.064 231.739 L
160.24 233.56 L
160.416 231.944 L
160.592 233.044 L
160.768 235.575 L
160.944 244.69 L
161.12 247.551 L
161.296 233.621 L
161.472 233.064 L
161.648 243.95 L
161.824 251.04 L
162 248.425 L
162.176 241.356 L
162.352 244.819 L
162.528 242.513 L
162.704 237.887 L
162.88 236.076 L
163.056 230.393 L
163.232 211.622 L
163.408 203.898 L
163.584 202.622 L
163.76 186.009 L
163.936 169.193 L
164.112 153.418 L
164.288 153.759 L
164.464 168.189 L
164.64 169.414 L
164.816 157.568 L
164.992 160.458 L
165.168 154.726 L
165.344 142.704 L
165.52 147.017 L
165.696 155.477 L
165.872 165.571 L
166.048 163.088 L
166.224 158.336 L
166.4 162.142 L
166.576 171.512 L
166.752 160.679 L
166.928 147.084 L
167.104 136.861 L
167.28 122.658 L
167.456 137.571 L
167.632 155.816 L
167.808 167.033 L
167.984 172.703 L
168.16 186.876 L
168.336 182.443 L
168.512 157.131 L
168.688 157.826 L
168.864 144.408 L
169.04 134.802 L
169.216 138.891 L
169.392 133.583 L
169.568 134.549 L
169.744 142.569 L
169.92 155.921 L
170.096 154.567 L
170.272 153.59 L
170.448 154.533 L
170.624 147.54 L
170.8 172.248 L
170.976 197.471 L
171.152 189.952 L
171.328 184.457 L
171.504 185.193 L
171.68 183.623 L
171.856 180.715 L
172.032 162.856 L
172.208 141.205 L
172.384 149.668 L
172.56 161.338 L
172.736 167.286 L
172.912 182.067 L
173.088 181.65 L
173.264 180.033 L
173.44 184.496 L
173.616 194.076 L
173.792 200.831 L
173.968 191.25 L
174.144 176.03 L
174.32 171.257 L
174.496 187.612 L
174.672 190.24 L
174.848 174.558 L
175.024 157.916 L
175.2 142.142 L
175.376 142.851 L
175.552 145.066 L
175.728 127.175 L
175.904 120.301 L
176.08 137.765 L
176.256 131.909 L
176.432 131.107 L
176.608 155.135 L
176.784 154.166 L
176.96 130.389 L
177.136 99.692 L
177.312 90.27 L
177.488 107.697 L
177.664 112.026 L
177.84 98.527 L
178.016 96.388 L
178.192 97.785 L
178.368 89.292 L
178.544 88.444 L
178.72 95.906 L
178.896 113.864 L
179.072 134.219 L
179.248 146.807 L
179.424 143.295 L
179.6 129.791 L
179.776 127.303 L
179.952 125.422 L
180.128 130.879 L
180.304 143.157 L
180.48 130.553 L
180.656 104.301 L
180.832 110.621 L
181.008 133.845 L
181.184 141.283 L
181.36 151.464 L
181.536 161.363 L
181.712 151.118 L
181.888 143.121 L
182.064 163.823 L
182.24 183.956 L
182.416 179.985 L
182.592 175.195 L
182.768 183.299 L
182.944 188.892 L
183.12 188.531 L
183.296 189.456 L
183.472 180.037 L
183.648 166.52 L
183.824 157.786 L
184 149.837 L
184.176 161.892 L
184.352 183.728 L
184.528 182.41 L
184.704 161.114 L
184.88 147.403 L
185.056 158.346 L
185.232 170.475 L
185.408 179.702 L
185.584 181.204 L
185.76 181.268 L
185.936 204.285 L
186.112 223.235 L
186.288 235.533 L
186.464 232.785 L
186.64 224.868 L
186.816 240.111 L
186.992 255.288 L
187.168 256.858 L
187.344 248.344 L
187.52 253.082 L
187.696 257.283 L
187.872 240.415 L
188.048 221.703 L
188.224 209.718 L
188.4 209.053 L
188.576 222.931 L
188.752 246.288 L
188.928 251.726 L
189.104 236.82 L
189.28 223.541 L
189.456 214.06 L
189.632 208.852 L
189.808 211.228 L
189.984 203.551 L
190.16 194.025 L
190.336 206.385 L
190.512 217.852 L
190.688 224.532 L
190.864 214.745 L
191.04 205.72 L
191.216 215.292 L
191.392 202.422 L
191.568 185.654 L
191.744 191.572 L
191.92 200.82 L
192.096 190.964 L
192.272 184.434 L
192.448 193.927 L
192.624 205.305 L
192.8 219.091 L
192.976 214.934 L
193.152 202.827 L
193.328 198.702 L
193.504 188.82 L
193.68 178.3 L
193.856 168.183 L
194.032 171.622 L
194.208 184.836 L
194.384 174.246 L
194.56 162.162 L
194.736 153.406 L
194.912 145.811 L
195.088 137.677 L
195.264 120.616 L
195.44 123.233 L
195.616 138.748 L
195.792 149.627 L
195.968 139.785 L
196.144 125.02 L
196.32 124.723 L
196.496 126.143 L
196.672 127.307 L
196.848 124.491 L
197.024 116.476 L
197.2 103 L
197.376 96.566 L
197.552 103.06 L
197.728 106.798 L
197.904 106.914 L
198.08 102.462 L
198.256 93.027 L
198.432 100.958 L
198.608 119.718 L
198.784 133.288 L
198.96 133.792 L
199.136 133.554 L
199.312 131.782 L
199.488 127.959 L
199.664 146.14 L
199.84 150.964 L
200.016 145.013 L
200.192 151.315 L
200.368 164.172 L
200.544 174.059 L
200.72 158.002 L
200.896 127.209 L
201.072 123.563 L
201.248 141.369 L
201.424 140.339 L
201.6 124.068 L
201.776 111.143 L
201.952 120.307 L
202.128 130.311 L
202.304 126.042 L
202.48 129.328 L
202.656 132.874 L
202.832 119.068 L
203.008 108.503 L
203.184 117.774 L
203.36 128.868 L
203.536 141.727 L
203.712 153.252 L
203.888 159.274 L
204.064 162.362 L
204.24 154.815 L
204.416 144.919 L
204.592 162.529 L
204.768 182.893 L
204.944 182.615 L
205.12 177.935 L
205.296 181.187 L
205.472 192.542 L
205.648 188.387 L
205.824 185.684 L
206 195.25 L
206.176 211.447 L
206.352 220.216 L
206.528 217.162 L
206.704 210.976 L
206.88 207.145 L
207.056 223.325 L
207.232 229.06 L
207.408 223.251 L
207.584 228.983 L
207.76 227.336 L
207.936 215.44 L
208.112 211.185 L
208.288 231.241 L
208.464 256.068 L
208.64 254.396 L
208.816 250.046 L
208.992 258.119 L
209.168 256.329 L
209.344 243.448 L
209.52 248.296 L
209.696 254.876 L
209.872 245.644 L
210.048 248.911 L
210.224 246.083 L
210.4 248.081 L
210.576 259.457 L
210.752 250.361 L
210.928 245.786 L
211.104 242.814 L
211.28 234.439 L
211.456 241.796 L
211.632 248.892 L
211.808 261.518 L
211.984 258.72 L
212.16 228.899 L
212.336 229.445 L
212.512 226.969 L
212.688 215.285 L
212.864 223.073 L
213.04 218.154 L
213.216 197.68 L
213.392 181.789 L
213.568 174.863 L
213.744 186.948 L
213.92 198.807 L
214.096 184.813 L
214.272 191.921 L
214.448 204.763 L
214.624 194.406 L
214.8 181.743 L
214.976 181.113 L
215.152 184.163 L
215.328 181.174 L
215.504 184.214 L
215.68 190.756 L
215.856 191.337 L
216.032 162.134 L
216.208 144.705 L
216.384 157.912 L
216.56 173.782 L
216.736 180.58 L
216.912 175.292 L
217.088 188.935 L
217.264 200.803 L
217.44 186.973 L
217.616 170.719 L
217.792 171.255 L
217.968 187.331 L
218.144 199.27 L
218.32 196.942 L
218.496 203.125 L
218.672 214.919 L
218.848 221.538 L
219.024 228.917 L
219.2 232.279 L
219.376 231.439 L
219.552 228.256 L
219.728 229.996 L
219.904 229.693 L
220.08 237.632 L
220.256 249.707 L
220.432 250.597 L
220.608 253.355 L
220.784 253.744 L
220.96 242.273 L
221.136 241.419 L
221.312 257.659 L
221.488 251.076 L
221.664 235.314 L
221.84 234.119 L
222.016 223.829 L
222.192 217.252 L
222.368 222.693 L
222.544 215.449 L
222.72 204.884 L
222.896 205.904 L
223.072 221.842 L
223.248 228.911 L
223.424 223.518 L
223.6 237.358 L
223.776 245.976 L
223.952 232.759 L
224.128 217.214 L
224.304 214.343 L
224.48 213.956 L
224.656 208.39 L
224.832 210.411 L
225.008 220.56 L
225.184 221.889 L
225.36 219.427 L
225.536 226.628 L
225.712 228.223 L
225.888 236.973 L
226.064 246.26 L
226.24 246.56 L
226.416 261.863 L
226.592 285.116 L
226.768 292.896 L
226.944 281.658 L
227.12 264.15 L
227.296 245.827 L
227.472 230.656 L
227.648 235.005 L
227.824 246.919 L
228 236.004 L
228.176 221.051 L
228.352 215.599 L
228.528 223.585 L
228.704 232.437 L
228.88 224.953 L
229.056 216.77 L
229.232 199.427 L
229.408 195.783 L
229.584 202.2 L
229.76 172.81 L
229.936 150.09 L
230.112 151.397 L
230.288 147.084 L
230.464 158.993 L
230.64 178.17 L
230.816 176.03 L
230.992 150.512 L
231.168 119.733 L
231.344 117.317 L
231.52 154.384 L
231.696 177.661 L
231.872 166.701 L
232.048 180.301 L
232.224 185.871 L
232.4 176.853 L
232.576 173.265 L
232.752 151.688 L
232.928 145.213 L
233.104 150.055 L
233.28 156.919 L
233.456 164.057 L
233.632 169.997 L
233.808 175.759 L
233.984 164.854 L
234.16 141.548 L
234.336 126.894 L
234.512 131.71 L
234.688 131.488 L
234.864 134.207 L
235.04 136.097 L
235.216 122.4 L
235.392 117.745 L
235.568 116.111 L
235.744 106.536 L
235.92 86.586 L
236.096 61.463 L
236.272 57.043 L
236.448 76.608 L
236.624 94.615 L
236.8 114.476 L
236.976 128.157 L
237.152 113.139 L
237.328 97.734 L
237.504 99.023 L
237.68 109.282 L
237.856 113.296 L
238.032 110.689 L
238.208 112.675 L
238.384 118.178 L
238.56 124.373 L
238.736 128.141 L
238.912 125.591 L
239.088 107.51 L
239.264 105.088 L
239.44 122.175 L
239.616 132.348 L
239.792 140.611 L
239.968 140.025 L
240.144 143.074 L
240.32 166.858 L
240.496 188.949 L
240.672 192.532 L
240.848 201.396 L
241.024 215.028 L
241.2 227.387 L
241.376 246.634 L
241.552 245.149 L
241.728 223.534 L
241.904 212.083 L
242.08 225.063 L
242.256 246.803 L
242.432 252.852 L
242.608 251.612 L
242.784 258.602 L
242.96 266.251 L
243.136 265.759 L
243.312 269.783 L
243.488 272.937 L
243.664 270.122 L
243.84 272.147 L
244.016 268.22 L
244.192 260.933 L
244.368 248.919 L
244.544 242.256 L
244.72 257.396 L
244.896 265.865 L
245.072 260.281 L
245.248 254.975 L
245.424 251.922 L
245.6 242.743 L
245.776 245.872 L
245.952 266.062 L
246.128 281.579 L
246.304 292.89 L
246.48 287.895 L
246.656 281.533 L
246.832 270.164 L
247.008 262.371 L
247.184 276.453 L
247.36 273.215 L
247.536 270.53 L
247.712 263.879 L
247.888 252.375 L
248.064 257.705 L
248.24 240.126 L
248.416 235.45 L
248.592 253.776 L
248.768 252.136 L
248.944 242.494 L
249.12 240.707 L
249.296 242.856 L
249.472 222.538 L
249.648 211.599 L
249.824 217.93 L
250 229.307 L
250.176 248.426 L
250.352 245.962 L
250.528 245.023 L
250.704 243.296 L
250.88 247.659 L
251.056 268.33 L
251.232 269.376 L
251.408 251.549 L
251.584 250.872 L
251.76 265.254 L
251.936 260.807 L
252.112 257.111 L
252.288 249.241 L
252.464 242.639 L
252.64 246.837 L
252.816 252.449 L
252.992 264.143 L
253.168 260.109 L
253.344 252.765 L
253.52 248.519 L
253.696 235.316 L
253.872 216.465 L
254.048 219.115 L
254.224 233.084 L
254.4 216.668 L
254.576 209.823 L
254.752 230.361 L
254.928 232.779 L
255.104 222.228 L
255.28 228.377 L
255.456 237.013 L
255.632 249.172 L
255.808 267.255 L
255.984 250.522 L
256.16 221.343 L
256.336 225.749 L
256.512 229.994 L
256.688 224.509 L
256.864 222.833 L
257.04 218.638 L
257.216 211.558 L
257.392 199.987 L
257.568 201.054 L
257.744 205.937 L
257.92 213.194 L
258.096 225.802 L
258.272 229.061 L
258.448 228.465 L
258.624 224.96 L
258.8 223.26 L
258.976 217.796 L
259.152 204.18 L
259.328 189.774 L
259.504 201.537 L
259.68 229.235 L
259.856 234.018 L
260.032 227.395 L
260.208 211.304 L
260.384 197.674 L
260.56 193.524 L
260.736 193.437 L
260.912 199.653 L
261.088 198.938 L
261.264 203.437 L
261.44 200.581 L
261.616 195.362 L
261.792 216.378 L
261.968 224.353 L
262.144 214.493 L
262.32 204.158 L
262.496 194.061 L
262.672 195.307 L
262.848 195.493 L
263.024 203.867 L
263.2 206.982 L
263.376 192.244 L
263.552 196.647 L
263.728 210.452 L
263.904 212.208 L
264.08 191.259 L
264.256 179.868 L
264.432 214.617 L
264.608 236.049 L
264.784 230.249 L
264.96 217.972 L
265.136 195.393 L
265.312 172.727 L
265.488 165.785 L
265.664 191.789 L
265.84 206.249 L
266.016 198.593 L
266.192 195.571 L
266.368 200.941 L
266.544 217.196 L
266.72 208.094 L
266.896 186.562 L
267.072 189.348 L
267.248 202.674 L
267.424 217.561 L
267.6 216.759 L
267.776 180.22 L
267.952 155.526 L
268.128 182.656 L
268.304 221.164 L
268.48 228.747 L
268.656 208.626 L
268.832 189.165 L
269.008 180.2 L
269.184 182.879 L
269.36 186.943 L
269.536 176.339 L
269.712 158.286 L
269.888 142.677 L
270.064 129.652 L
270.24 119.59 L
270.416 107.063 L
270.592 87.316 L
270.768 83.984 L
270.944 95.98 L
271.12 106.199 L
271.296 115.024 L
271.472 115.894 L
271.648 106.559 L
271.824 98.134 L
272 100.944 L
272.176 102.501 L
272.352 101.665 L
272.528 110.022 L
272.704 127.913 L
272.88 146.479 L
273.056 154.095 L
273.232 139.382 L
273.408 123.265 L
273.584 123.066 L
273.76 115.21 L
273.936 122.817 L
274.112 128.163 L
274.288 114.118 L
274.464 117.202 L
274.64 122.248 L
274.816 119.272 L
274.992 106.704 L
275.168 104.667 L
275.344 108.374 L
275.52 113.187 L
275.696 117.216 L
275.872 92.45 L
276.048 80.826 L
276.224 74.101 L
276.4 62.047 L
276.576 68.196 L
276.752 64.663 L
276.928 53.707 L
277.104 44.676 L
277.28 44.251 L
277.456 49.727 L
277.632 47.419 L
277.808 58.748 L
277.984 83.291 L
278.16 88.192 L
278.336 61.267 L
278.512 42.603 L
278.688 61.112 L
278.864 76.41 L
279.04 75.906 L
279.216 73.372 L
279.392 80.093 L
279.568 91.875 L
279.744 91.421 L
279.92 93.646 L
280.096 98.157 L
280.272 104.149 L
280.448 120.406 L
280.624 139.945 L
280.8 150.812 L
280.976 150.872 L
281.152 151.05 L
281.328 156.62 L
281.504 153.005 L
281.68 141.425 L
281.856 139.401 L
282.032 143.116 L
282.208 141.34 L
282.384 131.165 L
282.56 135.27 L
282.736 149.538 L
282.912 146.289 L
283.088 133.44 L
283.264 139.971 L
283.44 156.192 L
283.616 152.874 L
283.792 140.553 L
283.968 146.027 L
284.144 159.237 L
284.32 153.294 L
284.496 141.036 L
284.672 134.7 L
284.848 150.762 L
285.024 161.955 L
285.2 164.473 L
285.376 170.52 L
285.552 153.518 L
285.728 149.165 L
285.904 155.31 L
286.08 155.047 L
286.256 146.06 L
286.432 136.814 L
286.608 136.093 L
286.784 142.911 L
286.96 151.434 L
287.136 146.622 L
287.312 156.107 L
287.488 170.592 L
287.664 165.905 L
287.84 164.226 L
288.016 189.193 L
288.192 194.737 L
288.368 176.812 L
288.544 174.585 L
288.72 183.519 L
288.896 202.518 L
289.072 201.386 L
289.248 195.394 L
289.424 197.482 L
289.6 192.143 L
289.776 197.287 L
289.952 200.444 L
290.128 195.571 L
290.304 200.978 L
290.48 214.753 L
290.656 222.43 L
290.832 206.718 L
291.008 186.882 L
291.184 182.788 L
291.36 203.247 L
291.536 230.592 L
291.712 214.477 L
291.888 197.858 L
292.064 210.504 L
292.24 229.243 L
292.416 224.623 L
292.592 212.521 L
292.768 223.642 L
292.944 223.616 L
293.12 223.847 L
293.296 228.113 L
293.472 242.347 L
293.648 244.954 L
293.824 227.197 L
294 230.146 L
294.176 246.341 L
294.352 270.615 L
294.528 275.011 L
294.704 260.667 L
294.88 252.902 L
295.056 252.685 L
295.232 257.406 L
295.408 270.013 L
295.584 283.898 L
295.76 273.834 L
295.936 256.049 L
296.112 253.215 L
296.288 263.103 L
296.464 277.108 L
296.64 283.626 L
296.816 276.125 L
296.992 277.342 L
297.168 292.275 L
297.344 289.189 L
297.52 277.208 L
297.696 274.679 L
297.872 275.015 L
298.048 275.656 L
298.224 267.277 L
298.4 256.081 L
298.576 261.923 L
298.752 263.546 L
298.928 252.228 L
299.104 251.291 L
299.28 255.597 L
299.456 241.116 L
299.632 220.604 L
299.808 207.29 L
299.984 187.235 L
300.16 190.093 L
300.336 198.187 L
300.512 176.696 L
300.688 164.136 L
300.864 163.584 L
301.04 166.738 L
301.216 172.009 L
301.392 150.45 L
301.568 116.192 L
301.744 118.03 L
301.92 136.27 L
302.096 145.487 L
302.272 155.724 L
302.448 156.862 L
302.624 160.232 L
302.8 167.222 L
302.976 163.377 L
303.152 151.431 L
303.328 151.352 L
303.504 163.938 L
303.68 160.19 L
303.856 156.264 L
304.032 152.344 L
304.208 137.009 L
304.384 138.457 L
304.56 145.491 L
304.736 144.396 L
304.912 146.32 L
305.088 149.07 L
305.264 141.529 L
305.44 136.018 L
305.616 156.113 L
305.792 171.342 L
305.968 164.868 L
306.144 150.759 L
306.32 143.126 L
306.496 144.73 L
306.672 144.638 L
306.848 154.072 L
307.024 164.927 L
307.2 162.697 L
307.376 156.53 L
307.552 171.76 L
307.728 190.15 L
307.904 193.13 L
308.08 196.297 L
308.256 201.428 L
308.432 208.124 L
308.608 209.078 L
308.784 208.105 L
308.96 188.987 L
309.136 179.637 L
309.312 193.217 L
309.488 198.888 L
309.664 202.086 L
309.84 197.499 L
310.016 191.264 L
310.192 191.012 L
310.368 202.185 L
310.544 197.129 L
310.72 195.65 L
310.896 221.565 L
311.072 235.18 L
311.248 236.339 L
311.424 216.496 L
311.6 204.459 L
311.776 226.184 L
311.952 248.89 L
312.128 256.367 L
312.304 254.792 L
312.48 244.262 L
312.656 233.17 L
312.832 238.533 L
313.008 237.842 L
313.184 225.022 L
313.36 216.452 L
313.536 222.959 L
313.712 229.541 L
313.888 217.069 L
314.064 219.984 L
314.24 235.181 L
314.416 239.061 L
314.592 243.65 L
314.768 248.761 L
314.944 249.603 L
315.12 245.876 L
315.296 239.782 L
315.472 229.204 L
315.648 222.967 L
315.824 223.807 L
316 220.989 L
316.176 217.33 L
316.352 204.621 L
316.528 181.858 L
316.704 177.326 L
316.88 196.017 L
317.056 206.653 L
317.232 209.398 L
317.408 208.282 L
317.584 200.274 L
317.76 201.244 L
317.936 192.378 L
318.112 183.471 L
318.288 196.821 L
318.464 195.818 L
318.64 188.075 L
318.816 189.64 L
318.992 185.511 L
319.168 178.741 L
319.344 179.726 L
319.52 197.933 L
319.696 193.429 L
319.872 178.159 L
320.048 186.939 L
320.224 190.55 L
320.4 186.736 L
320.576 174.64 L
320.752 164.269 L
320.928 164.906 L
321.104 167.484 L
321.28 168.708 L
321.456 163.962 L
321.632 147.113 L
321.808 135.23 L
321.984 142.503 L
322.16 146.651 L
322.336 149.533 L
322.512 150.805 L
322.688 144.665 L
322.864 148.245 L
323.04 162.525 L
323.216 167.04 L
323.392 161.301 L
323.568 146.134 L
323.744 130.632 L
323.92 138.533 L
324.096 148.74 L
324.272 146.655 L
324.448 142.064 L
324.624 140.353 L
324.8 138.251 L
324.976 128.791 L
325.152 117.212 L
325.328 115.674 L
325.504 122.187 L
325.68 123.621 L
325.856 127.742 L
326.032 137.202 L
326.208 143.236 L
326.384 145.65 L
326.56 140.691 L
326.736 140.857 L
326.912 150.377 L
327.088 161.001 L
327.264 182.471 L
327.44 197.561 L
327.616 202.172 L
327.792 193.892 L
327.968 179.479 L
328.144 185.442 L
328.32 195.637 L
328.496 199.919 L
328.672 190.118 L
328.848 185.175 L
329.024 191.338 L
329.2 192.158 L
329.376 195.57 L
329.552 182.072 L
329.728 159.028 L
329.904 153.552 L
330.08 150.054 L
330.256 140.257 L
330.432 136.025 L
330.608 143.851 L
330.784 164.813 L
330.96 176.912 L
331.136 177.66 L
331.312 175.984 L
331.488 172.892 L
331.664 175.702 L
331.84 181.894 L
332.016 184.428 L
332.192 180.326 L
332.368 189.41 L
332.544 209.302 L
332.72 223.842 L
332.896 219.564 L
333.072 202.711 L
333.248 197.698 L
333.424 192.954 L
333.6 171.895 L
333.776 158.001 L
333.952 180.686 L
334.128 194.916 L
334.304 184.719 L
334.48 174.572 L
334.656 168.391 L
334.832 180.63 L
335.008 185.24 L
335.184 181.363 L
335.36 179.145 L
335.536 168.556 L
335.712 166.043 L
335.888 170.359 L
336.064 173 L
336.24 168.39 L
336.416 162.309 L
336.592 163.58 L
336.768 166.61 L
336.944 165.036 L
337.12 158.827 L
337.296 153.283 L
337.472 152.047 L
337.648 157.853 L
337.824 159.284 L
338 146.546 L
338.176 122.018 L
338.352 107.603 L
338.528 116.018 L
338.704 144.826 L
338.88 165.869 L
339.056 133.626 L
339.232 94.296 L
339.408 95.611 L
339.584 119.165 L
339.76 142.99 L
339.936 151.075 L
340.112 151.541 L
340.288 149.54 L
340.464 155.082 L
340.64 167.031 L
340.816 155.812 L
340.992 146.667 L
341.168 155.13 L
341.344 154.493 L
341.52 154.439 L
341.696 154.306 L
341.872 148.892 L
342.048 147.563 L
342.224 152.803 L
342.4 153.556 L
342.576 163.649 L
342.752 174.055 L
342.928 152.575 L
343.104 135.232 L
343.28 127.679 L
343.456 124.876 L
343.632 140.667 L
343.808 169.412 L
343.984 191.833 L
344.16 195.611 L
344.336 192.544 L
344.512 184.889 L
344.688 180.823 L
344.864 176.67 L
345.04 174.952 L
345.216 183.785 L
345.392 195.005 L
345.568 207.576 L
345.744 210.884 L
345.92 193.908 L
346.096 182.763 L
346.272 192.948 L
346.448 208.968 L
346.624 219.414 L
346.8 223.658 L
346.976 231.812 L
347.152 225.675 L
347.328 212.572 L
347.504 224.976 L
347.68 240.374 L
347.856 231.249 L
348.032 222.47 L
348.208 228.839 L
348.384 230.44 L
348.56 225.707 L
348.736 229.249 L
348.912 236.774 L
349.088 232.762 L
349.264 234.582 L
349.44 237.488 L
349.616 235.085 L
349.792 246.18 L
349.968 248.812 L
350.144 242.57 L
350.32 254.637 L
350.496 259.614 L
350.672 245.841 L
350.848 242.534 L
351.024 238.542 L
351.2 224.924 L
351.376 233.077 L
351.552 257.207 L
351.728 259.181 L
351.904 243.69 L
352.08 219.897 L
352.256 207.714 L
352.432 210.823 L
352.608 205.764 L
352.784 209.411 L
352.96 215.702 L
353.136 201.655 L
353.312 181.213 L
353.488 183.156 L
353.664 196.815 L
353.84 198.32 L
354.016 190.883 L
354.192 196.128 L
354.368 207.841 L
354.544 202.194 L
354.72 183.064 L
354.896 168.975 L
355.072 172.868 L
355.248 173.231 L
355.424 178.469 L
355.6 183.639 L
355.776 159.432 L
355.952 126.869 L
356.128 133.762 L
356.304 161.038 L
356.48 155.65 L
356.656 147.103 L
356.832 153.342 L
357.008 162.884 L
357.184 156.127 L
357.36 146.577 L
357.536 154.033 L
357.712 153.901 L
357.888 158.919 L
358.064 167.325 L
358.24 166.388 L
358.416 161.168 L
358.592 158.382 L
358.768 169.365 L
358.944 169.89 L
359.12 157.453 L
359.296 144.841 L
359.472 134.69 L
359.648 140.4 L
359.824 145.161 L
360 156.874 L
360.176 159.068 L
360.352 144.613 L
360.528 137.358 L
360.704 129.321 L
360.88 139.377 L
361.056 142.404 L
361.232 127.41 L
361.408 123.405 L
361.584 127.112 L
361.76 121.893 L
361.936 111.574 L
362.112 116.562 L
362.288 132.661 L
362.464 144.229 L
362.64 140.853 L
362.816 131.179 L
362.992 129.037 L
363.168 133.788 L
363.344 138.3 L
363.52 149.045 L
363.696 153.341 L
363.872 165.857 L
364.048 195.221 L
364.224 202.964 L
364.4 207.963 L
364.576 234.91 L
364.752 262.785 L
364.928 271.981 L
365.104 264.13 L
365.28 248.38 L
365.456 255.798 L
365.632 280.005 L
365.808 293.324 L
365.984 288.792 L
366.16 267.389 L
366.336 255.954 L
366.512 252.036 L
366.688 256.778 L
366.864 272.07 L
367.04 273.655 L
367.216 256.931 L
367.392 242.639 L
367.568 234.661 L
367.744 226.829 L
367.92 221.603 L
368.096 216.884 L
368.272 210.153 L
368.448 207.965 L
368.624 217.532 L
368.8 218.716 L
368.976 217.783 L
369.152 219.835 L
369.328 219.789 L
369.504 218.567 L
369.68 211.463 L
369.856 224.009 L
370.032 236.241 L
370.208 223.533 L
370.384 208.214 L
370.56 202.886 L
370.736 208.882 L
370.912 207.411 L
371.088 208.907 L
371.264 221.49 L
371.44 223.887 L
371.616 218.524 L
371.792 207.933 L
371.968 206.226 L
372.144 200.743 L
372.32 184.543 L
372.496 177.043 L
372.672 174.749 L
372.848 176.406 L
373.024 178.058 L
373.2 183.229 L
373.376 187.671 L
373.552 188.718 L
373.728 179.878 L
373.904 173.121 L
374.08 181.177 L
374.256 180.05 L
374.432 170.82 L
374.608 169.377 L
374.784 171.851 L
374.96 166.625 L
375.136 170.309 L
375.312 174.38 L
375.488 166.12 L
375.664 169.364 L
375.84 179.55 L
376.016 181.601 L
376.192 182.669 L
376.368 192.369 L
376.544 205.796 L
376.72 218.244 L
376.896 222.923 L
377.072 219.626 L
377.248 231.761 L
377.424 250.798 L
377.6 247.831 L
377.776 243.989 L
377.952 251.523 L
378.128 259.867 L
378.304 266.726 L
378.48 280.647 L
378.656 286.668 L
378.832 275.985 L
379.008 293.396 L
379.184 318.016 L
379.36 313.349 L
379.536 295.384 L
379.712 290.142 L
379.888 296.627 L
380.064 285.037 L
380.24 264.34 L
380.416 265.489 L
380.592 281.684 L
380.768 268.078 L
380.944 244.33 L
381.12 264.327 L
381.296 287.188 L
381.472 272.426 L
381.648 261.998 L
381.824 257.366 L
382 238.595 L
382.176 224.298 L
382.352 219.375 L
382.528 211.568 L
382.704 205.902 L
382.88 211.877 L
383.056 223.138 L
383.232 245.793 L
383.408 247.386 L
383.584 236.284 L
383.76 241.628 L
383.936 239.909 L
384.112 226.688 L
384.288 211.552 L
384.464 220.373 L
384.64 229.223 L
384.816 222.058 L
384.992 213.023 L
385.168 209.715 L
385.344 214.928 L
385.52 207.124 L
385.696 195.833 L
385.872 193.628 L
386.048 193.229 L
386.224 186.117 L
386.4 191.919 L
386.576 201.988 L
386.752 196.805 L
386.928 189.996 L
387.104 182.862 L
387.28 191.301 L
387.456 210.827 L
387.632 227.054 L
387.808 230.43 L
387.984 229.716 L
388.16 248.43 L
388.336 267.806 L
388.512 276.56 L
388.688 281.162 L
388.864 286.59 L
389.04 295.528 L
389.216 296.959 L
389.392 291.539 L
389.568 280.242 L
389.744 258.832 L
389.92 252.963 L
390.096 262.685 L
390.272 263.809 L
390.448 262.164 L
390.624 251.253 L
390.8 239.689 L
390.976 244.776 L
391.152 243.974 L
391.328 236.728 L
391.504 255.605 L
391.68 277.808 L
391.856 268.767 L
392.032 261.487 L
392.208 257.169 L
392.384 256.11 L
392.56 273.244 L
392.736 284.006 L
392.912 292.363 L
393.088 291.161 L
393.264 281.728 L
393.44 269.291 L
393.616 246.096 L
393.792 228.991 L
393.968 213.919 L
394.144 201.709 L
394.32 196.643 L
394.496 202.669 L
394.672 201.54 L
394.848 179.697 L
395.024 163.106 L
395.2 152.05 L
395.376 142.407 L
395.552 132.349 L
395.728 108.078 L
395.904 81.253 L
396.08 93.928 L
396.256 125.515 L
396.432 132.893 L
396.608 130.174 L
396.784 125.517 L
396.96 122.188 L
397.136 126.98 L
397.312 138.765 L
397.488 138.725 L
397.664 120.357 L
397.84 101.96 L
398.016 101.809 L
398.192 124.205 L
398.368 140.827 L
398.544 134.773 L
398.72 125.954 L
398.896 127.047 L
399.072 130.241 L
399.248 128.527 L
399.424 117.431 L
399.6 105.251 L
399.776 104.056 L
399.952 116.123 L
400.128 128.52 L
400.304 142.389 L
400.48 150.856 L
400.656 144.11 L
400.832 154.451 L
401.008 178.459 L
401.184 189.483 L
401.36 176.217 L
401.536 172.445 L
401.712 182.554 L
401.888 161.927 L
402.064 149.432 L
402.24 157.09 L
402.416 154.298 L
402.592 146.797 L
402.768 137.792 L
402.944 134.949 L
403.12 130.27 L
403.296 128.851 L
403.472 150.847 L
403.648 170.496 L
403.824 179.127 L
404 185.435 L
404.176 181.266 L
404.352 177.389 L
404.528 188.486 L
404.704 196.293 L
404.88 181.759 L
405.056 179.29 L
405.232 182.593 L
405.408 159.192 L
405.584 147.314 L
405.76 162.217 L
405.936 173.852 L
406.112 177.188 L
406.288 176.526 L
406.464 188.738 L
406.64 210.227 L
406.816 206.898 L
406.992 189.397 L
407.168 176.461 L
407.344 176.114 L
407.52 182.078 L
407.696 178.068 L
407.872 164.948 L
408.048 158.392 L
408.224 163.032 L
408.4 160.88 L
408.576 160.715 L
408.752 159.035 L
408.928 143.82 L
409.104 137.665 L
409.28 151.572 L
409.456 164.537 L
409.632 176.392 L
409.808 193.64 L
409.984 196.719 L
410.16 197.247 L
410.336 211.068 L
410.512 218.197 L
410.688 217.466 L
410.864 226.531 L
411.04 239.433 L
411.216 250.647 L
411.392 263.993 L
411.568 270.957 L
411.744 262.423 L
411.92 259.467 L
412.096 260.092 L
412.272 250.217 L
412.448 244.623 L
412.624 243.24 L
412.8 248.887 L
412.976 251.456 L
413.152 244.291 L
413.328 234.668 L
413.504 225.141 L
413.68 217.557 L
413.856 218.794 L
414.032 225.269 L
414.208 235.026 L
414.384 248.932 L
414.56 245.189 L
414.736 244.764 L
414.912 243.691 L
415.088 233.999 L
415.264 234.335 L
415.44 226.477 L
415.616 219.48 L
415.792 222.951 L
415.968 228.758 L
416.144 236.588 L
416.32 229.522 L
416.496 206.814 L
416.672 198.76 L
416.848 196.13 L
417.024 186.137 L
417.2 184.62 L
417.376 192.197 L
417.552 195.187 L
417.728 192.998 L
417.904 206.159 L
418.08 223.063 L
418.256 220.466 L
418.432 206.676 L
418.608 201.3 L
418.784 214.941 L
418.96 231.982 L
419.136 241.684 L
419.312 252.924 L
419.488 255.012 L
419.664 258.202 L
419.84 271.382 L
420.016 264.836 L
420.192 243.827 L
420.368 234.382 L
420.544 232.047 L
420.72 232.013 L
420.896 233.44 L
421.072 221.404 L
421.248 208.419 L
421.424 198.889 L
421.6 185.323 L
421.776 166.471 L
421.952 156.902 L
422.128 166.643 L
422.304 154.306 L
422.48 125.992 L
422.656 122.183 L
422.832 145.695 L
423.008 162.758 L
423.184 162.693 L
423.36 164.667 L
423.536 167.513 L
423.712 173.776 L
423.888 179.969 L
424.064 189.855 L
424.24 204.074 L
424.416 204.713 L
424.592 211.291 L
424.768 220.559 L
424.944 199.391 L
425.12 192.607 L
425.296 208.312 L
425.472 213.211 L
425.648 214.53 L
425.824 212.899 L
426 202.072 L
426.176 186.813 L
426.352 180.526 L
426.528 169.402 L
426.704 169.833 L
426.88 178.744 L
427.056 167.252 L
427.232 145.062 L
427.408 135.621 L
427.584 138.368 L
427.76 134.728 L
427.936 144.727 L
428.112 153.494 L
428.288 158.677 L
428.464 165.963 L
428.64 167.025 L
428.816 166.426 L
428.992 166.823 L
429.168 179.406 L
429.344 176.518 L
429.52 163.056 L
429.696 160.348 L
429.872 170.479 L
430.048 173.714 L
430.224 160.191 L
430.4 157.711 L
430.576 162.491 L
430.752 166.392 L
430.928 171.225 L
431.104 173.814 L
431.28 166.591 L
431.456 166.7 L
431.632 177.782 L
431.808 189.867 L
431.984 201.105 L
432.16 199.018 L
432.336 193.879 L
432.512 198.018 L
432.688 212.938 L
432.864 214.434 L
433.04 205.287 L
433.216 205.557 L
433.392 207.826 L
433.568 209.718 L
433.744 204.876 L
433.92 208.735 L
434.096 222.531 L
434.272 226.797 L
434.448 226.544 L
S
GR
%%Trailer
%%Pages: 1
%%EOF
