%!PS-Adobe-3.0 EPSF-3.0
%%Creator: (MATLAB, The Mathworks, Inc. Version 9.2.0.538062 \(R2017a\). Operating System: Linux)
%%Title: /home/chris/Storage/christina/Desktop/THMMY/????????/Project/authMultimediaAssignment2018/tex/figures/difference.eps
%%CreationDate: 2019-02-17T20:42:50
%%Pages: (atend)
%%BoundingBox: 0 0 420 315
%%LanguageLevel: 3
%%EndComments
%%BeginProlog
%%BeginResource: procset (Apache XML Graphics Std ProcSet) 1.2 0
%%Version: 1.2 0
%%Copyright: (Copyright 2001-2003,2010 The Apache Software Foundation. License terms: http://www.apache.org/licenses/LICENSE-2.0)
/bd{bind def}bind def
/ld{load def}bd
/GR/grestore ld
/M/moveto ld
/LJ/setlinejoin ld
/C/curveto ld
/f/fill ld
/LW/setlinewidth ld
/GC/setgray ld
/t/show ld
/N/newpath ld
/CT/concat ld
/cp/closepath ld
/S/stroke ld
/L/lineto ld
/CC/setcmykcolor ld
/A/ashow ld
/GS/gsave ld
/RC/setrgbcolor ld
/RM/rmoveto ld
/ML/setmiterlimit ld
/re {4 2 roll M
1 index 0 rlineto
0 exch rlineto
neg 0 rlineto
cp } bd
/_ctm matrix def
/_tm matrix def
/BT { _ctm currentmatrix pop matrix _tm copy pop 0 0 moveto } bd
/ET { _ctm setmatrix } bd
/iTm { _ctm setmatrix _tm concat } bd
/Tm { _tm astore pop iTm 0 0 moveto } bd
/ux 0.0 def
/uy 0.0 def
/F {
  /Tp exch def
  /Tf exch def
  Tf findfont Tp scalefont setfont
  /cf Tf def  /cs Tp def
} bd
/ULS {currentpoint /uy exch def /ux exch def} bd
/ULE {
  /Tcx currentpoint pop def
  gsave
  newpath
  cf findfont cs scalefont dup
  /FontMatrix get 0 get /Ts exch def /FontInfo get dup
  /UnderlinePosition get Ts mul /To exch def
  /UnderlineThickness get Ts mul /Tt exch def
  ux uy To add moveto  Tcx uy To add lineto
  Tt setlinewidth stroke
  grestore
} bd
/OLE {
  /Tcx currentpoint pop def
  gsave
  newpath
  cf findfont cs scalefont dup
  /FontMatrix get 0 get /Ts exch def /FontInfo get dup
  /UnderlinePosition get Ts mul /To exch def
  /UnderlineThickness get Ts mul /Tt exch def
  ux uy To add cs add moveto Tcx uy To add cs add lineto
  Tt setlinewidth stroke
  grestore
} bd
/SOE {
  /Tcx currentpoint pop def
  gsave
  newpath
  cf findfont cs scalefont dup
  /FontMatrix get 0 get /Ts exch def /FontInfo get dup
  /UnderlinePosition get Ts mul /To exch def
  /UnderlineThickness get Ts mul /Tt exch def
  ux uy To add cs 10 mul 26 idiv add moveto Tcx uy To add cs 10 mul 26 idiv add lineto
  Tt setlinewidth stroke
  grestore
} bd
/QT {
/Y22 exch store
/X22 exch store
/Y21 exch store
/X21 exch store
currentpoint
/Y21 load 2 mul add 3 div exch
/X21 load 2 mul add 3 div exch
/X21 load 2 mul /X22 load add 3 div
/Y21 load 2 mul /Y22 load add 3 div
/X22 load /Y22 load curveto
} bd
/SSPD {
dup length /d exch dict def
{
/v exch def
/k exch def
currentpagedevice k known {
/cpdv currentpagedevice k get def
v cpdv ne {
/upd false def
/nullv v type /nulltype eq def
/nullcpdv cpdv type /nulltype eq def
nullv nullcpdv or
{
/upd true def
} {
/sametype v type cpdv type eq def
sametype {
v type /arraytype eq {
/vlen v length def
/cpdvlen cpdv length def
vlen cpdvlen eq {
0 1 vlen 1 sub {
/i exch def
/obj v i get def
/cpdobj cpdv i get def
obj cpdobj ne {
/upd true def
exit
} if
} for
} {
/upd true def
} ifelse
} {
v type /dicttype eq {
v {
/dv exch def
/dk exch def
/cpddv cpdv dk get def
dv cpddv ne {
/upd true def
exit
} if
} forall
} {
/upd true def
} ifelse
} ifelse
} if
} ifelse
upd true eq {
d k v put
} if
} if
} if
} forall
d length 0 gt {
d setpagedevice
} if
} bd
/RE { % /NewFontName [NewEncodingArray] /FontName RE -
  findfont dup length dict begin
  {
    1 index /FID ne
    {def} {pop pop} ifelse
  } forall
  /Encoding exch def
  /FontName 1 index def
  currentdict definefont pop
  end
} bind def
%%EndResource
%%BeginResource: procset (Apache XML Graphics EPS ProcSet) 1.0 0
%%Version: 1.0 0
%%Copyright: (Copyright 2002-2003 The Apache Software Foundation. License terms: http://www.apache.org/licenses/LICENSE-2.0)
/BeginEPSF { %def
/b4_Inc_state save def         % Save state for cleanup
/dict_count countdictstack def % Count objects on dict stack
/op_count count 1 sub def      % Count objects on operand stack
userdict begin                 % Push userdict on dict stack
/showpage { } def              % Redefine showpage, { } = null proc
0 setgray 0 setlinecap         % Prepare graphics state
1 setlinewidth 0 setlinejoin
10 setmiterlimit [ ] 0 setdash newpath
/languagelevel where           % If level not equal to 1 then
{pop languagelevel             % set strokeadjust and
1 ne                           % overprint to their defaults.
{false setstrokeadjust false setoverprint
} if
} if
} bd
/EndEPSF { %def
count op_count sub {pop} repeat            % Clean up stacks
countdictstack dict_count sub {end} repeat
b4_Inc_state restore
} bd
%%EndResource
%FOPBeginFontDict
%%IncludeResource: font Courier-Bold
%%IncludeResource: font Helvetica
%%IncludeResource: font Courier-BoldOblique
%%IncludeResource: font Courier-Oblique
%%IncludeResource: font Times-Roman
%%IncludeResource: font Helvetica-BoldOblique
%%IncludeResource: font Helvetica-Bold
%%IncludeResource: font Helvetica-Oblique
%%IncludeResource: font Times-BoldItalic
%%IncludeResource: font Courier
%%IncludeResource: font Times-Italic
%%IncludeResource: font Times-Bold
%%IncludeResource: font Symbol
%%IncludeResource: font ZapfDingbats
%FOPEndFontDict
%%BeginResource: encoding WinAnsiEncoding
/WinAnsiEncoding [
/.notdef /.notdef /.notdef /.notdef /.notdef
/.notdef /.notdef /.notdef /.notdef /.notdef
/.notdef /.notdef /.notdef /.notdef /.notdef
/.notdef /.notdef /.notdef /.notdef /.notdef
/.notdef /.notdef /.notdef /.notdef /.notdef
/.notdef /.notdef /.notdef /.notdef /.notdef
/.notdef /.notdef /space /exclam /quotedbl
/numbersign /dollar /percent /ampersand /quotesingle
/parenleft /parenright /asterisk /plus /comma
/hyphen /period /slash /zero /one
/two /three /four /five /six
/seven /eight /nine /colon /semicolon
/less /equal /greater /question /at
/A /B /C /D /E
/F /G /H /I /J
/K /L /M /N /O
/P /Q /R /S /T
/U /V /W /X /Y
/Z /bracketleft /backslash /bracketright /asciicircum
/underscore /quoteleft /a /b /c
/d /e /f /g /h
/i /j /k /l /m
/n /o /p /q /r
/s /t /u /v /w
/x /y /z /braceleft /bar
/braceright /asciitilde /bullet /Euro /bullet
/quotesinglbase /florin /quotedblbase /ellipsis /dagger
/daggerdbl /circumflex /perthousand /Scaron /guilsinglleft
/OE /bullet /Zcaron /bullet /bullet
/quoteleft /quoteright /quotedblleft /quotedblright /bullet
/endash /emdash /asciitilde /trademark /scaron
/guilsinglright /oe /bullet /zcaron /Ydieresis
/space /exclamdown /cent /sterling /currency
/yen /brokenbar /section /dieresis /copyright
/ordfeminine /guillemotleft /logicalnot /sfthyphen /registered
/macron /degree /plusminus /twosuperior /threesuperior
/acute /mu /paragraph /middot /cedilla
/onesuperior /ordmasculine /guillemotright /onequarter /onehalf
/threequarters /questiondown /Agrave /Aacute /Acircumflex
/Atilde /Adieresis /Aring /AE /Ccedilla
/Egrave /Eacute /Ecircumflex /Edieresis /Igrave
/Iacute /Icircumflex /Idieresis /Eth /Ntilde
/Ograve /Oacute /Ocircumflex /Otilde /Odieresis
/multiply /Oslash /Ugrave /Uacute /Ucircumflex
/Udieresis /Yacute /Thorn /germandbls /agrave
/aacute /acircumflex /atilde /adieresis /aring
/ae /ccedilla /egrave /eacute /ecircumflex
/edieresis /igrave /iacute /icircumflex /idieresis
/eth /ntilde /ograve /oacute /ocircumflex
/otilde /odieresis /divide /oslash /ugrave
/uacute /ucircumflex /udieresis /yacute /thorn
/ydieresis
] def
%%EndResource
%FOPBeginFontReencode
/Courier-Bold findfont
dup length dict begin
  {1 index /FID ne {def} {pop pop} ifelse} forall
  /Encoding WinAnsiEncoding def
  currentdict
end
/Courier-Bold exch definefont pop
/Helvetica findfont
dup length dict begin
  {1 index /FID ne {def} {pop pop} ifelse} forall
  /Encoding WinAnsiEncoding def
  currentdict
end
/Helvetica exch definefont pop
/Courier-BoldOblique findfont
dup length dict begin
  {1 index /FID ne {def} {pop pop} ifelse} forall
  /Encoding WinAnsiEncoding def
  currentdict
end
/Courier-BoldOblique exch definefont pop
/Courier-Oblique findfont
dup length dict begin
  {1 index /FID ne {def} {pop pop} ifelse} forall
  /Encoding WinAnsiEncoding def
  currentdict
end
/Courier-Oblique exch definefont pop
/Times-Roman findfont
dup length dict begin
  {1 index /FID ne {def} {pop pop} ifelse} forall
  /Encoding WinAnsiEncoding def
  currentdict
end
/Times-Roman exch definefont pop
/Helvetica-BoldOblique findfont
dup length dict begin
  {1 index /FID ne {def} {pop pop} ifelse} forall
  /Encoding WinAnsiEncoding def
  currentdict
end
/Helvetica-BoldOblique exch definefont pop
/Helvetica-Bold findfont
dup length dict begin
  {1 index /FID ne {def} {pop pop} ifelse} forall
  /Encoding WinAnsiEncoding def
  currentdict
end
/Helvetica-Bold exch definefont pop
/Helvetica-Oblique findfont
dup length dict begin
  {1 index /FID ne {def} {pop pop} ifelse} forall
  /Encoding WinAnsiEncoding def
  currentdict
end
/Helvetica-Oblique exch definefont pop
/Times-BoldItalic findfont
dup length dict begin
  {1 index /FID ne {def} {pop pop} ifelse} forall
  /Encoding WinAnsiEncoding def
  currentdict
end
/Times-BoldItalic exch definefont pop
/Courier findfont
dup length dict begin
  {1 index /FID ne {def} {pop pop} ifelse} forall
  /Encoding WinAnsiEncoding def
  currentdict
end
/Courier exch definefont pop
/Times-Italic findfont
dup length dict begin
  {1 index /FID ne {def} {pop pop} ifelse} forall
  /Encoding WinAnsiEncoding def
  currentdict
end
/Times-Italic exch definefont pop
/Times-Bold findfont
dup length dict begin
  {1 index /FID ne {def} {pop pop} ifelse} forall
  /Encoding WinAnsiEncoding def
  currentdict
end
/Times-Bold exch definefont pop
%FOPEndFontReencode
%%EndProlog
%%Page: 1 1
%%PageBoundingBox: 0 0 420 315
%%BeginPageSetup
[1 0 0 -1 0 315] CT
%%EndPageSetup
GS
[0.75 0 0 0.75 0 0] CT
1 GC
N
0 0 560 420 re
f
GR
GS
[0.75 0 0 0.75 0 0] CT
1 GC
N
0 0 560 420 re
f
GR
GS
[0.75 0 0 0.75 0 0] CT
1 GC
N
73 374 M
507 374 L
507 31 L
73 31 L
cp
f
GR
GS
[0.75 0 0 0.75 0 0] CT
0.149 GC
2 setlinecap
1 LJ
0.667 LW
N
73 374 M
507 374 L
S
GR
GS
[0.75 0 0 0.75 0 0] CT
0.149 GC
2 setlinecap
1 LJ
0.667 LW
N
73 31 M
507 31 L
S
GR
GS
[0.75 0 0 0.75 0 0] CT
0.149 GC
2 setlinecap
1 LJ
0.667 LW
N
73 374 M
73 369.66 L
S
GR
GS
[0.75 0 0 0.75 0 0] CT
0.149 GC
2 setlinecap
1 LJ
0.667 LW
N
159.8 374 M
159.8 369.66 L
S
GR
GS
[0.75 0 0 0.75 0 0] CT
0.149 GC
2 setlinecap
1 LJ
0.667 LW
N
246.6 374 M
246.6 369.66 L
S
GR
GS
[0.75 0 0 0.75 0 0] CT
0.149 GC
2 setlinecap
1 LJ
0.667 LW
N
333.4 374 M
333.4 369.66 L
S
GR
GS
[0.75 0 0 0.75 0 0] CT
0.149 GC
2 setlinecap
1 LJ
0.667 LW
N
420.2 374 M
420.2 369.66 L
S
GR
GS
[0.75 0 0 0.75 0 0] CT
0.149 GC
2 setlinecap
1 LJ
0.667 LW
N
507 374 M
507 369.66 L
S
GR
GS
[0.75 0 0 0.75 0 0] CT
0.149 GC
2 setlinecap
1 LJ
0.667 LW
N
73 31 M
73 35.34 L
S
GR
GS
[0.75 0 0 0.75 0 0] CT
0.149 GC
2 setlinecap
1 LJ
0.667 LW
N
159.8 31 M
159.8 35.34 L
S
GR
GS
[0.75 0 0 0.75 0 0] CT
0.149 GC
2 setlinecap
1 LJ
0.667 LW
N
246.6 31 M
246.6 35.34 L
S
GR
GS
[0.75 0 0 0.75 0 0] CT
0.149 GC
2 setlinecap
1 LJ
0.667 LW
N
333.4 31 M
333.4 35.34 L
S
GR
GS
[0.75 0 0 0.75 0 0] CT
0.149 GC
2 setlinecap
1 LJ
0.667 LW
N
420.2 31 M
420.2 35.34 L
S
GR
GS
[0.75 0 0 0.75 0 0] CT
0.149 GC
2 setlinecap
1 LJ
0.667 LW
N
507 31 M
507 35.34 L
S
GR
GS
[0.75 0 0 0.75 54.75 284.50001] CT
0.149 GC
/Helvetica 13.333 F
GS
[1 0 0 1 0 0] CT
-4.5 13 moveto 
1 -1 scale
(0) t 
GR
GR
GS
[0.75 0 0 0.75 119.85 284.50001] CT
0.149 GC
/Helvetica 13.333 F
GS
[1 0 0 1 0 0] CT
-12.5 13 moveto 
1 -1 scale
(500) t 
GR
GR
GS
[0.75 0 0 0.75 184.95 284.50001] CT
0.149 GC
/Helvetica 13.333 F
GS
[1 0 0 1 0 0] CT
-17 13 moveto 
1 -1 scale
(1000) t 
GR
GR
GS
[0.75 0 0 0.75 250.05 284.50001] CT
0.149 GC
/Helvetica 13.333 F
GS
[1 0 0 1 0 0] CT
-17 13 moveto 
1 -1 scale
(1500) t 
GR
GR
GS
[0.75 0 0 0.75 315.15001 284.50001] CT
0.149 GC
/Helvetica 13.333 F
GS
[1 0 0 1 0 0] CT
-17 13 moveto 
1 -1 scale
(2000) t 
GR
GR
GS
[0.75 0 0 0.75 380.25 284.50001] CT
0.149 GC
/Helvetica 13.333 F
GS
[1 0 0 1 0 0] CT
-17 13 moveto 
1 -1 scale
(2500) t 
GR
GR
GS
[0.75 0 0 0.75 0 0] CT
0.149 GC
2 setlinecap
1 LJ
0.667 LW
N
73 374 M
73 31 L
S
GR
GS
[0.75 0 0 0.75 0 0] CT
0.149 GC
2 setlinecap
1 LJ
0.667 LW
N
507 374 M
507 31 L
S
GR
GS
[0.75 0 0 0.75 0 0] CT
0.149 GC
2 setlinecap
1 LJ
0.667 LW
N
73 374 M
77.34 374 L
S
GR
GS
[0.75 0 0 0.75 0 0] CT
0.149 GC
2 setlinecap
1 LJ
0.667 LW
N
73 339.7 M
77.34 339.7 L
S
GR
GS
[0.75 0 0 0.75 0 0] CT
0.149 GC
2 setlinecap
1 LJ
0.667 LW
N
73 305.4 M
77.34 305.4 L
S
GR
GS
[0.75 0 0 0.75 0 0] CT
0.149 GC
2 setlinecap
1 LJ
0.667 LW
N
73 271.1 M
77.34 271.1 L
S
GR
GS
[0.75 0 0 0.75 0 0] CT
0.149 GC
2 setlinecap
1 LJ
0.667 LW
N
73 236.8 M
77.34 236.8 L
S
GR
GS
[0.75 0 0 0.75 0 0] CT
0.149 GC
2 setlinecap
1 LJ
0.667 LW
N
73 202.5 M
77.34 202.5 L
S
GR
GS
[0.75 0 0 0.75 0 0] CT
0.149 GC
2 setlinecap
1 LJ
0.667 LW
N
73 168.2 M
77.34 168.2 L
S
GR
GS
[0.75 0 0 0.75 0 0] CT
0.149 GC
2 setlinecap
1 LJ
0.667 LW
N
73 133.9 M
77.34 133.9 L
S
GR
GS
[0.75 0 0 0.75 0 0] CT
0.149 GC
2 setlinecap
1 LJ
0.667 LW
N
73 99.6 M
77.34 99.6 L
S
GR
GS
[0.75 0 0 0.75 0 0] CT
0.149 GC
2 setlinecap
1 LJ
0.667 LW
N
73 65.3 M
77.34 65.3 L
S
GR
GS
[0.75 0 0 0.75 0 0] CT
0.149 GC
2 setlinecap
1 LJ
0.667 LW
N
73 31 M
77.34 31 L
S
GR
GS
[0.75 0 0 0.75 0 0] CT
0.149 GC
2 setlinecap
1 LJ
0.667 LW
N
507 374 M
502.66 374 L
S
GR
GS
[0.75 0 0 0.75 0 0] CT
0.149 GC
2 setlinecap
1 LJ
0.667 LW
N
507 339.7 M
502.66 339.7 L
S
GR
GS
[0.75 0 0 0.75 0 0] CT
0.149 GC
2 setlinecap
1 LJ
0.667 LW
N
507 305.4 M
502.66 305.4 L
S
GR
GS
[0.75 0 0 0.75 0 0] CT
0.149 GC
2 setlinecap
1 LJ
0.667 LW
N
507 271.1 M
502.66 271.1 L
S
GR
GS
[0.75 0 0 0.75 0 0] CT
0.149 GC
2 setlinecap
1 LJ
0.667 LW
N
507 236.8 M
502.66 236.8 L
S
GR
GS
[0.75 0 0 0.75 0 0] CT
0.149 GC
2 setlinecap
1 LJ
0.667 LW
N
507 202.5 M
502.66 202.5 L
S
GR
GS
[0.75 0 0 0.75 0 0] CT
0.149 GC
2 setlinecap
1 LJ
0.667 LW
N
507 168.2 M
502.66 168.2 L
S
GR
GS
[0.75 0 0 0.75 0 0] CT
0.149 GC
2 setlinecap
1 LJ
0.667 LW
N
507 133.9 M
502.66 133.9 L
S
GR
GS
[0.75 0 0 0.75 0 0] CT
0.149 GC
2 setlinecap
1 LJ
0.667 LW
N
507 99.6 M
502.66 99.6 L
S
GR
GS
[0.75 0 0 0.75 0 0] CT
0.149 GC
2 setlinecap
1 LJ
0.667 LW
N
507 65.3 M
502.66 65.3 L
S
GR
GS
[0.75 0 0 0.75 0 0] CT
0.149 GC
2 setlinecap
1 LJ
0.667 LW
N
507 31 M
502.66 31 L
S
GR
GS
[0.75 0 0 0.75 50.75 280.5] CT
0.149 GC
/Helvetica 13.333 F
GS
[1 0 0 1 0 0] CT
-34 4.5 moveto 
1 -1 scale
(-0.25) t 
GR
GR
GS
[0.75 0 0 0.75 50.75 254.77501] CT
0.149 GC
/Helvetica 13.333 F
GS
[1 0 0 1 0 0] CT
-26 4.5 moveto 
1 -1 scale
(-0.2) t 
GR
GR
GS
[0.75 0 0 0.75 50.75 229.05] CT
0.149 GC
/Helvetica 13.333 F
GS
[1 0 0 1 0 0] CT
-34 4.5 moveto 
1 -1 scale
(-0.15) t 
GR
GR
GS
[0.75 0 0 0.75 50.75 203.325] CT
0.149 GC
/Helvetica 13.333 F
GS
[1 0 0 1 0 0] CT
-26 4.5 moveto 
1 -1 scale
(-0.1) t 
GR
GR
GS
[0.75 0 0 0.75 50.75 177.6] CT
0.149 GC
/Helvetica 13.333 F
GS
[1 0 0 1 0 0] CT
-34 4.5 moveto 
1 -1 scale
(-0.05) t 
GR
GR
GS
[0.75 0 0 0.75 50.75 151.875] CT
0.149 GC
/Helvetica 13.333 F
GS
[1 0 0 1 0 0] CT
-9 4.5 moveto 
1 -1 scale
(0) t 
GR
GR
GS
[0.75 0 0 0.75 50.75 126.15] CT
0.149 GC
/Helvetica 13.333 F
GS
[1 0 0 1 0 0] CT
-29 4.5 moveto 
1 -1 scale
(0.05) t 
GR
GR
GS
[0.75 0 0 0.75 50.75 100.425] CT
0.149 GC
/Helvetica 13.333 F
GS
[1 0 0 1 0 0] CT
-21 4.5 moveto 
1 -1 scale
(0.1) t 
GR
GR
GS
[0.75 0 0 0.75 50.75 74.7] CT
0.149 GC
/Helvetica 13.333 F
GS
[1 0 0 1 0 0] CT
-29 4.5 moveto 
1 -1 scale
(0.15) t 
GR
GR
GS
[0.75 0 0 0.75 50.75 48.975] CT
0.149 GC
/Helvetica 13.333 F
GS
[1 0 0 1 0 0] CT
-21 4.5 moveto 
1 -1 scale
(0.2) t 
GR
GR
GS
[0.75 0 0 0.75 50.75 23.25] CT
0.149 GC
/Helvetica 13.333 F
GS
[1 0 0 1 0 0] CT
-29 4.5 moveto 
1 -1 scale
(0.25) t 
GR
GR
GS
[0.75 0 0 0.75 0 0] CT
0 0.447 0.741 RC
1 LJ
0.667 LW
N
73.174 209.899 M
73.347 210.211 L
73.521 212.732 L
73.694 213.411 L
73.868 231.354 L
74.042 218.251 L
74.215 205.333 L
74.389 221.072 L
74.562 207.45 L
74.736 224.762 L
74.91 247.328 L
75.083 255.82 L
75.257 253.358 L
75.43 264.369 L
75.604 277.51 L
75.778 279.916 L
75.951 288.132 L
76.125 283.816 L
76.298 260.118 L
76.472 272.193 L
76.646 294.936 L
76.819 292.461 L
76.993 294.437 L
77.166 277.785 L
77.34 285.668 L
77.514 281.705 L
77.687 284.633 L
77.861 277.594 L
78.034 266.954 L
78.208 266.28 L
78.382 258.83 L
78.555 256.476 L
78.729 230.414 L
78.902 213.745 L
79.076 203.95 L
79.25 208.511 L
79.423 191.198 L
79.597 181.981 L
79.77 184.926 L
79.944 163.399 L
80.118 129.08 L
80.291 110.034 L
80.465 97.227 L
80.638 88.971 L
80.812 90.901 L
80.986 99.185 L
81.159 113.246 L
81.333 121.471 L
81.506 132.264 L
81.68 104.45 L
81.854 124.72 L
82.027 147.468 L
82.201 144.947 L
82.374 151.389 L
82.548 131.28 L
82.722 113.65 L
82.895 89.024 L
83.069 88.932 L
83.242 117.199 L
83.416 126.417 L
83.59 117.115 L
83.763 124.676 L
83.937 86.39 L
84.11 51.839 L
84.284 81.807 L
84.458 100.56 L
84.631 90.457 L
84.805 96.8 L
84.978 116.66 L
85.152 141.165 L
85.326 143.009 L
85.499 94.271 L
85.673 76.244 L
85.846 75.341 L
86.02 65.743 L
86.194 65.884 L
86.367 81.276 L
86.541 73.205 L
86.714 45.881 L
86.888 51.58 L
87.062 68.536 L
87.235 70.399 L
87.409 52.864 L
87.582 48.634 L
87.756 87.155 L
87.93 104.756 L
88.103 105.927 L
88.277 135.821 L
88.45 121.761 L
88.624 112.415 L
88.798 127.9 L
88.971 169.381 L
89.145 196.028 L
89.318 172.444 L
89.492 168.605 L
89.666 173.61 L
89.839 202.984 L
90.013 213.949 L
90.186 211.454 L
90.36 211.251 L
90.534 224.268 L
90.707 266.843 L
90.881 292.842 L
91.054 296.51 L
91.228 284.625 L
91.402 285.592 L
91.575 311.049 L
91.749 336.187 L
91.922 327.905 L
92.096 297.667 L
92.27 290.21 L
92.443 304.401 L
92.617 311.041 L
92.79 304.392 L
92.964 275.725 L
93.138 275.858 L
93.311 296.649 L
93.485 313.655 L
93.658 320.366 L
93.832 284.267 L
94.006 275.64 L
94.179 276.575 L
94.353 272.926 L
94.526 273.659 L
94.7 283.246 L
94.874 286.87 L
95.047 279.599 L
95.221 310.349 L
95.394 311.879 L
95.568 288.068 L
95.742 282.626 L
95.915 304.11 L
96.089 322.655 L
96.262 328.248 L
96.436 334.573 L
96.61 348.556 L
96.783 365.359 L
96.957 353.841 L
97.13 354.807 L
97.304 333.915 L
97.478 337.435 L
97.651 360.845 L
97.825 339.789 L
97.998 315.064 L
98.172 284.483 L
98.346 271.622 L
98.519 273.358 L
98.693 264.881 L
98.866 235.631 L
99.04 238.235 L
99.214 249.252 L
99.387 242.878 L
99.561 239.034 L
99.734 251.121 L
99.908 272.466 L
100.082 270.33 L
100.255 281.49 L
100.429 272.162 L
100.602 266.864 L
100.776 264.881 L
100.95 248.336 L
101.123 244.091 L
101.297 239.48 L
101.47 237.028 L
101.644 255.155 L
101.818 281.077 L
101.991 252.513 L
102.165 218.853 L
102.338 234.999 L
102.512 260.393 L
102.686 265.311 L
102.859 260.68 L
103.033 282.041 L
103.206 301.699 L
103.38 248.334 L
103.554 222.519 L
103.727 247.2 L
103.901 256.45 L
104.074 254.616 L
104.248 230.956 L
104.422 212.537 L
104.595 199.759 L
104.769 208.338 L
104.942 229.305 L
105.116 254.861 L
105.29 251.147 L
105.463 240.509 L
105.637 241.033 L
105.81 240.244 L
105.984 244.902 L
106.158 227.685 L
106.331 226.1 L
106.505 235.129 L
106.678 247.686 L
106.852 235.192 L
107.026 221.195 L
107.199 229.006 L
107.373 238.548 L
107.546 238.891 L
107.72 248.355 L
107.894 284.371 L
108.067 300.021 L
108.241 305.743 L
108.414 298.032 L
108.588 299.49 L
108.762 307.036 L
108.935 306.43 L
109.109 326.143 L
109.282 315.562 L
109.456 286.199 L
109.63 303.959 L
109.803 334.103 L
109.977 333.851 L
110.15 295.414 L
110.324 286.217 L
110.498 296.796 L
110.671 285.661 L
110.845 279.634 L
111.018 267.302 L
111.192 275.106 L
111.366 276.219 L
111.539 281.746 L
111.713 283.103 L
111.886 269.649 L
112.06 245.378 L
112.234 219.56 L
112.407 233.54 L
112.581 246.305 L
112.754 253.405 L
112.928 265.957 L
113.102 264.157 L
113.275 238.304 L
113.449 206.66 L
113.622 194.459 L
113.796 236.655 L
113.97 267.631 L
114.143 270.118 L
114.317 263.346 L
114.49 256.325 L
114.664 256.932 L
114.838 227.019 L
115.011 216.988 L
115.185 240.974 L
115.358 279.139 L
115.532 292.603 L
115.706 288.964 L
115.879 259.487 L
116.053 233.204 L
116.226 226.677 L
116.4 198.421 L
116.574 176.249 L
116.747 177.939 L
116.921 182.131 L
117.094 163.422 L
117.268 165.949 L
117.442 172.464 L
117.615 162.177 L
117.789 127.757 L
117.962 93.892 L
118.136 78.757 L
118.31 95.425 L
118.483 130.124 L
118.657 139.735 L
118.83 158.528 L
119.004 147.329 L
119.178 122.654 L
119.351 118.374 L
119.525 131.2 L
119.698 155.615 L
119.872 151.842 L
120.046 143.898 L
120.219 168.261 L
120.393 183.085 L
120.566 170.322 L
120.74 159.767 L
120.914 163.826 L
121.087 159.441 L
121.261 153.063 L
121.434 148.334 L
121.608 147.457 L
121.782 178.857 L
121.955 188.213 L
122.129 202.631 L
122.302 197.176 L
122.476 174.72 L
122.65 188.473 L
122.823 185.798 L
122.997 181.563 L
123.17 168.098 L
123.344 163.608 L
123.518 174.987 L
123.691 178.817 L
123.865 168.714 L
124.038 137.17 L
124.212 140.864 L
124.386 163.187 L
124.559 156.667 L
124.733 167.98 L
124.906 206.799 L
125.08 233.184 L
125.254 233.759 L
125.427 226.764 L
125.601 212.175 L
125.774 218.766 L
125.948 226.004 L
126.122 214.388 L
126.295 225.626 L
126.469 229.761 L
126.642 234.564 L
126.816 230.976 L
126.99 231.932 L
127.163 215.773 L
127.337 186.584 L
127.51 183.851 L
127.684 193.566 L
127.858 208.417 L
128.031 188.856 L
128.205 172.149 L
128.378 152.749 L
128.552 161.512 L
128.726 174.766 L
128.899 165.25 L
129.073 164.248 L
129.246 139.257 L
129.42 130.679 L
129.594 119.485 L
129.767 126.194 L
129.941 149.936 L
130.114 162.536 L
130.288 166.616 L
130.462 148.406 L
130.635 158.941 L
130.809 179.134 L
130.982 183.928 L
131.156 170.479 L
131.33 166.316 L
131.503 171.644 L
131.677 150.193 L
131.85 139.287 L
132.024 144.014 L
132.198 153.448 L
132.371 137.293 L
132.545 113.513 L
132.718 116.851 L
132.892 131.633 L
133.066 137.198 L
133.239 140.054 L
133.413 138.141 L
133.586 125.593 L
133.76 136.599 L
133.934 138.743 L
134.107 153.385 L
134.281 165.159 L
134.454 159.618 L
134.628 150.496 L
134.802 142.084 L
134.975 153.119 L
135.149 141.864 L
135.322 127.686 L
135.496 112.38 L
135.67 115.035 L
135.843 135.086 L
136.017 150.166 L
136.19 135.274 L
136.364 137.423 L
136.538 156.687 L
136.711 133.649 L
136.885 131.976 L
137.058 135.022 L
137.232 147.104 L
137.406 157.772 L
137.579 159.703 L
137.753 153.483 L
137.926 141.575 L
138.1 142.61 L
138.274 141.289 L
138.447 145.067 L
138.621 134.44 L
138.794 148.874 L
138.968 182.183 L
139.142 201.131 L
139.315 203.058 L
139.489 190.344 L
139.662 188.211 L
139.836 205.153 L
140.01 225.378 L
140.183 232.012 L
140.357 240.02 L
140.53 240.514 L
140.704 216.19 L
140.878 174.182 L
141.051 157.183 L
141.225 172.415 L
141.398 168.672 L
141.572 165.771 L
141.746 169.58 L
141.919 150.856 L
142.093 151.486 L
142.266 172.134 L
142.44 187.1 L
142.614 203.634 L
142.787 221.252 L
142.961 227.707 L
143.134 225.669 L
143.308 228.062 L
143.482 248.257 L
143.655 260.448 L
143.829 258.822 L
144.002 279.098 L
144.176 291.709 L
144.35 287.706 L
144.523 277.1 L
144.697 268.653 L
144.87 249.48 L
145.044 233.878 L
145.218 230.646 L
145.391 216.014 L
145.565 200.862 L
145.738 175.062 L
145.912 157.577 L
146.086 152.009 L
146.259 136.479 L
146.433 119.593 L
146.606 119.904 L
146.78 113.459 L
146.954 105.84 L
147.127 105.818 L
147.301 123.342 L
147.474 144.535 L
147.648 147.483 L
147.822 150.879 L
147.995 132.41 L
148.169 143.862 L
148.342 179.133 L
148.516 194.802 L
148.69 195.693 L
148.863 176.005 L
149.037 148.253 L
149.21 142.296 L
149.384 150.837 L
149.558 154.649 L
149.731 165.178 L
149.905 160.001 L
150.078 149.613 L
150.252 144.838 L
150.426 155.651 L
150.599 173.126 L
150.773 177.851 L
150.946 159.02 L
151.12 128.679 L
151.294 122.784 L
151.467 132.727 L
151.641 144.273 L
151.814 160.328 L
151.988 173.42 L
152.162 150.581 L
152.335 130.456 L
152.509 151.884 L
152.682 158.71 L
152.856 141.486 L
153.03 147.562 L
153.203 170.486 L
153.377 194.204 L
153.55 184.036 L
153.724 151.152 L
153.898 130.928 L
154.071 123.832 L
154.245 128.581 L
154.418 125.621 L
154.592 126.377 L
154.766 117.046 L
154.939 123.384 L
155.113 132.366 L
155.286 129.97 L
155.46 146.2 L
155.634 149.276 L
155.807 148.918 L
155.981 163.136 L
156.154 180.044 L
156.328 183.012 L
156.502 190.135 L
156.675 208.537 L
156.849 204.35 L
157.022 191.474 L
157.196 184.609 L
157.37 154.036 L
157.543 158.204 L
157.717 182.966 L
157.89 169.067 L
158.064 166.359 L
158.238 166.683 L
158.411 161.038 L
158.585 150.647 L
158.758 133.672 L
158.932 130.201 L
159.106 135.511 L
159.279 130.781 L
159.453 128.755 L
159.626 125.455 L
159.8 132.924 L
159.974 131.856 L
160.147 111.795 L
160.321 112.319 L
160.494 110.218 L
160.668 121.308 L
160.842 128.022 L
161.015 140.915 L
161.189 141.454 L
161.362 132.82 L
161.536 158.801 L
161.71 180.607 L
161.883 202.883 L
162.057 195.281 L
162.23 174.14 L
162.404 180.447 L
162.578 207.062 L
162.751 205.582 L
162.925 201.148 L
163.098 217.777 L
163.272 218.045 L
163.446 217.518 L
163.619 217.629 L
163.793 236.54 L
163.966 245.208 L
164.14 235.499 L
164.314 228.436 L
164.487 242.855 L
164.661 253.082 L
164.834 267.247 L
165.008 289.757 L
165.182 274.304 L
165.355 263.791 L
165.529 242.077 L
165.702 228.707 L
165.876 214.49 L
166.05 221.059 L
166.223 258.824 L
166.397 258.331 L
166.57 277.663 L
166.744 286.591 L
166.918 274.763 L
167.091 294.691 L
167.265 301.772 L
167.438 283.766 L
167.612 266.052 L
167.786 252.525 L
167.959 254.712 L
168.133 261.584 L
168.306 261.44 L
168.48 239.565 L
168.654 215.304 L
168.827 225.727 L
169.001 226.85 L
169.174 225.669 L
169.348 225.052 L
169.522 219.668 L
169.695 242.602 L
169.869 267.343 L
170.042 259.729 L
170.216 246.281 L
170.39 239.499 L
170.563 225.018 L
170.737 223.197 L
170.91 224.864 L
171.084 218.127 L
171.258 205.816 L
171.431 200.049 L
171.605 212.467 L
171.778 239.111 L
171.952 246.366 L
172.126 221.556 L
172.299 210.777 L
172.473 218.821 L
172.646 239.002 L
172.82 252.337 L
172.994 252.99 L
173.167 260.158 L
173.341 279.186 L
173.514 281.88 L
173.688 257.491 L
173.862 261.139 L
174.035 259.75 L
174.209 232.661 L
174.382 235.134 L
174.556 265.955 L
174.73 289.507 L
174.903 286.285 L
175.077 269.292 L
175.25 259.367 L
175.424 274.97 L
175.598 285.094 L
175.771 278.768 L
175.945 275.288 L
176.118 270.486 L
176.292 269.145 L
176.466 252.537 L
176.639 229.909 L
176.813 208.913 L
176.986 211.92 L
177.16 226.595 L
177.334 220.069 L
177.507 227.386 L
177.681 237.975 L
177.854 239.231 L
178.028 246.781 L
178.202 262.4 L
178.375 253.957 L
178.549 233.421 L
178.722 229.317 L
178.896 224.407 L
179.07 228.081 L
179.243 246.702 L
179.417 247.065 L
179.59 213.504 L
179.764 200.043 L
179.938 211.134 L
180.111 210.225 L
180.285 195.961 L
180.458 192.536 L
180.632 198.64 L
180.806 192.555 L
180.979 191.355 L
181.153 189.455 L
181.326 192.53 L
181.5 203.459 L
181.674 190.773 L
181.847 170.665 L
182.021 177.297 L
182.194 208.622 L
182.368 223.533 L
182.542 201.105 L
182.715 183.254 L
182.889 168.097 L
183.062 167.154 L
183.236 175.448 L
183.41 153.764 L
183.583 138.724 L
183.757 126.993 L
183.93 131.566 L
184.104 135.263 L
184.278 105.441 L
184.451 91.347 L
184.625 98.265 L
184.798 110.603 L
184.972 108.392 L
185.146 112.239 L
185.319 138.587 L
185.493 156.671 L
185.666 161.381 L
185.84 158.271 L
186.014 149.021 L
186.187 137.431 L
186.361 133.828 L
186.534 134.584 L
186.708 154.591 L
186.882 177.56 L
187.055 189.239 L
187.229 194.054 L
187.402 193.943 L
187.576 203.842 L
187.75 188.558 L
187.923 167.126 L
188.097 153.377 L
188.27 163.876 L
188.444 185.281 L
188.618 189.953 L
188.791 205.78 L
188.965 204.031 L
189.138 189.252 L
189.312 172.873 L
189.486 180.915 L
189.659 187.26 L
189.833 171.575 L
190.006 164.548 L
190.18 165.132 L
190.354 182.838 L
190.527 173.748 L
190.701 158.303 L
190.874 180.275 L
191.048 198.518 L
191.222 204.979 L
191.395 204.554 L
191.569 196.899 L
191.742 217.026 L
191.916 234.087 L
192.09 239.731 L
192.263 245.083 L
192.437 252.298 L
192.61 284.42 L
192.784 291.556 L
192.958 267.275 L
193.131 259.455 L
193.305 280.448 L
193.478 295.397 L
193.652 295.975 L
193.826 283.328 L
193.999 274.465 L
194.173 283.404 L
194.346 296.598 L
194.52 302.633 L
194.694 286.844 L
194.867 280.313 L
195.041 280.916 L
195.214 275.311 L
195.388 276.081 L
195.562 281.472 L
195.735 276.174 L
195.909 266.399 L
196.082 246.565 L
196.256 245.729 L
196.43 261.925 L
196.603 258.871 L
196.777 253.924 L
196.95 233.148 L
197.124 221.878 L
197.298 227.018 L
197.471 226.948 L
197.645 213.786 L
197.818 210.931 L
197.992 228.334 L
198.166 247.221 L
198.339 246.543 L
198.513 231.458 L
198.686 228.96 L
198.86 244.738 L
199.034 269.492 L
199.207 259.146 L
199.381 255.724 L
199.554 255.825 L
199.728 247.74 L
199.902 250.682 L
200.075 271.207 L
200.249 288.835 L
200.422 266.847 L
200.596 248.921 L
200.77 236.274 L
200.943 234.711 L
201.117 231.664 L
201.29 225.562 L
201.464 233.343 L
201.638 238.595 L
201.811 213.015 L
201.985 185.892 L
202.158 187.976 L
202.332 192.449 L
202.506 192.002 L
202.679 185.561 L
202.853 190.906 L
203.026 184.851 L
203.2 174.6 L
203.374 161.43 L
203.547 154.002 L
203.721 157.49 L
203.894 158.754 L
204.068 161.165 L
204.242 148.203 L
204.415 144.67 L
204.589 152.421 L
204.762 156.27 L
204.936 151.032 L
205.11 157.061 L
205.283 157.214 L
205.457 137.559 L
205.63 127.377 L
205.804 126.061 L
205.978 125.358 L
206.151 119.723 L
206.325 120.711 L
206.498 141.497 L
206.672 144.69 L
206.846 130.691 L
207.019 133.49 L
207.193 135.064 L
207.366 148.944 L
207.54 153.452 L
207.714 142.77 L
207.887 152.853 L
208.061 166.207 L
208.234 164.798 L
208.408 168.497 L
208.582 168.22 L
208.755 167.955 L
208.929 170.902 L
209.102 182.729 L
209.276 218.518 L
209.45 212.529 L
209.623 207.987 L
209.797 210.496 L
209.97 201.354 L
210.144 213.489 L
210.318 247.658 L
210.491 269.973 L
210.665 251.251 L
210.838 230.144 L
211.012 229.799 L
211.186 265.023 L
211.359 255.105 L
211.533 235.505 L
211.706 255.763 L
211.88 271.371 L
212.054 268.325 L
212.227 262.966 L
212.401 283.85 L
212.574 293.034 L
212.748 283.086 L
212.922 273.184 L
213.095 299.84 L
213.269 303.59 L
213.442 284.381 L
213.616 275.855 L
213.79 266.06 L
213.963 271.179 L
214.137 257.072 L
214.31 242.625 L
214.484 247.265 L
214.658 258.355 L
214.831 256.211 L
215.005 230.747 L
215.178 209.199 L
215.352 214.491 L
215.526 209.824 L
215.699 200.33 L
215.873 197.769 L
216.046 188.201 L
216.22 177.356 L
216.394 171.08 L
216.567 175.972 L
216.741 179.852 L
216.914 189.327 L
217.088 175.983 L
217.262 165.11 L
217.435 170.433 L
217.609 164.298 L
217.782 163.579 L
217.956 172.003 L
218.13 173.314 L
218.303 156.913 L
218.477 154.802 L
218.65 175.129 L
218.824 183.056 L
218.998 183.229 L
219.171 190.307 L
219.345 184.496 L
219.518 190.481 L
219.692 203.714 L
219.866 206.355 L
220.039 185.567 L
220.213 161.888 L
220.386 154.003 L
220.56 134.612 L
220.734 135.006 L
220.907 148.028 L
221.081 158.83 L
221.254 154.088 L
221.428 148.248 L
221.602 156.261 L
221.775 152.337 L
221.949 142.722 L
222.122 158.372 L
222.296 171.283 L
222.47 150.816 L
222.643 136.898 L
222.817 123.758 L
222.99 126.561 L
223.164 129.07 L
223.338 116.347 L
223.511 106.677 L
223.685 103.113 L
223.858 114.495 L
224.032 127.277 L
224.206 140.561 L
224.379 154.403 L
224.553 155.255 L
224.726 141.501 L
224.9 157.615 L
225.074 180.205 L
225.247 187.121 L
225.421 177.4 L
225.594 162.181 L
225.768 167.137 L
225.942 167.491 L
226.115 178.764 L
226.289 186.933 L
226.462 192.755 L
226.636 219.157 L
226.81 235.256 L
226.983 234.906 L
227.157 233.592 L
227.33 215.981 L
227.504 197.891 L
227.678 195.711 L
227.851 222.362 L
228.025 267.308 L
228.198 259.243 L
228.372 211.769 L
228.546 186.854 L
228.719 196.93 L
228.893 188.968 L
229.066 182.009 L
229.24 190.72 L
229.414 195.091 L
229.587 214.585 L
229.761 213.199 L
229.934 206.806 L
230.108 204.332 L
230.282 203.77 L
230.455 196.475 L
230.629 181.061 L
230.802 187.57 L
230.976 213.402 L
231.15 244.199 L
231.323 239.428 L
231.497 230.651 L
231.67 222.226 L
231.844 212.279 L
232.018 236.56 L
232.191 256.46 L
232.365 257.981 L
232.538 252.289 L
232.712 268.471 L
232.886 301.832 L
233.059 302.557 L
233.233 273.118 L
233.406 255.644 L
233.58 244.134 L
233.754 225.333 L
233.927 232.953 L
234.101 235.092 L
234.274 220.485 L
234.448 217.786 L
234.622 226.386 L
234.795 238.096 L
234.969 235.512 L
235.142 228.809 L
235.316 221.521 L
235.49 221.305 L
235.663 237.921 L
235.837 252.729 L
236.01 244.017 L
236.184 229.325 L
236.358 226.957 L
236.531 228.24 L
236.705 232.426 L
236.878 222.821 L
237.052 199.721 L
237.226 185.531 L
237.399 178.541 L
237.573 158.424 L
237.746 144.441 L
237.92 130.189 L
238.094 102.74 L
238.267 101.592 L
238.441 116.87 L
238.614 128.616 L
238.788 126.089 L
238.962 113.632 L
239.135 106.512 L
239.309 104.153 L
239.482 107.532 L
239.656 105.107 L
239.83 104.204 L
240.003 112.034 L
240.177 126.463 L
240.35 141.325 L
240.524 136.861 L
240.698 143.803 L
240.871 157.079 L
241.045 153.667 L
241.218 150.314 L
241.392 135.659 L
241.566 135.814 L
241.739 140.584 L
241.913 132.952 L
242.086 134.512 L
242.26 135.722 L
242.434 122.399 L
242.607 96.651 L
242.781 90.516 L
242.954 97.775 L
243.128 95.461 L
243.302 83.164 L
243.475 100.604 L
243.649 123.266 L
243.822 111.257 L
243.996 117.182 L
244.17 122.095 L
244.343 134.82 L
244.517 147.467 L
244.69 139.143 L
244.864 169.008 L
245.038 167.883 L
245.211 134.363 L
245.385 138.941 L
245.558 145.277 L
245.732 143.489 L
245.906 141.097 L
246.079 158.776 L
246.253 165.01 L
246.426 153.721 L
246.6 145.861 L
246.774 129.402 L
246.947 128.753 L
247.121 129.091 L
247.294 140.594 L
247.468 140.661 L
247.642 119.94 L
247.815 126.298 L
247.989 146.164 L
248.162 146.151 L
248.336 139.961 L
248.51 155.52 L
248.683 169.317 L
248.857 176.531 L
249.03 167.098 L
249.204 165.009 L
249.378 176.133 L
249.551 174.241 L
249.725 176.326 L
249.898 173.855 L
250.072 173.452 L
250.246 183.371 L
250.419 197.262 L
250.593 191.741 L
250.766 181.056 L
250.94 191.242 L
251.114 185.061 L
251.287 161.048 L
251.461 155.704 L
251.634 157.392 L
251.808 149.286 L
251.982 150.704 L
252.155 145.541 L
252.329 125.473 L
252.502 138.9 L
252.676 163.44 L
252.85 150.815 L
253.023 156.515 L
253.197 175.105 L
253.37 178.451 L
253.544 182.431 L
253.718 194.424 L
253.891 218.427 L
254.065 221.526 L
254.238 214.003 L
254.412 213.876 L
254.586 216.192 L
254.759 204.502 L
254.933 189.252 L
255.106 183.525 L
255.28 181.7 L
255.454 188.346 L
255.627 200.575 L
255.801 220.353 L
255.974 210.824 L
256.148 190.44 L
256.322 184.842 L
256.495 193.406 L
256.669 219.093 L
256.842 235.265 L
257.016 248.422 L
257.19 242.702 L
257.363 224.747 L
257.537 215.095 L
257.71 195.815 L
257.884 198.451 L
258.058 215.379 L
258.231 204.042 L
258.405 190.882 L
258.578 185.856 L
258.752 182.418 L
258.926 181.21 L
259.099 187.586 L
259.273 202.497 L
259.446 200.121 L
259.62 202.592 L
259.794 222.864 L
259.967 219.755 L
260.141 200.736 L
260.314 199.643 L
260.488 223.093 L
260.662 226.899 L
260.835 196.319 L
261.009 187.39 L
261.182 182.487 L
261.356 187.778 L
261.53 217.152 L
261.703 240.723 L
261.877 252.372 L
262.05 220.322 L
262.224 185.947 L
262.398 186.306 L
262.571 203.831 L
262.745 203.15 L
262.918 182.385 L
263.092 194.226 L
263.266 211.886 L
263.439 211.824 L
263.613 207.308 L
263.786 200.132 L
263.96 207.203 L
264.134 240.944 L
264.307 253.414 L
264.481 216.552 L
264.654 179.235 L
264.828 167.854 L
265.002 186.591 L
265.175 214.591 L
265.349 226.175 L
265.522 226.705 L
265.696 225.579 L
265.87 230.595 L
266.043 247.542 L
266.217 267.3 L
266.39 282.78 L
266.564 289.171 L
266.738 300.696 L
266.911 327.331 L
267.085 327.036 L
267.258 309.116 L
267.432 293.291 L
267.606 272.43 L
267.779 266.584 L
267.953 287.336 L
268.126 311.604 L
268.3 317.906 L
268.474 319.781 L
268.647 317.217 L
268.821 304.664 L
268.994 291.814 L
269.168 291.081 L
269.342 283.035 L
269.515 282.723 L
269.689 293.891 L
269.862 286.479 L
270.036 283.576 L
270.21 267.458 L
270.383 270.301 L
270.557 290.591 L
270.73 288.271 L
270.904 276.901 L
271.078 260.116 L
271.251 272.626 L
271.425 277.51 L
271.598 273.994 L
271.772 266.448 L
271.946 261.322 L
272.119 295.988 L
272.293 313.48 L
272.466 326.172 L
272.64 338.186 L
272.814 318.627 L
272.987 309.233 L
273.161 320.511 L
273.334 329.336 L
273.508 331.733 L
273.682 320.668 L
273.855 311.632 L
274.029 295.276 L
274.202 265.659 L
274.376 261.504 L
274.55 278.815 L
274.723 287.349 L
274.897 273.296 L
275.07 273.948 L
275.244 281.211 L
275.418 278.194 L
275.591 266.416 L
275.765 250.223 L
275.938 253.665 L
276.112 259.476 L
276.286 253.301 L
276.459 237.214 L
276.633 228.228 L
276.806 213.808 L
276.98 198.178 L
277.154 191.432 L
277.327 192.095 L
277.501 187.394 L
277.674 189.16 L
277.848 206.179 L
278.022 203.689 L
278.195 208.96 L
278.369 220.511 L
278.542 230.235 L
278.716 216.36 L
278.89 193.617 L
279.063 200.692 L
279.237 219.038 L
279.41 208.168 L
279.584 168.492 L
279.758 166.725 L
279.931 190.891 L
280.105 189.549 L
280.278 166.018 L
280.452 159.428 L
280.626 162.326 L
280.799 184.437 L
280.973 189.23 L
281.146 173.758 L
281.32 172.349 L
281.494 167.224 L
281.667 187.976 L
281.841 193.525 L
282.014 190.207 L
282.188 184.406 L
282.362 184.532 L
282.535 197.324 L
282.709 208.126 L
282.882 210.403 L
283.056 188.379 L
283.23 180.577 L
283.403 167.201 L
283.577 154.428 L
283.75 162.782 L
283.924 176.977 L
284.098 165.777 L
284.271 159.223 L
284.445 172.382 L
284.618 172.019 L
284.792 162.913 L
284.966 137.524 L
285.139 137.356 L
285.313 153.11 L
285.486 155.747 L
285.66 166.175 L
285.834 165.109 L
286.007 163.64 L
286.181 170.566 L
286.354 148.651 L
286.528 133.866 L
286.702 140.134 L
286.875 163.401 L
287.049 178.544 L
287.222 174.566 L
287.396 157.49 L
287.57 124.445 L
287.743 145.465 L
287.917 162.781 L
288.09 144.949 L
288.264 113.914 L
288.438 125.543 L
288.611 163.48 L
288.785 144.766 L
288.958 124.639 L
289.132 119.292 L
289.306 136.662 L
289.479 127.503 L
289.653 126.092 L
289.826 151.572 L
290 148.688 L
290.174 141.554 L
290.347 127.613 L
290.521 122.726 L
290.694 129.536 L
290.868 139.453 L
291.042 137.045 L
291.215 139.706 L
291.389 134.577 L
291.562 120.989 L
291.736 130.591 L
291.91 136.91 L
292.083 128.057 L
292.257 120.652 L
292.43 108.563 L
292.604 91.229 L
292.778 108.576 L
292.951 110.556 L
293.125 92.37 L
293.298 98.15 L
293.472 112.919 L
293.646 122.194 L
293.819 110.422 L
293.993 101.018 L
294.166 105.923 L
294.34 116.342 L
294.514 113.328 L
294.687 116.181 L
294.861 129.296 L
295.034 124.057 L
295.208 116.226 L
295.382 132.589 L
295.555 169.282 L
295.729 183.508 L
295.902 195.016 L
296.076 200.289 L
296.25 185.827 L
296.423 197.605 L
296.597 220.281 L
296.77 232.487 L
296.944 230.046 L
297.118 227.06 L
297.291 252.206 L
297.465 283.167 L
297.638 268.716 L
297.812 241.576 L
297.986 236.675 L
298.159 230.055 L
298.333 233.886 L
298.506 228.624 L
298.68 220.007 L
298.854 221.062 L
299.027 225.802 L
299.201 235.757 L
299.374 229.402 L
299.548 228.875 L
299.722 230.726 L
299.895 246.973 L
300.069 277.44 L
300.242 271.853 L
300.416 257.929 L
300.59 262.612 L
300.763 275.76 L
300.937 275.365 L
301.11 271.211 L
301.284 271.136 L
301.458 249.059 L
301.631 233.525 L
301.805 238.183 L
301.978 259.54 L
302.152 269.655 L
302.326 266.822 L
302.499 270.96 L
302.673 262.078 L
302.846 261.233 L
303.02 265.169 L
303.194 272.421 L
303.367 262.89 L
303.541 234.334 L
303.714 218.676 L
303.888 214.492 L
304.062 214.835 L
304.235 208.898 L
304.409 204.112 L
304.582 206.247 L
304.756 231.954 L
304.93 240.765 L
305.103 226.427 L
305.277 218.874 L
305.45 220.567 L
305.624 229.86 L
305.798 235.237 L
305.971 236.512 L
306.145 219.166 L
306.318 232.164 L
306.492 237.611 L
306.666 205.794 L
306.839 188.065 L
307.013 178.17 L
307.186 201.505 L
307.36 222.085 L
307.534 207.209 L
307.707 188.437 L
307.881 179.903 L
308.054 175.435 L
308.228 174.744 L
308.402 182.465 L
308.575 180.035 L
308.749 184.741 L
308.922 190.065 L
309.096 181.022 L
309.27 181.309 L
309.443 180.532 L
309.617 188.26 L
309.79 189.603 L
309.964 170.536 L
310.138 156.23 L
310.311 144.374 L
310.485 144.829 L
310.658 147.581 L
310.832 146.649 L
311.006 148.171 L
311.179 160.09 L
311.353 162.648 L
311.526 149.306 L
311.7 149.42 L
311.874 157.873 L
312.047 173.248 L
312.221 191.452 L
312.394 199.083 L
312.568 181.242 L
312.742 171.589 L
312.915 171.63 L
313.089 172.933 L
313.262 187.401 L
313.436 187.08 L
313.61 189.163 L
313.783 183.244 L
313.957 162.399 L
314.13 163.298 L
314.304 175.147 L
314.478 188.508 L
314.651 204.288 L
314.825 206.174 L
314.998 192.485 L
315.172 170.238 L
315.346 184.175 L
315.519 203.94 L
315.693 188.853 L
315.866 184.15 L
316.04 188.488 L
316.214 206.721 L
316.387 220.6 L
316.561 226.575 L
316.734 231.256 L
316.908 228.896 L
317.082 235.722 L
317.255 255.993 L
317.429 269.135 L
317.602 256.43 L
317.776 250.838 L
317.95 252.317 L
318.123 256.844 L
318.297 261.61 L
318.47 256.015 L
318.644 237.272 L
318.818 218.645 L
318.991 226.398 L
319.165 252.328 L
319.338 270.534 L
319.512 262.643 L
319.686 239.822 L
319.859 226.979 L
320.033 230.802 L
320.206 229.539 L
320.38 225.756 L
320.554 233.159 L
320.727 247.371 L
320.901 253.154 L
321.074 253.315 L
321.248 249.183 L
321.422 233.387 L
321.595 222.673 L
321.769 222.788 L
321.942 224.786 L
322.116 232.854 L
322.29 244.905 L
322.463 245.411 L
322.637 235.15 L
322.81 205.279 L
322.984 183.457 L
323.158 170.832 L
323.331 173.418 L
323.505 192.319 L
323.678 188.354 L
323.852 171.794 L
324.026 154.965 L
324.199 170.703 L
324.373 184.932 L
324.546 181.256 L
324.72 180.525 L
324.894 176.306 L
325.067 190.835 L
325.241 203.797 L
325.414 196.795 L
325.588 197.409 L
325.762 220.524 L
325.935 240.441 L
326.109 235.372 L
326.282 206.265 L
326.456 190.805 L
326.63 198.834 L
326.803 204.563 L
326.977 201.488 L
327.15 203.245 L
327.324 209.349 L
327.498 214.874 L
327.671 230.29 L
327.845 222.176 L
328.018 188.574 L
328.192 168.128 L
328.366 180.13 L
328.539 200.812 L
328.713 205.745 L
328.886 206.849 L
329.06 224.872 L
329.234 241.651 L
329.407 225.131 L
329.581 209.872 L
329.754 211.974 L
329.928 219.15 L
330.102 225.004 L
330.275 216.057 L
330.449 212.877 L
330.622 220.748 L
330.796 222.131 L
330.97 229.44 L
331.143 227.104 L
331.317 219.634 L
331.49 216.425 L
331.664 210.499 L
331.838 214.701 L
332.011 212.404 L
332.185 211.032 L
332.358 218.826 L
332.532 229.827 L
332.706 240.002 L
332.879 245.104 L
333.053 242.326 L
333.226 246.117 L
333.4 266.516 L
333.574 286.829 L
333.747 290.497 L
333.921 276.774 L
334.094 244.727 L
334.268 217.59 L
334.442 254.196 L
334.615 289.669 L
334.789 274.49 L
334.962 236.422 L
335.136 207.231 L
335.31 209.864 L
335.483 199.681 L
335.657 191.979 L
335.83 199.501 L
336.004 200.714 L
336.178 213.244 L
336.351 221.807 L
336.525 214.193 L
336.698 209.975 L
336.872 210.315 L
337.046 221.55 L
337.219 239.071 L
337.393 247.061 L
337.566 238.491 L
337.74 239.49 L
337.914 241.884 L
338.087 240.692 L
338.261 265.915 L
338.434 275.405 L
338.608 281.24 L
338.782 282.782 L
338.955 262.352 L
339.129 240.621 L
339.302 219.556 L
339.476 205.677 L
339.65 199.642 L
339.823 197.36 L
339.997 194.64 L
340.17 202.595 L
340.344 207.493 L
340.518 198.978 L
340.691 184.205 L
340.865 167.665 L
341.038 161.011 L
341.212 181.776 L
341.386 192.619 L
341.559 179.382 L
341.733 170.968 L
341.906 170.471 L
342.08 175.025 L
342.254 168.346 L
342.427 181.413 L
342.601 200.689 L
342.774 195.193 L
342.948 183.47 L
343.122 192.191 L
343.295 199.655 L
343.469 195.683 L
343.642 205.25 L
343.816 212.198 L
343.99 207.283 L
344.163 188.07 L
344.337 181.496 L
344.51 171.127 L
344.684 161.343 L
344.858 162.61 L
345.031 148.431 L
345.205 144.124 L
345.378 149.84 L
345.552 144.125 L
345.726 141.06 L
345.899 149.265 L
346.073 153.906 L
346.246 164.467 L
346.42 177.081 L
346.594 171.388 L
346.767 147.139 L
346.941 139.693 L
347.114 152.02 L
347.288 177.329 L
347.462 196.274 L
347.635 200.312 L
347.809 204.635 L
347.982 187.705 L
348.156 176.913 L
348.33 182.14 L
348.503 195.826 L
348.677 198.625 L
348.85 195.078 L
349.024 202.142 L
349.198 205.406 L
349.371 194.914 L
349.545 178.947 L
349.718 175.525 L
349.892 193.492 L
350.066 217.351 L
350.239 219.744 L
350.413 222.554 L
350.586 205.932 L
350.76 198.556 L
350.934 221.951 L
351.107 252.118 L
351.281 245.523 L
351.454 215.802 L
351.628 227.471 L
351.802 225.192 L
351.975 210.063 L
352.149 199.624 L
352.322 219.614 L
352.496 239.692 L
352.67 233.119 L
352.843 246.402 L
353.017 253.28 L
353.19 253.428 L
353.364 255.663 L
353.538 254.152 L
353.711 248.309 L
353.885 240.138 L
354.058 241.343 L
354.232 248.734 L
354.406 266.78 L
354.579 283.434 L
354.753 269.293 L
354.926 257.033 L
355.1 240.103 L
355.274 243.034 L
355.447 260.246 L
355.621 254.315 L
355.794 262.755 L
355.968 247.216 L
356.142 223.286 L
356.315 215.145 L
356.489 220.308 L
356.662 219.094 L
356.836 211.972 L
357.01 219.071 L
357.183 216.427 L
357.357 203.206 L
357.53 184.009 L
357.704 181.717 L
357.878 208.475 L
358.051 234.773 L
358.225 234.711 L
358.398 235.127 L
358.572 225.419 L
358.746 214.675 L
358.919 193.203 L
359.093 168.757 L
359.266 185.11 L
359.44 190.359 L
359.614 167.86 L
359.787 137.823 L
359.961 126.863 L
360.134 133.273 L
360.308 136.203 L
360.482 121.307 L
360.655 107.794 L
360.829 105.396 L
361.002 119.12 L
361.176 143.436 L
361.35 146.792 L
361.523 149.617 L
361.697 152.393 L
361.87 148.503 L
362.044 149.15 L
362.218 168.012 L
362.391 175.721 L
362.565 174.067 L
362.738 178.822 L
362.912 191.422 L
363.086 211.57 L
363.259 225.147 L
363.433 236.724 L
363.606 235.157 L
363.78 237.004 L
363.954 224.44 L
364.127 209.812 L
364.301 214.542 L
364.474 231.629 L
364.648 246.768 L
364.822 229.814 L
364.995 223.657 L
365.169 237.355 L
365.342 249.358 L
365.516 252.777 L
365.69 239.25 L
365.863 234.806 L
366.037 226.476 L
366.21 202.756 L
366.384 196.755 L
366.558 204.337 L
366.731 223.459 L
366.905 226.016 L
367.078 228.646 L
367.252 250.369 L
367.426 247.572 L
367.599 231.79 L
367.773 219.868 L
367.946 221.426 L
368.12 233.577 L
368.294 242.43 L
368.467 234.148 L
368.641 237.81 L
368.814 239.903 L
368.988 227.209 L
369.162 230.582 L
369.335 233.081 L
369.509 232.517 L
369.682 223.562 L
369.856 224.859 L
370.03 221.696 L
370.203 211.081 L
370.377 210.311 L
370.55 200.472 L
370.724 186.455 L
370.898 179.304 L
371.071 171.621 L
371.245 158.545 L
371.418 146.78 L
371.592 130.014 L
371.766 126.126 L
371.939 124.033 L
372.113 104.173 L
372.286 89.576 L
372.46 97.486 L
372.634 96.647 L
372.807 89.042 L
372.981 90.834 L
373.154 83.773 L
373.328 74.119 L
373.502 71.431 L
373.675 83.244 L
373.849 62.368 L
374.022 31.492 L
374.196 38.452 L
374.37 64.506 L
374.543 83.989 L
374.717 85.107 L
374.89 100.303 L
375.064 124.382 L
375.238 125.053 L
375.411 111.598 L
375.585 128.921 L
375.758 151.158 L
375.932 132.866 L
376.106 115.991 L
376.279 131.407 L
376.453 138.957 L
376.626 143.638 L
376.8 161.243 L
376.974 175.168 L
377.147 177.14 L
377.321 170.168 L
377.494 161.268 L
377.668 140.948 L
377.842 136.58 L
378.015 129.043 L
378.189 140.985 L
378.362 153.599 L
378.536 133.126 L
378.71 127.306 L
378.883 126.675 L
379.057 148.429 L
379.23 151.869 L
379.404 146.538 L
379.578 161.392 L
379.751 172.133 L
379.925 172.53 L
380.098 160.144 L
380.272 160.296 L
380.446 163.747 L
380.619 172.308 L
380.793 180.722 L
380.966 186.258 L
381.14 170.135 L
381.314 154.823 L
381.487 170.306 L
381.661 185.291 L
381.834 194.504 L
382.008 181.137 L
382.182 162.177 L
382.355 153.881 L
382.529 143.318 L
382.702 128.66 L
382.876 103.221 L
383.05 79.143 L
383.223 68.671 L
383.397 54.466 L
383.57 36.328 L
383.744 32.152 L
383.918 42.976 L
384.091 59.43 L
384.265 77.261 L
384.438 106.985 L
384.612 116.874 L
384.786 111.633 L
384.959 117.758 L
385.133 115.044 L
385.306 117.997 L
385.48 128.05 L
385.654 138.786 L
385.827 150.191 L
386.001 150.612 L
386.174 126.161 L
386.348 108.326 L
386.522 119.113 L
386.695 108.668 L
386.869 110.177 L
387.042 118.729 L
387.216 100.915 L
387.39 93.472 L
387.563 74.994 L
387.737 65.782 L
387.91 65.927 L
388.084 70.789 L
388.258 103.237 L
388.431 134.515 L
388.605 162.929 L
388.778 168.714 L
388.952 169.773 L
389.126 178.584 L
389.299 193.686 L
389.473 228.324 L
389.646 255.544 L
389.82 280.788 L
389.994 296.361 L
390.167 305.605 L
390.341 327.178 L
390.514 348.088 L
390.688 337.92 L
390.862 307.026 L
391.035 295.1 L
391.209 295.301 L
391.382 293.581 L
391.556 283.98 L
391.73 278.415 L
391.903 275.966 L
392.077 281.258 L
392.25 302.534 L
392.424 317.985 L
392.598 311.615 L
392.771 278.542 L
392.945 252.007 L
393.118 258.748 L
393.292 266.062 L
393.466 253.827 L
393.639 236.38 L
393.813 227.173 L
393.986 232.941 L
394.16 244.627 L
394.334 252.557 L
394.507 242.611 L
394.681 233.207 L
394.854 228.72 L
395.028 230.388 L
395.202 244.457 L
395.375 232.631 L
395.549 211.076 L
395.722 204.079 L
395.896 224.019 L
396.07 232.39 L
396.243 213.754 L
396.417 224.563 L
396.59 236.327 L
396.764 229.536 L
396.938 228.13 L
397.111 226.053 L
397.285 221.45 L
397.458 229.081 L
397.632 246.326 L
397.806 251.199 L
397.979 232.303 L
398.153 216.969 L
398.326 209.823 L
398.5 216.43 L
398.674 231.37 L
398.847 228.859 L
399.021 224.655 L
399.194 224.595 L
399.368 243.66 L
399.542 249.981 L
399.715 242.839 L
399.889 267.859 L
400.062 282.01 L
400.236 271.47 L
400.41 271.273 L
400.583 271.297 L
400.757 268.931 L
400.93 254.554 L
401.104 233.781 L
401.278 237.518 L
401.451 243.177 L
401.625 248.582 L
401.798 245.948 L
401.972 244.237 L
402.146 248.017 L
402.319 257.282 L
402.493 271.532 L
402.666 270.655 L
402.84 269.163 L
403.014 262.594 L
403.187 271.605 L
403.361 288.532 L
403.534 285.001 L
403.708 269.01 L
403.882 264.57 L
404.055 255.989 L
404.229 229.02 L
404.402 214.848 L
404.576 212.503 L
404.75 203.395 L
404.923 194.952 L
405.097 203.739 L
405.27 199.126 L
405.444 190.954 L
405.618 185.432 L
405.791 172.096 L
405.965 165.015 L
406.138 172.277 L
406.312 180.984 L
406.486 184.741 L
406.659 199.676 L
406.833 201.508 L
407.006 195.162 L
407.18 184.263 L
407.354 174.068 L
407.527 177.112 L
407.701 190.688 L
407.874 202.705 L
408.048 208.481 L
408.222 199.543 L
408.395 179.283 L
408.569 170.252 L
408.742 164.067 L
408.916 169.531 L
409.09 158.549 L
409.263 149.651 L
409.437 160.603 L
409.61 161.206 L
409.784 162.997 L
409.958 166.759 L
410.131 168.295 L
410.305 158.291 L
410.478 140.291 L
410.652 150.265 L
410.826 192.513 L
410.999 215.457 L
411.173 220.553 L
411.346 227.66 L
411.52 231.211 L
411.694 227.177 L
411.867 229.341 L
412.041 228.673 L
412.214 209.023 L
412.388 196.239 L
412.562 198.475 L
412.735 207.137 L
412.909 198.207 L
413.082 175.674 L
413.256 157.942 L
413.43 151.976 L
413.603 143.978 L
413.777 141.551 L
413.95 138.416 L
414.124 131.072 L
414.298 148.822 L
414.471 171.942 L
414.645 184.631 L
414.818 186.619 L
414.992 197.042 L
415.166 206.898 L
415.339 210.388 L
415.513 214.693 L
415.686 228.981 L
415.86 245.342 L
416.034 257.061 L
416.207 259.996 L
416.381 243.05 L
416.554 253.644 L
416.728 270.741 L
416.902 273.029 L
417.075 251.361 L
417.249 222.622 L
417.422 213.015 L
417.596 203.249 L
417.77 202.763 L
417.943 200.55 L
418.117 196.454 L
418.29 189.793 L
418.464 177.505 L
418.638 179.957 L
418.811 177.019 L
418.985 155.456 L
419.158 173.952 L
419.332 189.056 L
419.506 174.838 L
419.679 168.532 L
419.853 170.002 L
420.026 188.214 L
420.2 199.429 L
420.374 212.142 L
420.547 220.195 L
420.721 227.34 L
420.894 222.537 L
421.068 218.661 L
421.242 239.976 L
421.415 264.548 L
421.589 268.994 L
421.762 254.751 L
421.936 259.893 L
422.11 255.862 L
422.283 250.053 L
422.457 243.466 L
422.63 234.84 L
422.804 221.777 L
422.978 208.549 L
423.151 209.453 L
423.325 204.829 L
423.498 218.169 L
423.672 232.152 L
423.846 240.684 L
424.019 227.475 L
424.193 213.836 L
424.366 224.916 L
424.54 231.779 L
424.714 231.029 L
424.887 219.407 L
425.061 208.985 L
425.234 203.473 L
425.408 206.348 L
425.582 198.212 L
425.755 190.378 L
425.929 178.903 L
426.102 164.592 L
426.276 171.138 L
426.45 167.645 L
426.623 148.496 L
426.797 123.616 L
426.97 134.986 L
427.144 155.487 L
427.318 145.668 L
427.491 139.706 L
427.665 141.055 L
427.838 152.765 L
428.012 148.498 L
428.186 136.274 L
428.359 146.091 L
428.533 152.06 L
S
GR
%%Trailer
%%Pages: 1
%%EOF
