%!PS-Adobe-3.0 EPSF-3.0
%%Creator: (MATLAB, The Mathworks, Inc. Version 9.2.0.538062 \(R2017a\). Operating System: Linux)
%%Title: /home/chris/Storage/christina/Desktop/THMMY/????????/Project/old/frame_2_mdct_coef_before.eps
%%CreationDate: 2019-02-17T19:34:36
%%Pages: (atend)
%%BoundingBox: 0 0 1023 497
%%LanguageLevel: 3
%%EndComments
%%BeginProlog
%%BeginResource: procset (Apache XML Graphics Std ProcSet) 1.2 0
%%Version: 1.2 0
%%Copyright: (Copyright 2001-2003,2010 The Apache Software Foundation. License terms: http://www.apache.org/licenses/LICENSE-2.0)
/bd{bind def}bind def
/ld{load def}bd
/GR/grestore ld
/M/moveto ld
/LJ/setlinejoin ld
/C/curveto ld
/f/fill ld
/LW/setlinewidth ld
/GC/setgray ld
/t/show ld
/N/newpath ld
/CT/concat ld
/cp/closepath ld
/S/stroke ld
/L/lineto ld
/CC/setcmykcolor ld
/A/ashow ld
/GS/gsave ld
/RC/setrgbcolor ld
/RM/rmoveto ld
/ML/setmiterlimit ld
/re {4 2 roll M
1 index 0 rlineto
0 exch rlineto
neg 0 rlineto
cp } bd
/_ctm matrix def
/_tm matrix def
/BT { _ctm currentmatrix pop matrix _tm copy pop 0 0 moveto } bd
/ET { _ctm setmatrix } bd
/iTm { _ctm setmatrix _tm concat } bd
/Tm { _tm astore pop iTm 0 0 moveto } bd
/ux 0.0 def
/uy 0.0 def
/F {
  /Tp exch def
  /Tf exch def
  Tf findfont Tp scalefont setfont
  /cf Tf def  /cs Tp def
} bd
/ULS {currentpoint /uy exch def /ux exch def} bd
/ULE {
  /Tcx currentpoint pop def
  gsave
  newpath
  cf findfont cs scalefont dup
  /FontMatrix get 0 get /Ts exch def /FontInfo get dup
  /UnderlinePosition get Ts mul /To exch def
  /UnderlineThickness get Ts mul /Tt exch def
  ux uy To add moveto  Tcx uy To add lineto
  Tt setlinewidth stroke
  grestore
} bd
/OLE {
  /Tcx currentpoint pop def
  gsave
  newpath
  cf findfont cs scalefont dup
  /FontMatrix get 0 get /Ts exch def /FontInfo get dup
  /UnderlinePosition get Ts mul /To exch def
  /UnderlineThickness get Ts mul /Tt exch def
  ux uy To add cs add moveto Tcx uy To add cs add lineto
  Tt setlinewidth stroke
  grestore
} bd
/SOE {
  /Tcx currentpoint pop def
  gsave
  newpath
  cf findfont cs scalefont dup
  /FontMatrix get 0 get /Ts exch def /FontInfo get dup
  /UnderlinePosition get Ts mul /To exch def
  /UnderlineThickness get Ts mul /Tt exch def
  ux uy To add cs 10 mul 26 idiv add moveto Tcx uy To add cs 10 mul 26 idiv add lineto
  Tt setlinewidth stroke
  grestore
} bd
/QT {
/Y22 exch store
/X22 exch store
/Y21 exch store
/X21 exch store
currentpoint
/Y21 load 2 mul add 3 div exch
/X21 load 2 mul add 3 div exch
/X21 load 2 mul /X22 load add 3 div
/Y21 load 2 mul /Y22 load add 3 div
/X22 load /Y22 load curveto
} bd
/SSPD {
dup length /d exch dict def
{
/v exch def
/k exch def
currentpagedevice k known {
/cpdv currentpagedevice k get def
v cpdv ne {
/upd false def
/nullv v type /nulltype eq def
/nullcpdv cpdv type /nulltype eq def
nullv nullcpdv or
{
/upd true def
} {
/sametype v type cpdv type eq def
sametype {
v type /arraytype eq {
/vlen v length def
/cpdvlen cpdv length def
vlen cpdvlen eq {
0 1 vlen 1 sub {
/i exch def
/obj v i get def
/cpdobj cpdv i get def
obj cpdobj ne {
/upd true def
exit
} if
} for
} {
/upd true def
} ifelse
} {
v type /dicttype eq {
v {
/dv exch def
/dk exch def
/cpddv cpdv dk get def
dv cpddv ne {
/upd true def
exit
} if
} forall
} {
/upd true def
} ifelse
} ifelse
} if
} ifelse
upd true eq {
d k v put
} if
} if
} if
} forall
d length 0 gt {
d setpagedevice
} if
} bd
/RE { % /NewFontName [NewEncodingArray] /FontName RE -
  findfont dup length dict begin
  {
    1 index /FID ne
    {def} {pop pop} ifelse
  } forall
  /Encoding exch def
  /FontName 1 index def
  currentdict definefont pop
  end
} bind def
%%EndResource
%%BeginResource: procset (Apache XML Graphics EPS ProcSet) 1.0 0
%%Version: 1.0 0
%%Copyright: (Copyright 2002-2003 The Apache Software Foundation. License terms: http://www.apache.org/licenses/LICENSE-2.0)
/BeginEPSF { %def
/b4_Inc_state save def         % Save state for cleanup
/dict_count countdictstack def % Count objects on dict stack
/op_count count 1 sub def      % Count objects on operand stack
userdict begin                 % Push userdict on dict stack
/showpage { } def              % Redefine showpage, { } = null proc
0 setgray 0 setlinecap         % Prepare graphics state
1 setlinewidth 0 setlinejoin
10 setmiterlimit [ ] 0 setdash newpath
/languagelevel where           % If level not equal to 1 then
{pop languagelevel             % set strokeadjust and
1 ne                           % overprint to their defaults.
{false setstrokeadjust false setoverprint
} if
} if
} bd
/EndEPSF { %def
count op_count sub {pop} repeat            % Clean up stacks
countdictstack dict_count sub {end} repeat
b4_Inc_state restore
} bd
%%EndResource
%FOPBeginFontDict
%%IncludeResource: font Courier-Bold
%%IncludeResource: font Helvetica
%%IncludeResource: font Courier-BoldOblique
%%IncludeResource: font Courier-Oblique
%%IncludeResource: font Times-Roman
%%IncludeResource: font Helvetica-BoldOblique
%%IncludeResource: font Helvetica-Bold
%%IncludeResource: font Helvetica-Oblique
%%IncludeResource: font Times-BoldItalic
%%IncludeResource: font Courier
%%IncludeResource: font Times-Italic
%%IncludeResource: font Times-Bold
%%IncludeResource: font Symbol
%%IncludeResource: font ZapfDingbats
%FOPEndFontDict
%%BeginResource: encoding WinAnsiEncoding
/WinAnsiEncoding [
/.notdef /.notdef /.notdef /.notdef /.notdef
/.notdef /.notdef /.notdef /.notdef /.notdef
/.notdef /.notdef /.notdef /.notdef /.notdef
/.notdef /.notdef /.notdef /.notdef /.notdef
/.notdef /.notdef /.notdef /.notdef /.notdef
/.notdef /.notdef /.notdef /.notdef /.notdef
/.notdef /.notdef /space /exclam /quotedbl
/numbersign /dollar /percent /ampersand /quotesingle
/parenleft /parenright /asterisk /plus /comma
/hyphen /period /slash /zero /one
/two /three /four /five /six
/seven /eight /nine /colon /semicolon
/less /equal /greater /question /at
/A /B /C /D /E
/F /G /H /I /J
/K /L /M /N /O
/P /Q /R /S /T
/U /V /W /X /Y
/Z /bracketleft /backslash /bracketright /asciicircum
/underscore /quoteleft /a /b /c
/d /e /f /g /h
/i /j /k /l /m
/n /o /p /q /r
/s /t /u /v /w
/x /y /z /braceleft /bar
/braceright /asciitilde /bullet /Euro /bullet
/quotesinglbase /florin /quotedblbase /ellipsis /dagger
/daggerdbl /circumflex /perthousand /Scaron /guilsinglleft
/OE /bullet /Zcaron /bullet /bullet
/quoteleft /quoteright /quotedblleft /quotedblright /bullet
/endash /emdash /asciitilde /trademark /scaron
/guilsinglright /oe /bullet /zcaron /Ydieresis
/space /exclamdown /cent /sterling /currency
/yen /brokenbar /section /dieresis /copyright
/ordfeminine /guillemotleft /logicalnot /sfthyphen /registered
/macron /degree /plusminus /twosuperior /threesuperior
/acute /mu /paragraph /middot /cedilla
/onesuperior /ordmasculine /guillemotright /onequarter /onehalf
/threequarters /questiondown /Agrave /Aacute /Acircumflex
/Atilde /Adieresis /Aring /AE /Ccedilla
/Egrave /Eacute /Ecircumflex /Edieresis /Igrave
/Iacute /Icircumflex /Idieresis /Eth /Ntilde
/Ograve /Oacute /Ocircumflex /Otilde /Odieresis
/multiply /Oslash /Ugrave /Uacute /Ucircumflex
/Udieresis /Yacute /Thorn /germandbls /agrave
/aacute /acircumflex /atilde /adieresis /aring
/ae /ccedilla /egrave /eacute /ecircumflex
/edieresis /igrave /iacute /icircumflex /idieresis
/eth /ntilde /ograve /oacute /ocircumflex
/otilde /odieresis /divide /oslash /ugrave
/uacute /ucircumflex /udieresis /yacute /thorn
/ydieresis
] def
%%EndResource
%FOPBeginFontReencode
/Courier-Bold findfont
dup length dict begin
  {1 index /FID ne {def} {pop pop} ifelse} forall
  /Encoding WinAnsiEncoding def
  currentdict
end
/Courier-Bold exch definefont pop
/Helvetica findfont
dup length dict begin
  {1 index /FID ne {def} {pop pop} ifelse} forall
  /Encoding WinAnsiEncoding def
  currentdict
end
/Helvetica exch definefont pop
/Courier-BoldOblique findfont
dup length dict begin
  {1 index /FID ne {def} {pop pop} ifelse} forall
  /Encoding WinAnsiEncoding def
  currentdict
end
/Courier-BoldOblique exch definefont pop
/Courier-Oblique findfont
dup length dict begin
  {1 index /FID ne {def} {pop pop} ifelse} forall
  /Encoding WinAnsiEncoding def
  currentdict
end
/Courier-Oblique exch definefont pop
/Times-Roman findfont
dup length dict begin
  {1 index /FID ne {def} {pop pop} ifelse} forall
  /Encoding WinAnsiEncoding def
  currentdict
end
/Times-Roman exch definefont pop
/Helvetica-BoldOblique findfont
dup length dict begin
  {1 index /FID ne {def} {pop pop} ifelse} forall
  /Encoding WinAnsiEncoding def
  currentdict
end
/Helvetica-BoldOblique exch definefont pop
/Helvetica-Bold findfont
dup length dict begin
  {1 index /FID ne {def} {pop pop} ifelse} forall
  /Encoding WinAnsiEncoding def
  currentdict
end
/Helvetica-Bold exch definefont pop
/Helvetica-Oblique findfont
dup length dict begin
  {1 index /FID ne {def} {pop pop} ifelse} forall
  /Encoding WinAnsiEncoding def
  currentdict
end
/Helvetica-Oblique exch definefont pop
/Times-BoldItalic findfont
dup length dict begin
  {1 index /FID ne {def} {pop pop} ifelse} forall
  /Encoding WinAnsiEncoding def
  currentdict
end
/Times-BoldItalic exch definefont pop
/Courier findfont
dup length dict begin
  {1 index /FID ne {def} {pop pop} ifelse} forall
  /Encoding WinAnsiEncoding def
  currentdict
end
/Courier exch definefont pop
/Times-Italic findfont
dup length dict begin
  {1 index /FID ne {def} {pop pop} ifelse} forall
  /Encoding WinAnsiEncoding def
  currentdict
end
/Times-Italic exch definefont pop
/Times-Bold findfont
dup length dict begin
  {1 index /FID ne {def} {pop pop} ifelse} forall
  /Encoding WinAnsiEncoding def
  currentdict
end
/Times-Bold exch definefont pop
%FOPEndFontReencode
%%EndProlog
%%Page: 1 1
%%PageBoundingBox: 0 0 1023 497
%%BeginPageSetup
[1 0 0 -1 0 497] CT
%%EndPageSetup
GS
[0.75 0 0 0.75 0 -0.25] CT
1 GC
N
0 0 1364 663 re
f
GR
GS
[0.75 0 0 0.75 0 -0.25] CT
1 GC
N
0 0 1364 663 re
f
GR
GS
[0.75 0 0 0.75 0 -0.25] CT
1 GC
N
177 590 M
1234 590 L
1234 50 L
177 50 L
cp
f
GR
GS
[0.75 0 0 0.75 0 -0.25] CT
0.149 GC
2 setlinecap
1 LJ
0.667 LW
N
177 590 M
1234 590 L
S
GR
GS
[0.75 0 0 0.75 0 -0.25] CT
0.149 GC
2 setlinecap
1 LJ
0.667 LW
N
177 50 M
1234 50 L
S
GR
GS
[0.75 0 0 0.75 0 -0.25] CT
0.149 GC
2 setlinecap
1 LJ
0.667 LW
N
177 590 M
177 579.43 L
S
GR
GS
[0.75 0 0 0.75 0 -0.25] CT
0.149 GC
2 setlinecap
1 LJ
0.667 LW
N
353.167 590 M
353.167 579.43 L
S
GR
GS
[0.75 0 0 0.75 0 -0.25] CT
0.149 GC
2 setlinecap
1 LJ
0.667 LW
N
529.333 590 M
529.333 579.43 L
S
GR
GS
[0.75 0 0 0.75 0 -0.25] CT
0.149 GC
2 setlinecap
1 LJ
0.667 LW
N
705.5 590 M
705.5 579.43 L
S
GR
GS
[0.75 0 0 0.75 0 -0.25] CT
0.149 GC
2 setlinecap
1 LJ
0.667 LW
N
881.667 590 M
881.667 579.43 L
S
GR
GS
[0.75 0 0 0.75 0 -0.25] CT
0.149 GC
2 setlinecap
1 LJ
0.667 LW
N
1057.833 590 M
1057.833 579.43 L
S
GR
GS
[0.75 0 0 0.75 0 -0.25] CT
0.149 GC
2 setlinecap
1 LJ
0.667 LW
N
1234 590 M
1234 579.43 L
S
GR
GS
[0.75 0 0 0.75 0 -0.25] CT
0.149 GC
2 setlinecap
1 LJ
0.667 LW
N
177 50 M
177 60.57 L
S
GR
GS
[0.75 0 0 0.75 0 -0.25] CT
0.149 GC
2 setlinecap
1 LJ
0.667 LW
N
353.167 50 M
353.167 60.57 L
S
GR
GS
[0.75 0 0 0.75 0 -0.25] CT
0.149 GC
2 setlinecap
1 LJ
0.667 LW
N
529.333 50 M
529.333 60.57 L
S
GR
GS
[0.75 0 0 0.75 0 -0.25] CT
0.149 GC
2 setlinecap
1 LJ
0.667 LW
N
705.5 50 M
705.5 60.57 L
S
GR
GS
[0.75 0 0 0.75 0 -0.25] CT
0.149 GC
2 setlinecap
1 LJ
0.667 LW
N
881.667 50 M
881.667 60.57 L
S
GR
GS
[0.75 0 0 0.75 0 -0.25] CT
0.149 GC
2 setlinecap
1 LJ
0.667 LW
N
1057.833 50 M
1057.833 60.57 L
S
GR
GS
[0.75 0 0 0.75 0 -0.25] CT
0.149 GC
2 setlinecap
1 LJ
0.667 LW
N
1234 50 M
1234 60.57 L
S
GR
GS
[0.75 0 0 0.75 132.75 446.24998] CT
0.149 GC
/Helvetica 13.333 F
GS
[1 0 0 1 0 0] CT
-4.5 13 moveto 
1 -1 scale
(0) t 
GR
GR
GS
[0.75 0 0 0.75 264.87499 446.24998] CT
0.149 GC
/Helvetica 13.333 F
GS
[1 0 0 1 0 0] CT
-12.5 13 moveto 
1 -1 scale
(200) t 
GR
GR
GS
[0.75 0 0 0.75 396.99998 446.24998] CT
0.149 GC
/Helvetica 13.333 F
GS
[1 0 0 1 0 0] CT
-12.5 13 moveto 
1 -1 scale
(400) t 
GR
GR
GS
[0.75 0 0 0.75 529.125 446.24998] CT
0.149 GC
/Helvetica 13.333 F
GS
[1 0 0 1 0 0] CT
-12.5 13 moveto 
1 -1 scale
(600) t 
GR
GR
GS
[0.75 0 0 0.75 661.25002 446.24998] CT
0.149 GC
/Helvetica 13.333 F
GS
[1 0 0 1 0 0] CT
-12.5 13 moveto 
1 -1 scale
(800) t 
GR
GR
GS
[0.75 0 0 0.75 793.37503 446.24998] CT
0.149 GC
/Helvetica 13.333 F
GS
[1 0 0 1 0 0] CT
-17 13 moveto 
1 -1 scale
(1000) t 
GR
GR
GS
[0.75 0 0 0.75 925.5 446.24998] CT
0.149 GC
/Helvetica 13.333 F
GS
[1 0 0 1 0 0] CT
-17 13 moveto 
1 -1 scale
(1200) t 
GR
GR
GS
[0.75 0 0 0.75 0 -0.25] CT
0.149 GC
2 setlinecap
1 LJ
0.667 LW
N
177 590 M
177 50 L
S
GR
GS
[0.75 0 0 0.75 0 -0.25] CT
0.149 GC
2 setlinecap
1 LJ
0.667 LW
N
1234 590 M
1234 50 L
S
GR
GS
[0.75 0 0 0.75 0 -0.25] CT
0.149 GC
2 setlinecap
1 LJ
0.667 LW
N
177 590 M
187.57 590 L
S
GR
GS
[0.75 0 0 0.75 0 -0.25] CT
0.149 GC
2 setlinecap
1 LJ
0.667 LW
N
177 500 M
187.57 500 L
S
GR
GS
[0.75 0 0 0.75 0 -0.25] CT
0.149 GC
2 setlinecap
1 LJ
0.667 LW
N
177 410 M
187.57 410 L
S
GR
GS
[0.75 0 0 0.75 0 -0.25] CT
0.149 GC
2 setlinecap
1 LJ
0.667 LW
N
177 320 M
187.57 320 L
S
GR
GS
[0.75 0 0 0.75 0 -0.25] CT
0.149 GC
2 setlinecap
1 LJ
0.667 LW
N
177 230 M
187.57 230 L
S
GR
GS
[0.75 0 0 0.75 0 -0.25] CT
0.149 GC
2 setlinecap
1 LJ
0.667 LW
N
177 140 M
187.57 140 L
S
GR
GS
[0.75 0 0 0.75 0 -0.25] CT
0.149 GC
2 setlinecap
1 LJ
0.667 LW
N
177 50 M
187.57 50 L
S
GR
GS
[0.75 0 0 0.75 0 -0.25] CT
0.149 GC
2 setlinecap
1 LJ
0.667 LW
N
1234 590 M
1223.43 590 L
S
GR
GS
[0.75 0 0 0.75 0 -0.25] CT
0.149 GC
2 setlinecap
1 LJ
0.667 LW
N
1234 500 M
1223.43 500 L
S
GR
GS
[0.75 0 0 0.75 0 -0.25] CT
0.149 GC
2 setlinecap
1 LJ
0.667 LW
N
1234 410 M
1223.43 410 L
S
GR
GS
[0.75 0 0 0.75 0 -0.25] CT
0.149 GC
2 setlinecap
1 LJ
0.667 LW
N
1234 320 M
1223.43 320 L
S
GR
GS
[0.75 0 0 0.75 0 -0.25] CT
0.149 GC
2 setlinecap
1 LJ
0.667 LW
N
1234 230 M
1223.43 230 L
S
GR
GS
[0.75 0 0 0.75 0 -0.25] CT
0.149 GC
2 setlinecap
1 LJ
0.667 LW
N
1234 140 M
1223.43 140 L
S
GR
GS
[0.75 0 0 0.75 0 -0.25] CT
0.149 GC
2 setlinecap
1 LJ
0.667 LW
N
1234 50 M
1223.43 50 L
S
GR
GS
[0.75 0 0 0.75 128.75 442.25] CT
0.149 GC
/Helvetica 13.333 F
GS
[1 0 0 1 0 0] CT
-26 4.5 moveto 
1 -1 scale
(-1.5) t 
GR
GR
GS
[0.75 0 0 0.75 128.75 374.75] CT
0.149 GC
/Helvetica 13.333 F
GS
[1 0 0 1 0 0] CT
-13 4.5 moveto 
1 -1 scale
(-1) t 
GR
GR
GS
[0.75 0 0 0.75 128.75 307.25] CT
0.149 GC
/Helvetica 13.333 F
GS
[1 0 0 1 0 0] CT
-26 4.5 moveto 
1 -1 scale
(-0.5) t 
GR
GR
GS
[0.75 0 0 0.75 128.75 239.75] CT
0.149 GC
/Helvetica 13.333 F
GS
[1 0 0 1 0 0] CT
-9 4.5 moveto 
1 -1 scale
(0) t 
GR
GR
GS
[0.75 0 0 0.75 128.75 172.25] CT
0.149 GC
/Helvetica 13.333 F
GS
[1 0 0 1 0 0] CT
-21 4.5 moveto 
1 -1 scale
(0.5) t 
GR
GR
GS
[0.75 0 0 0.75 128.75 104.75] CT
0.149 GC
/Helvetica 13.333 F
GS
[1 0 0 1 0 0] CT
-9 4.5 moveto 
1 -1 scale
(1) t 
GR
GR
GS
[0.75 0 0 0.75 128.75 37.25] CT
0.149 GC
/Helvetica 13.333 F
GS
[1 0 0 1 0 0] CT
-21 4.5 moveto 
1 -1 scale
(1.5) t 
GR
GR
GS
[0.75 0 0 0.75 0 -0.25] CT
0 0.447 0.741 RC
1 LJ
0.667 LW
N
177.881 315.049 M
178.762 351.525 L
179.643 335.757 L
180.523 186.626 L
181.404 485.112 L
182.285 380.681 L
183.166 509.353 L
184.047 196.511 L
184.928 127.973 L
185.808 334.172 L
186.689 445.906 L
187.57 170.644 L
188.451 367.415 L
189.332 213.864 L
190.212 225.284 L
191.093 264.16 L
191.974 409.309 L
192.855 433.099 L
193.736 277.557 L
194.617 446.793 L
195.497 388.272 L
196.378 256.01 L
197.259 318.759 L
198.14 292.029 L
199.021 313.392 L
199.902 331.811 L
200.783 416.339 L
201.663 341.17 L
202.544 326.976 L
203.425 257.383 L
204.306 329.72 L
205.187 257.548 L
206.068 290.317 L
206.948 344.107 L
207.829 336.773 L
208.71 295.169 L
209.591 346.424 L
210.472 314.778 L
211.352 345.302 L
212.233 308.642 L
213.114 318.556 L
213.995 348.402 L
214.876 315.112 L
215.757 344.022 L
216.637 347.158 L
217.518 296.691 L
218.399 255.04 L
219.28 322.232 L
220.161 322.799 L
221.042 327.636 L
221.923 326.413 L
222.803 301.273 L
223.684 287.52 L
224.565 341.841 L
225.446 351.717 L
226.327 290.865 L
227.208 364.065 L
228.088 310.793 L
228.969 352.262 L
229.85 328.57 L
230.731 352.435 L
231.612 307.096 L
232.492 304.693 L
233.373 335.541 L
234.254 310.454 L
235.135 326.121 L
236.016 307.855 L
236.897 291.125 L
237.777 329.19 L
238.658 318.264 L
239.539 296.359 L
240.42 300.117 L
241.301 328.326 L
242.182 314.842 L
243.063 345.028 L
243.943 325.581 L
244.824 366.289 L
245.705 319.215 L
246.586 342.059 L
247.467 337.308 L
248.348 316.524 L
249.228 328.004 L
250.109 324.64 L
250.99 352.895 L
251.871 308.042 L
252.752 312.229 L
253.633 296.653 L
254.513 312.794 L
255.394 318.627 L
256.275 291.816 L
257.156 309.472 L
258.037 313.56 L
258.918 323.375 L
259.798 328.185 L
260.679 325.424 L
261.56 318.615 L
262.441 322.721 L
263.322 312.265 L
264.203 317.013 L
265.083 326.302 L
265.964 300.99 L
266.845 320.137 L
267.726 313.544 L
268.607 323.414 L
269.487 309.748 L
270.368 317.598 L
271.249 328.157 L
272.13 305.008 L
273.011 323.43 L
273.892 297.285 L
274.772 315.322 L
275.653 302.967 L
276.534 324.22 L
277.415 319.365 L
278.296 310.637 L
279.177 322.081 L
280.057 320.857 L
280.938 327.987 L
281.819 318.164 L
282.7 315.454 L
283.581 316.532 L
284.462 305.195 L
285.342 298.213 L
286.223 330.606 L
287.104 315.202 L
287.985 308.784 L
288.866 328.983 L
289.747 337.902 L
290.628 315.234 L
291.508 330.149 L
292.389 317.852 L
293.27 312.514 L
294.151 331.732 L
295.032 321.75 L
295.913 318.072 L
296.793 311.359 L
297.674 322.461 L
298.555 319.316 L
299.436 318.489 L
300.317 318.718 L
301.198 325.356 L
302.078 318.128 L
302.959 329.31 L
303.84 314.413 L
304.721 329.286 L
305.602 320.925 L
306.483 302.986 L
307.363 312.86 L
308.244 318.446 L
309.125 318.89 L
310.006 316.169 L
310.887 332.204 L
311.767 319.346 L
312.648 317.156 L
313.529 321.689 L
314.41 323.685 L
315.291 327.598 L
316.172 306.483 L
317.052 305.252 L
317.933 312.177 L
318.814 320.675 L
319.695 313.819 L
320.576 316.668 L
321.457 322.283 L
322.337 323.443 L
323.218 322.378 L
324.099 312.306 L
324.98 312.984 L
325.861 327.036 L
326.742 323.139 L
327.622 318.304 L
328.503 316.094 L
329.384 319.54 L
330.265 321.277 L
331.146 317.745 L
332.027 317.839 L
332.908 321.838 L
333.788 316.979 L
334.669 316.944 L
335.55 331.101 L
336.431 313.916 L
337.312 319.539 L
338.193 317.626 L
339.073 312.438 L
339.954 313.209 L
340.835 314.075 L
341.716 320.729 L
342.597 307.754 L
343.478 315.83 L
344.358 314.753 L
345.239 312.629 L
346.12 315.582 L
347.001 306.444 L
347.882 321.964 L
348.763 319.776 L
349.643 316.595 L
350.524 319.302 L
351.405 318.41 L
352.286 318.945 L
353.167 313.498 L
354.047 321.089 L
354.928 316.388 L
355.809 318.992 L
356.69 335.104 L
357.571 317.43 L
358.452 322.343 L
359.332 318.842 L
360.213 325.895 L
361.094 313.773 L
361.975 325.014 L
362.856 325.356 L
363.737 320.535 L
364.617 311.193 L
365.498 322.395 L
366.379 305.071 L
367.26 316.799 L
368.141 312.627 L
369.022 319.366 L
369.902 301.827 L
370.783 350.655 L
371.664 310.862 L
372.545 315.803 L
373.426 319.438 L
374.307 321.558 L
375.188 326.14 L
376.068 323.643 L
376.949 322.473 L
377.83 318.587 L
378.711 329.081 L
379.592 332.958 L
380.473 320.884 L
381.353 316.128 L
382.234 320.446 L
383.115 324.645 L
383.996 318.236 L
384.877 315.049 L
385.758 328.239 L
386.638 310.644 L
387.519 312.518 L
388.4 320.021 L
389.281 319.792 L
390.162 312.579 L
391.043 328.298 L
391.923 314.892 L
392.804 321.063 L
393.685 323.435 L
394.566 331.704 L
395.447 312.398 L
396.328 315.638 L
397.208 320.113 L
398.089 309.446 L
398.97 317.907 L
399.851 310.196 L
400.732 318.729 L
401.612 315.093 L
402.493 319.17 L
403.374 318.878 L
404.255 300.494 L
405.136 329.22 L
406.017 317.81 L
406.897 317.071 L
407.778 315 L
408.659 325.101 L
409.54 321.784 L
410.421 321.526 L
411.302 324.844 L
412.182 303.677 L
413.063 322 L
413.944 302.301 L
414.825 325.949 L
415.706 326.071 L
416.587 313.547 L
417.467 311.394 L
418.348 329.308 L
419.229 328.589 L
420.11 315.788 L
420.991 319.413 L
421.872 329.568 L
422.753 329.706 L
423.633 314.509 L
424.514 317.865 L
425.395 315.252 L
426.276 315.964 L
427.157 324.729 L
428.038 325.376 L
428.918 320.589 L
429.799 333.445 L
430.68 321.03 L
431.561 321.117 L
432.442 319.072 L
433.323 318.914 L
434.203 324.042 L
435.084 316.26 L
435.965 317.067 L
436.846 308.268 L
437.727 335.003 L
438.608 320.991 L
439.488 322.976 L
440.369 318.185 L
441.25 322.11 L
442.131 317.097 L
443.012 320.392 L
443.892 314.033 L
444.773 323.766 L
445.654 315.7 L
446.535 320.171 L
447.416 340.504 L
448.297 313.126 L
449.177 320.421 L
450.058 316.869 L
450.939 320.863 L
451.82 321.023 L
452.701 316.718 L
453.582 321.421 L
454.462 321.967 L
455.343 317.194 L
456.224 319.817 L
457.105 316.195 L
457.986 312.226 L
458.867 315.425 L
459.747 315.205 L
460.628 320.121 L
461.509 315.867 L
462.39 320.331 L
463.271 313.116 L
464.152 319.508 L
465.033 316.385 L
465.913 321.606 L
466.794 319.249 L
467.675 324.951 L
468.556 330.439 L
469.437 316.862 L
470.318 320.855 L
471.198 313.439 L
472.079 321.491 L
472.96 318.021 L
473.841 319.522 L
474.722 318.616 L
475.603 323.466 L
476.483 319.299 L
477.364 317.416 L
478.245 318.06 L
479.126 314.748 L
480.007 330.197 L
480.888 316.932 L
481.768 315.971 L
482.649 316.216 L
483.53 320.8 L
484.411 318.479 L
485.292 327.872 L
486.172 330.043 L
487.053 321.466 L
487.934 321.617 L
488.815 321.485 L
489.696 320.009 L
490.577 317.173 L
491.457 325.443 L
492.338 321.497 L
493.219 316.234 L
494.1 324.832 L
494.981 327.435 L
495.862 316.527 L
496.742 329.192 L
497.623 324.212 L
498.504 329.232 L
499.385 325.966 L
500.266 325.669 L
501.147 318.672 L
502.027 325.607 L
502.908 324.2 L
503.789 321.095 L
504.67 315.47 L
505.551 346.319 L
506.432 319.704 L
507.313 319.788 L
508.193 309.563 L
509.074 326.441 L
509.955 323.274 L
510.836 318.81 L
511.717 324.981 L
512.597 315.989 L
513.478 325.051 L
514.359 313.098 L
515.24 312.972 L
516.121 310.18 L
517.002 322.23 L
517.883 319.924 L
518.763 329.092 L
519.644 310.71 L
520.525 307.788 L
521.406 315.364 L
522.287 319.49 L
523.167 314.417 L
524.048 313.472 L
524.929 319.33 L
525.81 317.495 L
526.691 325.717 L
527.572 320.766 L
528.453 313.69 L
529.333 323.161 L
530.214 325.959 L
531.095 318.17 L
531.976 308.06 L
532.857 313.959 L
533.737 331.903 L
534.618 318.194 L
535.499 329.489 L
536.38 318.602 L
537.261 319.742 L
538.142 322.49 L
539.023 325.784 L
539.903 324.151 L
540.784 321.054 L
541.665 320.287 L
542.546 331.295 L
543.427 326.53 L
544.307 325.18 L
545.188 320.89 L
546.069 323.918 L
546.95 321.5 L
547.831 322.258 L
548.712 319.003 L
549.593 317.339 L
550.473 311.319 L
551.354 318.151 L
552.235 317.555 L
553.116 318.073 L
553.997 328.22 L
554.878 318.732 L
555.758 330.891 L
556.639 312.358 L
557.52 328.012 L
558.401 323.458 L
559.282 316.897 L
560.162 315.946 L
561.043 316.728 L
561.924 318.219 L
562.805 324.225 L
563.686 325.859 L
564.567 324.478 L
565.448 320.632 L
566.328 323.172 L
567.209 320.204 L
568.09 319.242 L
568.971 318.25 L
569.852 322.039 L
570.732 323.313 L
571.613 320.43 L
572.494 317.706 L
573.375 322.353 L
574.256 315.097 L
575.137 312.797 L
576.018 326.181 L
576.898 323.017 L
577.779 317.796 L
578.66 316.073 L
579.541 308.563 L
580.422 319.018 L
581.302 314.57 L
582.183 313.957 L
583.064 316.569 L
583.945 321.175 L
584.826 319.817 L
585.707 315.591 L
586.588 321.408 L
587.468 323.893 L
588.349 318.681 L
589.23 317.72 L
590.111 315.626 L
590.992 323.189 L
591.872 324.876 L
592.753 326.978 L
593.634 323.304 L
594.515 318.325 L
595.396 320.785 L
596.277 315.571 L
597.157 321.342 L
598.038 319.759 L
598.919 320.451 L
599.8 319.212 L
600.681 321.153 L
601.562 323.368 L
602.443 317.221 L
603.323 320.523 L
604.204 321.251 L
605.085 321.406 L
605.966 324.222 L
606.847 321.892 L
607.727 320.617 L
608.608 320.18 L
609.489 319.434 L
610.37 322.244 L
611.251 317.872 L
612.132 320.532 L
613.013 321.882 L
613.893 319.288 L
614.774 313.244 L
615.655 324.571 L
616.536 317.627 L
617.417 323.194 L
618.297 322.504 L
619.178 319.251 L
620.059 322.414 L
620.94 320.38 L
621.821 319.49 L
622.702 321.535 L
623.583 323.961 L
624.463 323.955 L
625.344 322.153 L
626.225 322.695 L
627.106 319.599 L
627.987 311.415 L
628.867 327.587 L
629.748 315.878 L
630.629 323.488 L
631.51 321.958 L
632.391 319.275 L
633.272 324.176 L
634.153 316.75 L
635.033 319.625 L
635.914 319.546 L
636.795 321.97 L
637.676 322.207 L
638.557 321.143 L
639.438 317.236 L
640.318 322.905 L
641.199 317.401 L
642.08 316.874 L
642.961 324.087 L
643.842 320.428 L
644.722 323.488 L
645.603 318.558 L
646.484 317.339 L
647.365 319.88 L
648.246 328.832 L
649.127 321.238 L
650.008 321.253 L
650.888 318.745 L
651.769 312.743 L
652.65 320.322 L
653.531 315.559 L
654.412 325.076 L
655.292 320.879 L
656.173 320.017 L
657.054 316.234 L
657.935 325.053 L
658.816 316.224 L
659.697 325.442 L
660.578 318.34 L
661.458 313.89 L
662.339 312.62 L
663.22 318.5 L
664.101 319.527 L
664.982 319.171 L
665.862 318.722 L
666.743 320.253 L
667.624 320.992 L
668.505 321.843 L
669.386 320.407 L
670.267 319.595 L
671.148 319.435 L
672.028 320.856 L
672.909 321.372 L
673.79 320.361 L
674.671 315.536 L
675.552 321.66 L
676.432 323.667 L
677.313 317.374 L
678.194 319.175 L
679.075 320.586 L
679.956 322.554 L
680.837 318.159 L
681.718 320.243 L
682.598 321.463 L
683.479 319.311 L
684.36 320.389 L
685.241 318.534 L
686.122 318.667 L
687.003 318.346 L
687.883 319.295 L
688.764 318.934 L
689.645 319.365 L
690.526 317.864 L
691.407 318.789 L
692.287 321.67 L
693.168 320.805 L
694.049 316.877 L
694.93 318.592 L
695.811 318.802 L
696.692 323.086 L
697.573 317.874 L
698.453 319.179 L
699.334 324.648 L
700.215 319.321 L
701.096 321.434 L
701.977 316.969 L
702.857 320.322 L
703.738 317.309 L
704.619 321.003 L
705.5 315.77 L
706.381 320.493 L
707.262 323.999 L
708.143 321.483 L
709.023 319.688 L
709.904 320.818 L
710.785 322.857 L
711.666 315.105 L
712.547 319.475 L
713.427 319.425 L
714.308 316.586 L
715.189 321.836 L
716.07 320.448 L
716.951 323.693 L
717.832 323.887 L
718.713 320.059 L
719.593 319.63 L
720.474 325.309 L
721.355 322.106 L
722.236 321.354 L
723.117 321.434 L
723.997 320.128 L
724.878 320.217 L
725.759 320.75 L
726.64 320.526 L
727.521 320.972 L
728.402 320.356 L
729.282 320.337 L
730.163 318.581 L
731.044 320.137 L
731.925 322.275 L
732.806 318.986 L
733.687 322.986 L
734.568 321.352 L
735.448 319.675 L
736.329 320.762 L
737.21 316.44 L
738.091 321.371 L
738.972 320.999 L
739.852 320.574 L
740.733 319.451 L
741.614 320.141 L
742.495 319.752 L
743.376 319.168 L
744.257 319.838 L
745.138 319.327 L
746.018 320.063 L
746.899 319.23 L
747.78 319.907 L
748.661 319.121 L
749.542 321.366 L
750.422 319.228 L
751.303 319.769 L
752.184 316.041 L
753.065 320.538 L
753.946 315.734 L
754.827 314.869 L
755.708 319.208 L
756.588 319.558 L
757.469 317.953 L
758.35 317.34 L
759.231 320.258 L
760.112 319.439 L
760.992 317.704 L
761.873 319.682 L
762.754 319.384 L
763.635 319.505 L
764.516 318.704 L
765.397 317.15 L
766.278 317.153 L
767.158 320.095 L
768.039 318.984 L
768.92 316.794 L
769.801 320.547 L
770.682 321.559 L
771.563 323.224 L
772.443 320.594 L
773.324 315.306 L
774.205 316.316 L
775.086 318.393 L
775.967 318.738 L
776.847 319.719 L
777.728 320.753 L
778.609 322.549 L
779.49 322.44 L
780.371 321.32 L
781.252 319.161 L
782.133 322.073 L
783.013 316.769 L
783.894 322.052 L
784.775 320.403 L
785.656 321.034 L
786.537 319.361 L
787.417 321.339 L
788.298 319.647 L
789.179 320.113 L
790.06 318.938 L
790.941 317.2 L
791.822 320.375 L
792.703 324.916 L
793.583 320.727 L
794.464 321.502 L
795.345 321.617 L
796.226 319.548 L
797.107 318.767 L
797.987 320.066 L
798.868 322.491 L
799.749 320.337 L
800.63 319.767 L
801.511 319.674 L
802.392 319.448 L
803.273 320.808 L
804.153 319.439 L
805.034 320.438 L
805.915 321.149 L
806.796 321.351 L
807.677 319.614 L
808.557 320.414 L
809.438 319.683 L
810.319 318.144 L
811.2 318.153 L
812.081 320.684 L
812.962 318.714 L
813.843 319.415 L
814.723 319.193 L
815.604 320.271 L
816.485 320.247 L
817.366 320.962 L
818.247 316.563 L
819.128 320.755 L
820.008 319.269 L
820.889 323.443 L
821.77 317.964 L
822.651 320.328 L
823.532 323.497 L
824.412 316.764 L
825.293 321.206 L
826.174 324.083 L
827.055 318.046 L
827.936 321.631 L
828.817 321.409 L
829.698 320.028 L
830.578 319.241 L
831.459 320.144 L
832.34 320.051 L
833.221 320.569 L
834.102 319.572 L
834.982 322.546 L
835.863 321.085 L
836.744 320.861 L
837.625 321.108 L
838.506 320.043 L
839.387 319.785 L
840.268 321.547 L
841.148 318.722 L
842.029 320.909 L
842.91 320.712 L
843.791 319.374 L
844.672 320.246 L
845.552 320.124 L
846.433 319.271 L
847.314 318.683 L
848.195 320.321 L
849.076 319.336 L
849.957 321.489 L
850.838 317.827 L
851.718 322.18 L
852.599 320.081 L
853.48 319.919 L
854.361 320.701 L
855.242 320.022 L
856.122 318.703 L
857.003 321.641 L
857.884 317.873 L
858.765 318.324 L
859.646 320.195 L
860.527 318.826 L
861.407 320.048 L
862.288 319.844 L
863.169 320.771 L
864.05 319.977 L
864.931 321.381 L
865.812 319.632 L
866.693 320.581 L
867.573 320.039 L
868.454 319.865 L
869.335 318.856 L
870.216 319.477 L
871.097 319.904 L
871.977 319.646 L
872.858 319.778 L
873.739 320.885 L
874.62 320.504 L
875.501 319.989 L
876.382 318.838 L
877.263 318.979 L
878.143 320.955 L
879.024 319.698 L
879.905 318.788 L
880.786 319.346 L
881.667 318.593 L
882.547 318.502 L
883.428 319.434 L
884.309 318.388 L
885.19 319.75 L
886.071 320.421 L
886.952 320.228 L
887.833 320.607 L
888.713 319.75 L
889.594 320.204 L
890.475 321.137 L
891.356 320.314 L
892.237 319.285 L
893.117 319.696 L
893.998 321.088 L
894.879 321.889 L
895.76 320.545 L
896.641 319.225 L
897.522 321.083 L
898.403 319.107 L
899.283 319.534 L
900.164 320.073 L
901.045 320.283 L
901.926 320.051 L
902.807 319.861 L
903.688 318.735 L
904.568 319.573 L
905.449 321.209 L
906.33 319.758 L
907.211 320.596 L
908.092 318.923 L
908.972 318.416 L
909.853 321.008 L
910.734 319.975 L
911.615 320.893 L
912.496 318.47 L
913.377 321.455 L
914.258 322.542 L
915.138 318.899 L
916.019 319.723 L
916.9 319.781 L
917.781 320.173 L
918.662 319.511 L
919.542 319.971 L
920.423 319.246 L
921.304 318.796 L
922.185 319.849 L
923.066 319.872 L
923.947 319.758 L
924.828 320.323 L
925.708 319.758 L
926.589 319.727 L
927.47 319.33 L
928.351 320.776 L
929.232 319.936 L
930.112 321.549 L
930.993 319.458 L
931.874 318.795 L
932.755 320.727 L
933.636 320.647 L
934.517 318.954 L
935.398 319.856 L
936.278 319.277 L
937.159 322.128 L
938.04 318.481 L
938.921 319.434 L
939.802 319.654 L
940.682 319.551 L
941.563 319.449 L
942.444 320.493 L
943.325 320.151 L
944.206 319.931 L
945.087 317.671 L
945.968 318.753 L
946.848 319.692 L
947.729 320.223 L
948.61 319.839 L
949.491 320.152 L
950.372 320.871 L
951.253 319.5 L
952.133 319.833 L
953.014 319.727 L
953.895 320.388 L
954.776 319.002 L
955.657 320.594 L
956.537 319.868 L
957.418 320.25 L
958.299 319.865 L
959.18 320.866 L
960.061 320.313 L
960.942 320.372 L
961.823 320.71 L
962.703 319.612 L
963.584 319.933 L
964.465 320.552 L
965.346 320.102 L
966.227 320.072 L
967.107 320.138 L
967.988 320.103 L
968.869 319.581 L
969.75 320.336 L
970.631 319.894 L
971.512 319.245 L
972.393 318.252 L
973.273 319.499 L
974.154 320.045 L
975.035 319.944 L
975.916 319.778 L
976.797 320.158 L
977.677 319.711 L
978.558 320.281 L
979.439 319.619 L
980.32 320.124 L
981.201 319.789 L
982.082 320.106 L
982.963 318.839 L
983.843 319.98 L
984.724 319.788 L
985.605 320.225 L
986.486 320.399 L
987.367 320.36 L
988.247 320.572 L
989.128 319.933 L
990.009 319.807 L
990.89 320.135 L
991.771 320.251 L
992.652 320.268 L
993.532 319.979 L
994.413 320.345 L
995.294 319.949 L
996.175 320.243 L
997.056 319.982 L
997.937 319.992 L
998.818 320.145 L
999.698 319.9 L
1000.579 319.886 L
1001.46 320.062 L
1002.341 319.85 L
1003.222 320.133 L
1004.102 319.974 L
1004.983 319.969 L
1005.864 319.944 L
1006.745 320.061 L
1007.626 320.02 L
1008.507 319.981 L
1009.388 319.954 L
1010.268 320.059 L
1011.149 319.955 L
1012.03 320.069 L
1012.911 319.991 L
1013.792 319.992 L
1014.672 320.017 L
1015.553 319.995 L
1016.434 319.982 L
1017.315 319.998 L
1018.196 319.972 L
1019.077 320.005 L
1019.958 319.974 L
1020.838 319.978 L
1021.719 319.993 L
1022.6 320.003 L
1023.481 319.997 L
1024.362 319.994 L
1025.243 319.995 L
1026.123 319.992 L
1027.004 320.002 L
1027.885 319.997 L
1028.766 319.998 L
1029.647 319.998 L
1030.527 320.002 L
1031.408 320.004 L
1032.289 320.001 L
1033.17 320.002 L
1034.051 319.999 L
1034.932 319.995 L
1035.813 320 L
1036.693 319.998 L
1037.574 319.996 L
1038.455 319.998 L
1039.336 320.002 L
1040.217 320.004 L
1041.098 320.002 L
1041.978 320 L
1042.859 320.005 L
1043.74 320.004 L
1044.621 320.001 L
1045.502 319.997 L
1046.382 320.002 L
1047.263 319.994 L
1048.144 320.002 L
1049.025 320.004 L
1049.906 320.003 L
1050.787 320.002 L
1051.667 319.998 L
1052.548 320.002 L
1053.429 319.996 L
1054.31 319.997 L
1055.191 319.995 L
1056.072 319.999 L
1056.953 319.997 L
1057.833 320.001 L
1058.714 319.995 L
1059.595 319.998 L
1060.476 320.001 L
1061.357 320 L
1062.238 319.999 L
1063.118 319.993 L
1063.999 320.005 L
1064.88 320.003 L
1065.761 320.002 L
1066.642 319.998 L
1067.522 320.002 L
1068.403 319.998 L
1069.284 320.002 L
1070.165 320 L
1071.046 320.006 L
1071.927 319.999 L
1072.807 319.995 L
1073.688 319.998 L
1074.569 319.997 L
1075.45 320.001 L
1076.331 320 L
1077.212 319.999 L
1078.093 320.003 L
1078.973 320 L
S
GR
%%Trailer
%%Pages: 1
%%EOF
