%!PS-Adobe-3.0 EPSF-3.0
%%Creator: (MATLAB, The Mathworks, Inc. Version 9.2.0.538062 \(R2017a\). Operating System: Linux)
%%Title: /home/chris/Storage/christina/Desktop/THMMY/????????/Project/authMultimediaAssignment2018/Level_3/frame_2_SL.eps
%%CreationDate: 2019-02-17T19:36:50
%%Pages: (atend)
%%BoundingBox: 0 0 420 315
%%LanguageLevel: 3
%%EndComments
%%BeginProlog
%%BeginResource: procset (Apache XML Graphics Std ProcSet) 1.2 0
%%Version: 1.2 0
%%Copyright: (Copyright 2001-2003,2010 The Apache Software Foundation. License terms: http://www.apache.org/licenses/LICENSE-2.0)
/bd{bind def}bind def
/ld{load def}bd
/GR/grestore ld
/M/moveto ld
/LJ/setlinejoin ld
/C/curveto ld
/f/fill ld
/LW/setlinewidth ld
/GC/setgray ld
/t/show ld
/N/newpath ld
/CT/concat ld
/cp/closepath ld
/S/stroke ld
/L/lineto ld
/CC/setcmykcolor ld
/A/ashow ld
/GS/gsave ld
/RC/setrgbcolor ld
/RM/rmoveto ld
/ML/setmiterlimit ld
/re {4 2 roll M
1 index 0 rlineto
0 exch rlineto
neg 0 rlineto
cp } bd
/_ctm matrix def
/_tm matrix def
/BT { _ctm currentmatrix pop matrix _tm copy pop 0 0 moveto } bd
/ET { _ctm setmatrix } bd
/iTm { _ctm setmatrix _tm concat } bd
/Tm { _tm astore pop iTm 0 0 moveto } bd
/ux 0.0 def
/uy 0.0 def
/F {
  /Tp exch def
  /Tf exch def
  Tf findfont Tp scalefont setfont
  /cf Tf def  /cs Tp def
} bd
/ULS {currentpoint /uy exch def /ux exch def} bd
/ULE {
  /Tcx currentpoint pop def
  gsave
  newpath
  cf findfont cs scalefont dup
  /FontMatrix get 0 get /Ts exch def /FontInfo get dup
  /UnderlinePosition get Ts mul /To exch def
  /UnderlineThickness get Ts mul /Tt exch def
  ux uy To add moveto  Tcx uy To add lineto
  Tt setlinewidth stroke
  grestore
} bd
/OLE {
  /Tcx currentpoint pop def
  gsave
  newpath
  cf findfont cs scalefont dup
  /FontMatrix get 0 get /Ts exch def /FontInfo get dup
  /UnderlinePosition get Ts mul /To exch def
  /UnderlineThickness get Ts mul /Tt exch def
  ux uy To add cs add moveto Tcx uy To add cs add lineto
  Tt setlinewidth stroke
  grestore
} bd
/SOE {
  /Tcx currentpoint pop def
  gsave
  newpath
  cf findfont cs scalefont dup
  /FontMatrix get 0 get /Ts exch def /FontInfo get dup
  /UnderlinePosition get Ts mul /To exch def
  /UnderlineThickness get Ts mul /Tt exch def
  ux uy To add cs 10 mul 26 idiv add moveto Tcx uy To add cs 10 mul 26 idiv add lineto
  Tt setlinewidth stroke
  grestore
} bd
/QT {
/Y22 exch store
/X22 exch store
/Y21 exch store
/X21 exch store
currentpoint
/Y21 load 2 mul add 3 div exch
/X21 load 2 mul add 3 div exch
/X21 load 2 mul /X22 load add 3 div
/Y21 load 2 mul /Y22 load add 3 div
/X22 load /Y22 load curveto
} bd
/SSPD {
dup length /d exch dict def
{
/v exch def
/k exch def
currentpagedevice k known {
/cpdv currentpagedevice k get def
v cpdv ne {
/upd false def
/nullv v type /nulltype eq def
/nullcpdv cpdv type /nulltype eq def
nullv nullcpdv or
{
/upd true def
} {
/sametype v type cpdv type eq def
sametype {
v type /arraytype eq {
/vlen v length def
/cpdvlen cpdv length def
vlen cpdvlen eq {
0 1 vlen 1 sub {
/i exch def
/obj v i get def
/cpdobj cpdv i get def
obj cpdobj ne {
/upd true def
exit
} if
} for
} {
/upd true def
} ifelse
} {
v type /dicttype eq {
v {
/dv exch def
/dk exch def
/cpddv cpdv dk get def
dv cpddv ne {
/upd true def
exit
} if
} forall
} {
/upd true def
} ifelse
} ifelse
} if
} ifelse
upd true eq {
d k v put
} if
} if
} if
} forall
d length 0 gt {
d setpagedevice
} if
} bd
/RE { % /NewFontName [NewEncodingArray] /FontName RE -
  findfont dup length dict begin
  {
    1 index /FID ne
    {def} {pop pop} ifelse
  } forall
  /Encoding exch def
  /FontName 1 index def
  currentdict definefont pop
  end
} bind def
%%EndResource
%%BeginResource: procset (Apache XML Graphics EPS ProcSet) 1.0 0
%%Version: 1.0 0
%%Copyright: (Copyright 2002-2003 The Apache Software Foundation. License terms: http://www.apache.org/licenses/LICENSE-2.0)
/BeginEPSF { %def
/b4_Inc_state save def         % Save state for cleanup
/dict_count countdictstack def % Count objects on dict stack
/op_count count 1 sub def      % Count objects on operand stack
userdict begin                 % Push userdict on dict stack
/showpage { } def              % Redefine showpage, { } = null proc
0 setgray 0 setlinecap         % Prepare graphics state
1 setlinewidth 0 setlinejoin
10 setmiterlimit [ ] 0 setdash newpath
/languagelevel where           % If level not equal to 1 then
{pop languagelevel             % set strokeadjust and
1 ne                           % overprint to their defaults.
{false setstrokeadjust false setoverprint
} if
} if
} bd
/EndEPSF { %def
count op_count sub {pop} repeat            % Clean up stacks
countdictstack dict_count sub {end} repeat
b4_Inc_state restore
} bd
%%EndResource
%FOPBeginFontDict
%%IncludeResource: font Courier-Bold
%%IncludeResource: font Helvetica
%%IncludeResource: font Courier-BoldOblique
%%IncludeResource: font Courier-Oblique
%%IncludeResource: font Times-Roman
%%IncludeResource: font Helvetica-BoldOblique
%%IncludeResource: font Helvetica-Bold
%%IncludeResource: font Helvetica-Oblique
%%IncludeResource: font Times-BoldItalic
%%IncludeResource: font Courier
%%IncludeResource: font Times-Italic
%%IncludeResource: font Times-Bold
%%IncludeResource: font Symbol
%%IncludeResource: font ZapfDingbats
%FOPEndFontDict
%%BeginResource: encoding WinAnsiEncoding
/WinAnsiEncoding [
/.notdef /.notdef /.notdef /.notdef /.notdef
/.notdef /.notdef /.notdef /.notdef /.notdef
/.notdef /.notdef /.notdef /.notdef /.notdef
/.notdef /.notdef /.notdef /.notdef /.notdef
/.notdef /.notdef /.notdef /.notdef /.notdef
/.notdef /.notdef /.notdef /.notdef /.notdef
/.notdef /.notdef /space /exclam /quotedbl
/numbersign /dollar /percent /ampersand /quotesingle
/parenleft /parenright /asterisk /plus /comma
/hyphen /period /slash /zero /one
/two /three /four /five /six
/seven /eight /nine /colon /semicolon
/less /equal /greater /question /at
/A /B /C /D /E
/F /G /H /I /J
/K /L /M /N /O
/P /Q /R /S /T
/U /V /W /X /Y
/Z /bracketleft /backslash /bracketright /asciicircum
/underscore /quoteleft /a /b /c
/d /e /f /g /h
/i /j /k /l /m
/n /o /p /q /r
/s /t /u /v /w
/x /y /z /braceleft /bar
/braceright /asciitilde /bullet /Euro /bullet
/quotesinglbase /florin /quotedblbase /ellipsis /dagger
/daggerdbl /circumflex /perthousand /Scaron /guilsinglleft
/OE /bullet /Zcaron /bullet /bullet
/quoteleft /quoteright /quotedblleft /quotedblright /bullet
/endash /emdash /asciitilde /trademark /scaron
/guilsinglright /oe /bullet /zcaron /Ydieresis
/space /exclamdown /cent /sterling /currency
/yen /brokenbar /section /dieresis /copyright
/ordfeminine /guillemotleft /logicalnot /sfthyphen /registered
/macron /degree /plusminus /twosuperior /threesuperior
/acute /mu /paragraph /middot /cedilla
/onesuperior /ordmasculine /guillemotright /onequarter /onehalf
/threequarters /questiondown /Agrave /Aacute /Acircumflex
/Atilde /Adieresis /Aring /AE /Ccedilla
/Egrave /Eacute /Ecircumflex /Edieresis /Igrave
/Iacute /Icircumflex /Idieresis /Eth /Ntilde
/Ograve /Oacute /Ocircumflex /Otilde /Odieresis
/multiply /Oslash /Ugrave /Uacute /Ucircumflex
/Udieresis /Yacute /Thorn /germandbls /agrave
/aacute /acircumflex /atilde /adieresis /aring
/ae /ccedilla /egrave /eacute /ecircumflex
/edieresis /igrave /iacute /icircumflex /idieresis
/eth /ntilde /ograve /oacute /ocircumflex
/otilde /odieresis /divide /oslash /ugrave
/uacute /ucircumflex /udieresis /yacute /thorn
/ydieresis
] def
%%EndResource
%FOPBeginFontReencode
/Courier-Bold findfont
dup length dict begin
  {1 index /FID ne {def} {pop pop} ifelse} forall
  /Encoding WinAnsiEncoding def
  currentdict
end
/Courier-Bold exch definefont pop
/Helvetica findfont
dup length dict begin
  {1 index /FID ne {def} {pop pop} ifelse} forall
  /Encoding WinAnsiEncoding def
  currentdict
end
/Helvetica exch definefont pop
/Courier-BoldOblique findfont
dup length dict begin
  {1 index /FID ne {def} {pop pop} ifelse} forall
  /Encoding WinAnsiEncoding def
  currentdict
end
/Courier-BoldOblique exch definefont pop
/Courier-Oblique findfont
dup length dict begin
  {1 index /FID ne {def} {pop pop} ifelse} forall
  /Encoding WinAnsiEncoding def
  currentdict
end
/Courier-Oblique exch definefont pop
/Times-Roman findfont
dup length dict begin
  {1 index /FID ne {def} {pop pop} ifelse} forall
  /Encoding WinAnsiEncoding def
  currentdict
end
/Times-Roman exch definefont pop
/Helvetica-BoldOblique findfont
dup length dict begin
  {1 index /FID ne {def} {pop pop} ifelse} forall
  /Encoding WinAnsiEncoding def
  currentdict
end
/Helvetica-BoldOblique exch definefont pop
/Helvetica-Bold findfont
dup length dict begin
  {1 index /FID ne {def} {pop pop} ifelse} forall
  /Encoding WinAnsiEncoding def
  currentdict
end
/Helvetica-Bold exch definefont pop
/Helvetica-Oblique findfont
dup length dict begin
  {1 index /FID ne {def} {pop pop} ifelse} forall
  /Encoding WinAnsiEncoding def
  currentdict
end
/Helvetica-Oblique exch definefont pop
/Times-BoldItalic findfont
dup length dict begin
  {1 index /FID ne {def} {pop pop} ifelse} forall
  /Encoding WinAnsiEncoding def
  currentdict
end
/Times-BoldItalic exch definefont pop
/Courier findfont
dup length dict begin
  {1 index /FID ne {def} {pop pop} ifelse} forall
  /Encoding WinAnsiEncoding def
  currentdict
end
/Courier exch definefont pop
/Times-Italic findfont
dup length dict begin
  {1 index /FID ne {def} {pop pop} ifelse} forall
  /Encoding WinAnsiEncoding def
  currentdict
end
/Times-Italic exch definefont pop
/Times-Bold findfont
dup length dict begin
  {1 index /FID ne {def} {pop pop} ifelse} forall
  /Encoding WinAnsiEncoding def
  currentdict
end
/Times-Bold exch definefont pop
%FOPEndFontReencode
%%EndProlog
%%Page: 1 1
%%PageBoundingBox: 0 0 420 315
%%BeginPageSetup
[1 0 0 -1 0 315] CT
%%EndPageSetup
GS
[0.75 0 0 0.75 0 0] CT
1 GC
N
0 0 560 420 re
f
GR
GS
[0.75 0 0 0.75 0 0] CT
1 GC
N
0 0 560 420 re
f
GR
GS
[0.75 0 0 0.75 0 0] CT
1 GC
N
73 374 M
507 374 L
507 31 L
73 31 L
cp
f
GR
GS
[0.75 0 0 0.75 0 0] CT
0.149 GC
2 setlinecap
1 LJ
0.667 LW
N
73 374 M
507 374 L
S
GR
GS
[0.75 0 0 0.75 0 0] CT
0.149 GC
2 setlinecap
1 LJ
0.667 LW
N
73 31 M
507 31 L
S
GR
GS
[0.75 0 0 0.75 0 0] CT
0.149 GC
2 setlinecap
1 LJ
0.667 LW
N
73 374 M
73 369.66 L
S
GR
GS
[0.75 0 0 0.75 0 0] CT
0.149 GC
2 setlinecap
1 LJ
0.667 LW
N
145.333 374 M
145.333 369.66 L
S
GR
GS
[0.75 0 0 0.75 0 0] CT
0.149 GC
2 setlinecap
1 LJ
0.667 LW
N
217.667 374 M
217.667 369.66 L
S
GR
GS
[0.75 0 0 0.75 0 0] CT
0.149 GC
2 setlinecap
1 LJ
0.667 LW
N
290 374 M
290 369.66 L
S
GR
GS
[0.75 0 0 0.75 0 0] CT
0.149 GC
2 setlinecap
1 LJ
0.667 LW
N
362.333 374 M
362.333 369.66 L
S
GR
GS
[0.75 0 0 0.75 0 0] CT
0.149 GC
2 setlinecap
1 LJ
0.667 LW
N
434.667 374 M
434.667 369.66 L
S
GR
GS
[0.75 0 0 0.75 0 0] CT
0.149 GC
2 setlinecap
1 LJ
0.667 LW
N
507 374 M
507 369.66 L
S
GR
GS
[0.75 0 0 0.75 0 0] CT
0.149 GC
2 setlinecap
1 LJ
0.667 LW
N
73 31 M
73 35.34 L
S
GR
GS
[0.75 0 0 0.75 0 0] CT
0.149 GC
2 setlinecap
1 LJ
0.667 LW
N
145.333 31 M
145.333 35.34 L
S
GR
GS
[0.75 0 0 0.75 0 0] CT
0.149 GC
2 setlinecap
1 LJ
0.667 LW
N
217.667 31 M
217.667 35.34 L
S
GR
GS
[0.75 0 0 0.75 0 0] CT
0.149 GC
2 setlinecap
1 LJ
0.667 LW
N
290 31 M
290 35.34 L
S
GR
GS
[0.75 0 0 0.75 0 0] CT
0.149 GC
2 setlinecap
1 LJ
0.667 LW
N
362.333 31 M
362.333 35.34 L
S
GR
GS
[0.75 0 0 0.75 0 0] CT
0.149 GC
2 setlinecap
1 LJ
0.667 LW
N
434.667 31 M
434.667 35.34 L
S
GR
GS
[0.75 0 0 0.75 0 0] CT
0.149 GC
2 setlinecap
1 LJ
0.667 LW
N
507 31 M
507 35.34 L
S
GR
GS
[0.75 0 0 0.75 54.75 284.50001] CT
0.149 GC
/Helvetica 13.333 F
GS
[1 0 0 1 0 0] CT
-4.5 13 moveto 
1 -1 scale
(0) t 
GR
GR
GS
[0.75 0 0 0.75 109 284.50001] CT
0.149 GC
/Helvetica 13.333 F
GS
[1 0 0 1 0 0] CT
-12.5 13 moveto 
1 -1 scale
(200) t 
GR
GR
GS
[0.75 0 0 0.75 163.25 284.50001] CT
0.149 GC
/Helvetica 13.333 F
GS
[1 0 0 1 0 0] CT
-12.5 13 moveto 
1 -1 scale
(400) t 
GR
GR
GS
[0.75 0 0 0.75 217.5 284.50001] CT
0.149 GC
/Helvetica 13.333 F
GS
[1 0 0 1 0 0] CT
-12.5 13 moveto 
1 -1 scale
(600) t 
GR
GR
GS
[0.75 0 0 0.75 271.75001 284.50001] CT
0.149 GC
/Helvetica 13.333 F
GS
[1 0 0 1 0 0] CT
-12.5 13 moveto 
1 -1 scale
(800) t 
GR
GR
GS
[0.75 0 0 0.75 325.99999 284.50001] CT
0.149 GC
/Helvetica 13.333 F
GS
[1 0 0 1 0 0] CT
-17 13 moveto 
1 -1 scale
(1000) t 
GR
GR
GS
[0.75 0 0 0.75 380.25 284.50001] CT
0.149 GC
/Helvetica 13.333 F
GS
[1 0 0 1 0 0] CT
-17 13 moveto 
1 -1 scale
(1200) t 
GR
GR
GS
[0.75 0 0 0.75 0 0] CT
0.149 GC
2 setlinecap
1 LJ
0.667 LW
N
73 374 M
73 31 L
S
GR
GS
[0.75 0 0 0.75 0 0] CT
0.149 GC
2 setlinecap
1 LJ
0.667 LW
N
507 374 M
507 31 L
S
GR
GS
[0.75 0 0 0.75 0 0] CT
0.149 GC
2 setlinecap
1 LJ
0.667 LW
N
73 374 M
77.34 374 L
S
GR
GS
[0.75 0 0 0.75 0 0] CT
0.149 GC
2 setlinecap
1 LJ
0.667 LW
N
73 335.889 M
77.34 335.889 L
S
GR
GS
[0.75 0 0 0.75 0 0] CT
0.149 GC
2 setlinecap
1 LJ
0.667 LW
N
73 297.778 M
77.34 297.778 L
S
GR
GS
[0.75 0 0 0.75 0 0] CT
0.149 GC
2 setlinecap
1 LJ
0.667 LW
N
73 259.667 M
77.34 259.667 L
S
GR
GS
[0.75 0 0 0.75 0 0] CT
0.149 GC
2 setlinecap
1 LJ
0.667 LW
N
73 221.556 M
77.34 221.556 L
S
GR
GS
[0.75 0 0 0.75 0 0] CT
0.149 GC
2 setlinecap
1 LJ
0.667 LW
N
73 183.444 M
77.34 183.444 L
S
GR
GS
[0.75 0 0 0.75 0 0] CT
0.149 GC
2 setlinecap
1 LJ
0.667 LW
N
73 145.333 M
77.34 145.333 L
S
GR
GS
[0.75 0 0 0.75 0 0] CT
0.149 GC
2 setlinecap
1 LJ
0.667 LW
N
73 107.222 M
77.34 107.222 L
S
GR
GS
[0.75 0 0 0.75 0 0] CT
0.149 GC
2 setlinecap
1 LJ
0.667 LW
N
73 69.111 M
77.34 69.111 L
S
GR
GS
[0.75 0 0 0.75 0 0] CT
0.149 GC
2 setlinecap
1 LJ
0.667 LW
N
73 31 M
77.34 31 L
S
GR
GS
[0.75 0 0 0.75 0 0] CT
0.149 GC
2 setlinecap
1 LJ
0.667 LW
N
507 374 M
502.66 374 L
S
GR
GS
[0.75 0 0 0.75 0 0] CT
0.149 GC
2 setlinecap
1 LJ
0.667 LW
N
507 335.889 M
502.66 335.889 L
S
GR
GS
[0.75 0 0 0.75 0 0] CT
0.149 GC
2 setlinecap
1 LJ
0.667 LW
N
507 297.778 M
502.66 297.778 L
S
GR
GS
[0.75 0 0 0.75 0 0] CT
0.149 GC
2 setlinecap
1 LJ
0.667 LW
N
507 259.667 M
502.66 259.667 L
S
GR
GS
[0.75 0 0 0.75 0 0] CT
0.149 GC
2 setlinecap
1 LJ
0.667 LW
N
507 221.556 M
502.66 221.556 L
S
GR
GS
[0.75 0 0 0.75 0 0] CT
0.149 GC
2 setlinecap
1 LJ
0.667 LW
N
507 183.444 M
502.66 183.444 L
S
GR
GS
[0.75 0 0 0.75 0 0] CT
0.149 GC
2 setlinecap
1 LJ
0.667 LW
N
507 145.333 M
502.66 145.333 L
S
GR
GS
[0.75 0 0 0.75 0 0] CT
0.149 GC
2 setlinecap
1 LJ
0.667 LW
N
507 107.222 M
502.66 107.222 L
S
GR
GS
[0.75 0 0 0.75 0 0] CT
0.149 GC
2 setlinecap
1 LJ
0.667 LW
N
507 69.111 M
502.66 69.111 L
S
GR
GS
[0.75 0 0 0.75 0 0] CT
0.149 GC
2 setlinecap
1 LJ
0.667 LW
N
507 31 M
502.66 31 L
S
GR
GS
[0.75 0 0 0.75 50.75 280.5] CT
0.149 GC
/Helvetica 13.333 F
GS
[1 0 0 1 0 0] CT
-13 4.5 moveto 
1 -1 scale
(-5) t 
GR
GR
GS
[0.75 0 0 0.75 50.75 251.91666] CT
0.149 GC
/Helvetica 13.333 F
GS
[1 0 0 1 0 0] CT
-13 4.5 moveto 
1 -1 scale
(-4) t 
GR
GR
GS
[0.75 0 0 0.75 50.75 223.33333] CT
0.149 GC
/Helvetica 13.333 F
GS
[1 0 0 1 0 0] CT
-13 4.5 moveto 
1 -1 scale
(-3) t 
GR
GR
GS
[0.75 0 0 0.75 50.75 194.74999] CT
0.149 GC
/Helvetica 13.333 F
GS
[1 0 0 1 0 0] CT
-13 4.5 moveto 
1 -1 scale
(-2) t 
GR
GR
GS
[0.75 0 0 0.75 50.75 166.16667] CT
0.149 GC
/Helvetica 13.333 F
GS
[1 0 0 1 0 0] CT
-13 4.5 moveto 
1 -1 scale
(-1) t 
GR
GR
GS
[0.75 0 0 0.75 50.75 137.58333] CT
0.149 GC
/Helvetica 13.333 F
GS
[1 0 0 1 0 0] CT
-9 4.5 moveto 
1 -1 scale
(0) t 
GR
GR
GS
[0.75 0 0 0.75 50.75 109] CT
0.149 GC
/Helvetica 13.333 F
GS
[1 0 0 1 0 0] CT
-9 4.5 moveto 
1 -1 scale
(1) t 
GR
GR
GS
[0.75 0 0 0.75 50.75 80.41667] CT
0.149 GC
/Helvetica 13.333 F
GS
[1 0 0 1 0 0] CT
-9 4.5 moveto 
1 -1 scale
(2) t 
GR
GR
GS
[0.75 0 0 0.75 50.75 51.83334] CT
0.149 GC
/Helvetica 13.333 F
GS
[1 0 0 1 0 0] CT
-9 4.5 moveto 
1 -1 scale
(3) t 
GR
GR
GS
[0.75 0 0 0.75 50.75 23.25] CT
0.149 GC
/Helvetica 13.333 F
GS
[1 0 0 1 0 0] CT
-9 4.5 moveto 
1 -1 scale
(4) t 
GR
GR
GS
[0.75 0 0 0.75 0 0] CT
0 0.447 0.741 RC
1 LJ
0.667 LW
N
73.362 145.333 M
73.723 297.778 L
74.085 221.556 L
74.447 69.111 L
74.808 259.667 L
75.17 221.556 L
75.532 259.667 L
75.893 107.222 L
76.255 31 L
76.617 221.556 L
76.978 259.667 L
77.34 107.222 L
77.702 221.556 L
78.063 107.222 L
78.425 107.222 L
78.787 107.222 L
79.148 259.667 L
79.51 259.667 L
79.872 145.333 L
80.233 259.667 L
80.595 297.778 L
80.957 69.111 L
81.318 183.444 L
81.68 145.333 L
82.042 145.333 L
82.403 221.556 L
82.765 297.778 L
83.127 221.556 L
83.488 221.556 L
83.85 69.111 L
84.212 221.556 L
84.573 107.222 L
84.935 107.222 L
85.297 259.667 L
85.658 259.667 L
86.02 107.222 L
86.382 259.667 L
86.743 145.333 L
87.105 297.778 L
87.467 107.222 L
87.828 145.333 L
88.19 259.667 L
88.552 145.333 L
88.913 259.667 L
89.275 259.667 L
89.637 107.222 L
89.998 69.111 L
90.36 259.667 L
90.722 259.667 L
91.083 335.889 L
91.445 221.556 L
91.807 145.333 L
92.168 107.222 L
92.53 259.667 L
92.892 259.667 L
93.253 107.222 L
93.615 259.667 L
93.977 145.333 L
94.338 259.667 L
94.7 221.556 L
95.062 297.778 L
95.423 107.222 L
95.785 69.111 L
96.147 297.778 L
96.508 107.222 L
96.87 259.667 L
97.232 107.222 L
97.593 69.111 L
97.955 259.667 L
98.317 145.333 L
98.678 107.222 L
99.04 107.222 L
99.402 221.556 L
99.763 145.333 L
100.125 259.667 L
100.487 221.556 L
100.848 297.778 L
101.21 145.333 L
101.572 259.667 L
101.933 259.667 L
102.295 145.333 L
102.657 221.556 L
103.018 221.556 L
103.38 297.778 L
103.742 107.222 L
104.103 145.333 L
104.465 107.222 L
104.827 145.333 L
105.188 145.333 L
105.55 107.222 L
105.912 145.333 L
106.273 145.333 L
106.635 221.556 L
106.997 259.667 L
107.358 259.667 L
107.72 145.333 L
108.082 221.556 L
108.443 107.222 L
108.805 145.333 L
109.167 259.667 L
109.528 69.111 L
109.89 183.444 L
110.252 107.222 L
110.613 221.556 L
110.975 107.222 L
111.337 145.333 L
111.698 259.667 L
112.06 107.222 L
112.422 221.556 L
112.783 69.111 L
113.145 145.333 L
113.507 107.222 L
113.868 221.556 L
114.23 145.333 L
114.592 107.222 L
114.953 221.556 L
115.315 221.556 L
115.677 259.667 L
116.038 145.333 L
116.4 145.333 L
116.762 145.333 L
117.123 107.222 L
117.485 69.111 L
117.847 259.667 L
118.208 145.333 L
118.57 107.222 L
118.932 259.667 L
119.293 297.778 L
119.655 145.333 L
120.017 259.667 L
120.378 145.333 L
120.74 107.222 L
121.102 259.667 L
121.463 221.556 L
121.825 145.333 L
122.187 107.222 L
122.548 221.556 L
122.91 145.333 L
123.272 145.333 L
123.633 145.333 L
123.995 221.556 L
124.357 145.333 L
124.718 259.667 L
125.08 107.222 L
125.442 259.667 L
125.803 221.556 L
126.165 69.111 L
126.527 107.222 L
126.888 145.333 L
127.25 145.333 L
127.612 145.333 L
127.973 259.667 L
128.335 145.333 L
128.697 145.333 L
129.058 221.556 L
129.42 221.556 L
129.782 259.667 L
130.143 69.111 L
130.505 69.111 L
130.867 107.222 L
131.228 221.556 L
131.59 107.222 L
131.952 145.333 L
132.313 221.556 L
132.675 221.556 L
133.037 221.556 L
133.398 107.222 L
133.76 107.222 L
134.122 297.778 L
134.483 259.667 L
134.845 145.333 L
135.207 107.222 L
135.568 145.333 L
135.93 221.556 L
136.292 145.333 L
136.653 145.333 L
137.015 221.556 L
137.377 107.222 L
137.738 107.222 L
138.1 297.778 L
138.462 107.222 L
138.823 145.333 L
139.185 145.333 L
139.547 107.222 L
139.908 107.222 L
140.27 107.222 L
140.632 221.556 L
140.993 69.111 L
141.355 107.222 L
141.717 107.222 L
142.078 107.222 L
142.44 145.333 L
142.802 69.111 L
143.163 221.556 L
143.525 145.333 L
143.887 145.333 L
144.248 145.333 L
144.61 145.333 L
144.972 145.333 L
145.333 107.222 L
145.695 221.556 L
146.057 145.333 L
146.418 145.333 L
146.78 297.778 L
147.142 145.333 L
147.503 221.556 L
147.865 145.333 L
148.227 259.667 L
148.588 107.222 L
148.95 259.667 L
149.312 259.667 L
149.673 221.556 L
150.035 107.222 L
150.397 221.556 L
150.758 69.111 L
151.12 145.333 L
151.482 107.222 L
151.843 145.333 L
152.205 69.111 L
152.567 335.889 L
152.928 107.222 L
153.29 145.333 L
153.652 145.333 L
154.013 221.556 L
154.375 221.556 L
154.737 221.556 L
155.098 221.556 L
155.46 145.333 L
155.822 259.667 L
156.183 259.667 L
156.545 221.556 L
156.907 145.333 L
157.268 221.556 L
157.63 221.556 L
157.992 145.333 L
158.353 145.333 L
158.715 259.667 L
159.077 107.222 L
159.438 107.222 L
159.8 183.444 L
160.162 145.333 L
160.523 107.222 L
160.885 259.667 L
161.247 145.333 L
161.608 221.556 L
161.97 221.556 L
162.332 259.667 L
162.693 107.222 L
163.055 145.333 L
163.417 183.444 L
163.778 107.222 L
164.14 145.333 L
164.502 107.222 L
164.863 145.333 L
165.225 145.333 L
165.587 145.333 L
165.948 145.333 L
166.31 69.111 L
166.672 259.667 L
167.033 145.333 L
167.395 145.333 L
167.757 145.333 L
168.118 221.556 L
168.48 221.556 L
168.842 221.556 L
169.203 221.556 L
169.565 69.111 L
169.927 221.556 L
170.288 69.111 L
170.65 259.667 L
171.012 259.667 L
171.373 107.222 L
171.735 107.222 L
172.097 259.667 L
172.458 259.667 L
172.82 145.333 L
173.182 145.333 L
173.543 259.667 L
173.905 259.667 L
174.267 107.222 L
174.628 145.333 L
174.99 107.222 L
175.352 145.333 L
175.713 259.667 L
176.075 259.667 L
176.437 221.556 L
176.798 297.778 L
177.16 221.556 L
177.522 221.556 L
177.883 145.333 L
178.245 145.333 L
178.607 221.556 L
178.968 145.333 L
179.33 145.333 L
179.692 69.111 L
180.053 297.778 L
180.415 221.556 L
180.777 221.556 L
181.138 145.333 L
181.5 221.556 L
181.862 145.333 L
182.223 221.556 L
182.585 107.222 L
182.947 221.556 L
183.308 107.222 L
183.67 221.556 L
184.032 335.889 L
184.393 107.222 L
184.755 221.556 L
185.117 145.333 L
185.478 221.556 L
185.84 221.556 L
186.202 145.333 L
186.563 221.556 L
186.925 221.556 L
187.287 145.333 L
187.648 145.333 L
188.01 107.222 L
188.372 107.222 L
188.733 107.222 L
189.095 107.222 L
189.457 183.444 L
189.818 107.222 L
190.18 221.556 L
190.542 107.222 L
190.903 145.333 L
191.265 107.222 L
191.627 221.556 L
191.988 145.333 L
192.35 259.667 L
192.712 297.778 L
193.073 145.333 L
193.435 221.556 L
193.797 107.222 L
194.158 221.556 L
194.52 145.333 L
194.882 145.333 L
195.243 145.333 L
195.605 259.667 L
195.967 145.333 L
196.328 145.333 L
196.69 145.333 L
197.052 107.222 L
197.413 297.778 L
197.775 145.333 L
198.137 107.222 L
198.498 107.222 L
198.86 221.556 L
199.222 145.333 L
199.583 297.778 L
199.945 297.778 L
200.307 221.556 L
200.668 221.556 L
201.03 221.556 L
201.392 183.444 L
201.753 145.333 L
202.115 259.667 L
202.477 221.556 L
202.838 107.222 L
203.2 259.667 L
203.562 259.667 L
203.923 107.222 L
204.285 297.778 L
204.647 259.667 L
205.008 297.778 L
205.37 259.667 L
205.732 259.667 L
206.093 145.333 L
206.455 259.667 L
206.817 259.667 L
207.178 221.556 L
207.54 107.222 L
207.902 374 L
208.263 145.333 L
208.625 145.333 L
208.987 69.111 L
209.348 259.667 L
209.71 221.556 L
210.072 145.333 L
210.433 259.667 L
210.795 107.222 L
211.157 259.667 L
211.518 107.222 L
211.88 107.222 L
212.242 69.111 L
212.603 221.556 L
212.965 183.444 L
213.327 297.778 L
213.688 69.111 L
214.05 69.111 L
214.412 107.222 L
214.773 145.333 L
215.135 107.222 L
215.497 107.222 L
215.858 145.333 L
216.22 145.333 L
216.582 259.667 L
216.943 221.556 L
217.305 107.222 L
217.667 221.556 L
218.028 259.667 L
218.39 145.333 L
218.752 69.111 L
219.113 107.222 L
219.475 297.778 L
219.837 145.333 L
220.198 297.778 L
220.56 145.333 L
220.922 145.333 L
221.283 221.556 L
221.645 259.667 L
222.007 259.667 L
222.368 221.556 L
222.73 221.556 L
223.092 297.778 L
223.453 259.667 L
223.815 259.667 L
224.177 221.556 L
224.538 259.667 L
224.9 221.556 L
225.262 221.556 L
225.623 145.333 L
225.985 145.333 L
226.347 107.222 L
226.708 145.333 L
227.07 145.333 L
227.432 145.333 L
227.793 259.667 L
228.155 145.333 L
228.517 297.778 L
228.878 107.222 L
229.24 259.667 L
229.602 221.556 L
229.963 145.333 L
230.325 107.222 L
230.687 145.333 L
231.048 145.333 L
231.41 259.667 L
231.772 259.667 L
232.133 259.667 L
232.495 221.556 L
232.857 221.556 L
233.218 221.556 L
233.58 145.333 L
233.942 145.333 L
234.303 221.556 L
234.665 221.556 L
235.027 221.556 L
235.388 145.333 L
235.75 221.556 L
236.112 107.222 L
236.473 107.222 L
236.835 259.667 L
237.197 221.556 L
237.558 145.333 L
237.92 107.222 L
238.282 69.111 L
238.643 145.333 L
239.005 107.222 L
239.367 107.222 L
239.728 107.222 L
240.09 221.556 L
240.452 145.333 L
240.813 107.222 L
241.175 221.556 L
241.537 259.667 L
241.898 145.333 L
242.26 145.333 L
242.622 107.222 L
242.983 259.667 L
243.345 259.667 L
243.707 297.778 L
244.068 259.667 L
244.43 145.333 L
244.792 221.556 L
245.153 107.222 L
245.515 221.556 L
245.877 145.333 L
246.238 221.556 L
246.6 145.333 L
246.962 221.556 L
247.323 259.667 L
247.685 107.222 L
248.047 221.556 L
248.408 221.556 L
248.77 221.556 L
249.132 259.667 L
249.493 221.556 L
249.855 221.556 L
250.217 221.556 L
250.578 145.333 L
250.94 221.556 L
251.302 145.333 L
251.663 221.556 L
252.025 221.556 L
252.387 145.333 L
252.748 69.111 L
253.11 259.667 L
253.472 107.222 L
253.833 259.667 L
254.195 259.667 L
254.557 145.333 L
254.918 259.667 L
255.28 221.556 L
255.642 145.333 L
256.003 221.556 L
256.365 259.667 L
256.727 259.667 L
257.088 221.556 L
257.45 259.667 L
257.812 145.333 L
258.173 69.111 L
258.535 297.778 L
258.897 107.222 L
259.258 259.667 L
259.62 221.556 L
259.982 145.333 L
260.343 259.667 L
260.705 107.222 L
261.067 145.333 L
261.428 145.333 L
261.79 221.556 L
262.152 221.556 L
262.513 221.556 L
262.875 107.222 L
263.237 259.667 L
263.598 107.222 L
263.96 107.222 L
264.322 259.667 L
264.683 221.556 L
265.045 259.667 L
265.407 145.333 L
265.768 107.222 L
266.13 145.333 L
266.492 297.778 L
266.853 221.556 L
267.215 221.556 L
267.577 145.333 L
267.938 69.111 L
268.3 221.556 L
268.662 107.222 L
269.023 259.667 L
269.385 221.556 L
269.747 183.444 L
270.108 107.222 L
270.47 259.667 L
270.832 107.222 L
271.193 297.778 L
271.555 145.333 L
271.917 69.111 L
272.278 69.111 L
272.64 145.333 L
273.002 145.333 L
273.363 145.333 L
273.725 145.333 L
274.087 221.556 L
274.448 221.556 L
274.81 221.556 L
275.172 221.556 L
275.533 145.333 L
275.895 145.333 L
276.257 221.556 L
276.618 221.556 L
276.98 221.556 L
277.342 107.222 L
277.703 221.556 L
278.065 259.667 L
278.427 107.222 L
278.788 145.333 L
279.15 221.556 L
279.512 259.667 L
279.873 145.333 L
280.235 221.556 L
280.597 221.556 L
280.958 145.333 L
281.32 221.556 L
281.682 145.333 L
282.043 145.333 L
282.405 145.333 L
282.767 145.333 L
283.128 145.333 L
283.49 145.333 L
283.852 107.222 L
284.213 145.333 L
284.575 221.556 L
284.937 221.556 L
285.298 107.222 L
285.66 145.333 L
286.022 145.333 L
286.383 259.667 L
286.745 107.222 L
287.107 145.333 L
287.468 297.778 L
287.83 145.333 L
288.192 221.556 L
288.553 107.222 L
288.915 221.556 L
289.277 107.222 L
289.638 221.556 L
290 107.222 L
290.362 221.556 L
290.723 259.667 L
291.085 221.556 L
291.447 145.333 L
291.808 221.556 L
292.17 259.667 L
292.532 69.111 L
292.893 145.333 L
293.255 145.333 L
293.617 107.222 L
293.978 221.556 L
294.34 221.556 L
294.702 259.667 L
295.063 297.778 L
295.425 221.556 L
295.787 145.333 L
296.148 335.889 L
296.51 259.667 L
296.872 259.667 L
297.233 259.667 L
297.595 221.556 L
297.957 221.556 L
298.318 221.556 L
298.68 221.556 L
299.042 221.556 L
299.403 221.556 L
299.765 221.556 L
300.127 107.222 L
300.488 221.556 L
300.85 259.667 L
301.212 145.333 L
301.573 297.778 L
301.935 259.667 L
302.297 145.333 L
302.658 221.556 L
303.02 69.111 L
303.382 259.667 L
303.743 221.556 L
304.105 221.556 L
304.467 145.333 L
304.828 221.556 L
305.19 145.333 L
305.552 145.333 L
305.913 145.333 L
306.275 145.333 L
306.637 221.556 L
306.998 145.333 L
307.36 145.333 L
307.722 145.333 L
308.083 259.667 L
308.445 145.333 L
308.807 145.333 L
309.168 69.111 L
309.53 221.556 L
309.892 69.111 L
310.253 31 L
310.615 145.333 L
310.977 145.333 L
311.338 107.222 L
311.7 107.222 L
312.062 221.556 L
312.423 145.333 L
312.785 107.222 L
313.147 145.333 L
313.508 145.333 L
313.87 145.333 L
314.232 107.222 L
314.593 69.111 L
314.955 69.111 L
315.317 221.556 L
315.678 107.222 L
316.04 69.111 L
316.402 221.556 L
316.763 259.667 L
317.125 297.778 L
317.487 221.556 L
317.848 31 L
318.21 69.111 L
318.572 107.222 L
318.933 107.222 L
319.295 145.333 L
319.657 221.556 L
320.018 297.778 L
320.38 297.778 L
320.742 259.667 L
321.103 145.333 L
321.465 259.667 L
321.827 69.111 L
322.188 259.667 L
322.55 221.556 L
322.912 259.667 L
323.273 145.333 L
323.635 259.667 L
323.997 145.333 L
324.358 221.556 L
324.72 107.222 L
325.082 69.111 L
325.443 221.556 L
325.805 335.889 L
326.167 221.556 L
326.528 259.667 L
326.89 259.667 L
327.252 145.333 L
327.613 107.222 L
327.975 221.556 L
328.337 297.778 L
328.698 221.556 L
329.06 145.333 L
329.422 145.333 L
329.783 145.333 L
330.145 221.556 L
330.507 145.333 L
330.868 221.556 L
331.23 259.667 L
331.592 259.667 L
331.953 145.333 L
332.315 221.556 L
332.677 145.333 L
333.038 107.222 L
333.4 107.222 L
333.762 221.556 L
334.123 107.222 L
334.485 145.333 L
334.847 145.333 L
335.208 221.556 L
335.57 221.556 L
335.932 259.667 L
336.293 69.111 L
336.655 221.556 L
337.017 145.333 L
337.378 297.778 L
337.74 107.222 L
338.102 221.556 L
338.463 297.778 L
338.825 69.111 L
339.187 259.667 L
339.548 335.889 L
339.91 107.222 L
340.272 259.667 L
340.633 259.667 L
340.995 183.444 L
341.357 145.333 L
341.718 221.556 L
342.08 221.556 L
342.442 221.556 L
342.803 145.333 L
343.165 297.778 L
343.527 259.667 L
343.888 221.556 L
344.25 259.667 L
344.612 221.556 L
344.973 145.333 L
345.335 259.667 L
345.697 107.222 L
346.058 221.556 L
346.42 221.556 L
346.782 145.333 L
347.143 221.556 L
347.505 221.556 L
347.867 145.333 L
348.228 107.222 L
348.59 221.556 L
348.952 145.333 L
349.313 259.667 L
349.675 107.222 L
350.037 259.667 L
350.398 221.556 L
350.76 145.333 L
351.122 221.556 L
351.483 183.444 L
351.845 107.222 L
352.207 259.667 L
352.568 107.222 L
352.93 107.222 L
353.292 221.556 L
353.653 107.222 L
354.015 221.556 L
354.377 145.333 L
354.738 221.556 L
355.1 183.444 L
355.462 259.667 L
355.823 145.333 L
356.185 221.556 L
356.547 221.556 L
356.908 145.333 L
357.27 107.222 L
357.632 145.333 L
357.993 145.333 L
358.355 145.333 L
358.717 145.333 L
359.078 259.667 L
359.44 221.556 L
359.802 183.444 L
360.163 107.222 L
360.525 107.222 L
360.887 259.667 L
361.248 145.333 L
361.61 107.222 L
361.972 145.333 L
362.333 107.222 L
362.695 107.222 L
363.057 145.333 L
363.418 107.222 L
363.78 145.333 L
364.142 221.556 L
364.503 221.556 L
364.865 221.556 L
365.227 145.333 L
365.588 221.556 L
365.95 259.667 L
366.312 221.556 L
366.673 145.333 L
367.035 145.333 L
367.397 259.667 L
367.758 259.667 L
368.12 221.556 L
368.482 145.333 L
368.843 259.667 L
369.205 107.222 L
369.567 145.333 L
369.928 221.556 L
370.29 221.556 L
370.652 221.556 L
371.013 145.333 L
371.375 107.222 L
371.737 145.333 L
372.098 259.667 L
372.46 145.333 L
372.822 221.556 L
373.183 107.222 L
373.545 107.222 L
373.907 259.667 L
374.268 183.444 L
374.63 259.667 L
374.992 107.222 L
375.353 259.667 L
375.715 297.778 L
376.077 107.222 L
376.438 145.333 L
376.8 145.333 L
377.162 221.556 L
377.523 145.333 L
377.885 183.444 L
378.247 145.333 L
378.608 107.222 L
378.97 145.333 L
379.332 145.333 L
379.693 145.333 L
380.055 221.556 L
380.417 145.333 L
380.778 145.333 L
381.14 145.333 L
381.502 221.556 L
381.863 145.333 L
382.225 259.667 L
382.587 145.333 L
382.948 107.222 L
383.31 221.556 L
383.672 221.556 L
384.033 107.222 L
384.395 145.333 L
384.757 145.333 L
385.118 297.778 L
385.48 107.222 L
385.842 145.333 L
386.203 145.333 L
386.565 145.333 L
386.927 145.333 L
387.288 221.556 L
387.65 221.556 L
388.012 145.333 L
388.373 69.111 L
388.735 107.222 L
389.097 145.333 L
389.458 221.556 L
389.82 145.333 L
390.182 221.556 L
390.543 259.667 L
390.905 145.333 L
391.267 145.333 L
391.628 145.333 L
391.99 221.556 L
392.352 107.222 L
392.713 221.556 L
393.075 145.333 L
393.437 221.556 L
393.798 145.333 L
394.16 259.667 L
394.522 221.556 L
394.883 221.556 L
395.245 221.556 L
395.607 145.333 L
395.968 145.333 L
396.33 221.556 L
396.692 221.556 L
397.053 221.556 L
397.415 221.556 L
397.777 221.556 L
398.138 145.333 L
398.5 221.556 L
398.862 145.333 L
399.223 145.333 L
399.585 107.222 L
399.947 145.333 L
400.308 221.556 L
400.67 145.333 L
401.032 145.333 L
401.393 221.556 L
401.755 145.333 L
402.117 221.556 L
402.478 145.333 L
402.84 221.556 L
403.202 145.333 L
403.563 221.556 L
403.925 107.222 L
404.287 183.444 L
404.648 145.333 L
405.01 221.556 L
405.372 221.556 L
405.733 221.556 L
406.095 221.556 L
406.457 145.333 L
406.818 145.333 L
407.18 221.556 L
407.542 221.556 L
407.903 221.556 L
408.265 183.444 L
408.627 221.556 L
408.988 145.333 L
409.35 221.556 L
409.712 183.444 L
410.073 183.444 L
410.435 221.556 L
410.797 145.333 L
411.158 145.333 L
411.52 221.556 L
411.882 145.333 L
412.243 221.556 L
412.605 183.444 L
412.967 183.444 L
413.328 183.444 L
413.69 183.444 L
414.052 183.444 L
414.413 183.444 L
414.775 183.444 L
415.137 183.444 L
415.498 183.444 L
415.86 183.444 L
416.222 183.444 L
416.583 183.444 L
416.945 183.444 L
417.307 183.444 L
417.668 183.444 L
418.03 183.444 L
418.392 183.444 L
418.753 183.444 L
419.115 183.444 L
419.477 183.444 L
419.838 183.444 L
420.2 183.444 L
420.562 183.444 L
420.923 183.444 L
421.285 183.444 L
421.647 183.444 L
422.008 183.444 L
422.37 183.444 L
422.732 183.444 L
423.093 183.444 L
423.455 183.444 L
423.817 183.444 L
424.178 183.444 L
424.54 183.444 L
424.902 183.444 L
425.263 183.444 L
425.625 183.444 L
425.987 183.444 L
426.348 183.444 L
426.71 183.444 L
427.072 183.444 L
427.433 183.444 L
427.795 183.444 L
428.157 183.444 L
428.518 183.444 L
428.88 183.444 L
429.242 183.444 L
429.603 183.444 L
429.965 183.444 L
430.327 183.444 L
430.688 183.444 L
431.05 183.444 L
431.412 183.444 L
431.773 183.444 L
432.135 183.444 L
432.497 183.444 L
432.858 183.444 L
433.22 183.444 L
433.582 183.444 L
433.943 183.444 L
434.305 183.444 L
434.667 183.444 L
435.028 183.444 L
435.39 183.444 L
435.752 183.444 L
436.113 183.444 L
436.475 183.444 L
436.837 183.444 L
437.198 183.444 L
437.56 183.444 L
437.922 183.444 L
438.283 183.444 L
438.645 183.444 L
439.007 183.444 L
439.368 183.444 L
439.73 183.444 L
440.092 183.444 L
440.453 183.444 L
440.815 183.444 L
441.177 183.444 L
441.538 183.444 L
441.9 183.444 L
442.262 183.444 L
442.623 183.444 L
442.985 183.444 L
443.347 183.444 L
S
GR
%%Trailer
%%Pages: 1
%%EOF
