%!PS-Adobe-3.0 EPSF-3.0
%%Creator: (MATLAB, The Mathworks, Inc. Version 9.2.0.538062 \(R2017a\). Operating System: Linux)
%%Title: /home/chris/Storage/christina/Desktop/THMMY/????????/Project/authMultimediaAssignment2018/Level_1/frame_2_original.eps
%%CreationDate: 2019-02-15T00:44:15
%%Pages: (atend)
%%BoundingBox:    32    21   397   299
%%LanguageLevel: 3
%%EndComments
%%BeginProlog
%%BeginResource: procset (Apache XML Graphics Std ProcSet) 1.2 0
%%Version: 1.2 0
%%Copyright: (Copyright 2001-2003,2010 The Apache Software Foundation. License terms: http://www.apache.org/licenses/LICENSE-2.0)
/bd{bind def}bind def
/ld{load def}bd
/GR/grestore ld
/M/moveto ld
/LJ/setlinejoin ld
/C/curveto ld
/f/fill ld
/LW/setlinewidth ld
/GC/setgray ld
/t/show ld
/N/newpath ld
/CT/concat ld
/cp/closepath ld
/S/stroke ld
/L/lineto ld
/CC/setcmykcolor ld
/A/ashow ld
/GS/gsave ld
/RC/setrgbcolor ld
/RM/rmoveto ld
/ML/setmiterlimit ld
/re {4 2 roll M
1 index 0 rlineto
0 exch rlineto
neg 0 rlineto
cp } bd
/_ctm matrix def
/_tm matrix def
/BT { _ctm currentmatrix pop matrix _tm copy pop 0 0 moveto } bd
/ET { _ctm setmatrix } bd
/iTm { _ctm setmatrix _tm concat } bd
/Tm { _tm astore pop iTm 0 0 moveto } bd
/ux 0.0 def
/uy 0.0 def
/F {
  /Tp exch def
  /Tf exch def
  Tf findfont Tp scalefont setfont
  /cf Tf def  /cs Tp def
} bd
/ULS {currentpoint /uy exch def /ux exch def} bd
/ULE {
  /Tcx currentpoint pop def
  gsave
  newpath
  cf findfont cs scalefont dup
  /FontMatrix get 0 get /Ts exch def /FontInfo get dup
  /UnderlinePosition get Ts mul /To exch def
  /UnderlineThickness get Ts mul /Tt exch def
  ux uy To add moveto  Tcx uy To add lineto
  Tt setlinewidth stroke
  grestore
} bd
/OLE {
  /Tcx currentpoint pop def
  gsave
  newpath
  cf findfont cs scalefont dup
  /FontMatrix get 0 get /Ts exch def /FontInfo get dup
  /UnderlinePosition get Ts mul /To exch def
  /UnderlineThickness get Ts mul /Tt exch def
  ux uy To add cs add moveto Tcx uy To add cs add lineto
  Tt setlinewidth stroke
  grestore
} bd
/SOE {
  /Tcx currentpoint pop def
  gsave
  newpath
  cf findfont cs scalefont dup
  /FontMatrix get 0 get /Ts exch def /FontInfo get dup
  /UnderlinePosition get Ts mul /To exch def
  /UnderlineThickness get Ts mul /Tt exch def
  ux uy To add cs 10 mul 26 idiv add moveto Tcx uy To add cs 10 mul 26 idiv add lineto
  Tt setlinewidth stroke
  grestore
} bd
/QT {
/Y22 exch store
/X22 exch store
/Y21 exch store
/X21 exch store
currentpoint
/Y21 load 2 mul add 3 div exch
/X21 load 2 mul add 3 div exch
/X21 load 2 mul /X22 load add 3 div
/Y21 load 2 mul /Y22 load add 3 div
/X22 load /Y22 load curveto
} bd
/SSPD {
dup length /d exch dict def
{
/v exch def
/k exch def
currentpagedevice k known {
/cpdv currentpagedevice k get def
v cpdv ne {
/upd false def
/nullv v type /nulltype eq def
/nullcpdv cpdv type /nulltype eq def
nullv nullcpdv or
{
/upd true def
} {
/sametype v type cpdv type eq def
sametype {
v type /arraytype eq {
/vlen v length def
/cpdvlen cpdv length def
vlen cpdvlen eq {
0 1 vlen 1 sub {
/i exch def
/obj v i get def
/cpdobj cpdv i get def
obj cpdobj ne {
/upd true def
exit
} if
} for
} {
/upd true def
} ifelse
} {
v type /dicttype eq {
v {
/dv exch def
/dk exch def
/cpddv cpdv dk get def
dv cpddv ne {
/upd true def
exit
} if
} forall
} {
/upd true def
} ifelse
} ifelse
} if
} ifelse
upd true eq {
d k v put
} if
} if
} if
} forall
d length 0 gt {
d setpagedevice
} if
} bd
/RE { % /NewFontName [NewEncodingArray] /FontName RE -
  findfont dup length dict begin
  {
    1 index /FID ne
    {def} {pop pop} ifelse
  } forall
  /Encoding exch def
  /FontName 1 index def
  currentdict definefont pop
  end
} bind def
%%EndResource
%%BeginResource: procset (Apache XML Graphics EPS ProcSet) 1.0 0
%%Version: 1.0 0
%%Copyright: (Copyright 2002-2003 The Apache Software Foundation. License terms: http://www.apache.org/licenses/LICENSE-2.0)
/BeginEPSF { %def
/b4_Inc_state save def         % Save state for cleanup
/dict_count countdictstack def % Count objects on dict stack
/op_count count 1 sub def      % Count objects on operand stack
userdict begin                 % Push userdict on dict stack
/showpage { } def              % Redefine showpage, { } = null proc
0 setgray 0 setlinecap         % Prepare graphics state
1 setlinewidth 0 setlinejoin
10 setmiterlimit [ ] 0 setdash newpath
/languagelevel where           % If level not equal to 1 then
{pop languagelevel             % set strokeadjust and
1 ne                           % overprint to their defaults.
{false setstrokeadjust false setoverprint
} if
} if
} bd
/EndEPSF { %def
count op_count sub {pop} repeat            % Clean up stacks
countdictstack dict_count sub {end} repeat
b4_Inc_state restore
} bd
%%EndResource
%FOPBeginFontDict
%%IncludeResource: font Courier-Bold
%%IncludeResource: font Helvetica
%%IncludeResource: font Courier-BoldOblique
%%IncludeResource: font Courier-Oblique
%%IncludeResource: font Times-Roman
%%IncludeResource: font Helvetica-BoldOblique
%%IncludeResource: font Helvetica-Bold
%%IncludeResource: font Helvetica-Oblique
%%IncludeResource: font Times-BoldItalic
%%IncludeResource: font Courier
%%IncludeResource: font Times-Italic
%%IncludeResource: font Times-Bold
%%IncludeResource: font Symbol
%%IncludeResource: font ZapfDingbats
%FOPEndFontDict
%%BeginResource: encoding WinAnsiEncoding
/WinAnsiEncoding [
/.notdef /.notdef /.notdef /.notdef /.notdef
/.notdef /.notdef /.notdef /.notdef /.notdef
/.notdef /.notdef /.notdef /.notdef /.notdef
/.notdef /.notdef /.notdef /.notdef /.notdef
/.notdef /.notdef /.notdef /.notdef /.notdef
/.notdef /.notdef /.notdef /.notdef /.notdef
/.notdef /.notdef /space /exclam /quotedbl
/numbersign /dollar /percent /ampersand /quotesingle
/parenleft /parenright /asterisk /plus /comma
/hyphen /period /slash /zero /one
/two /three /four /five /six
/seven /eight /nine /colon /semicolon
/less /equal /greater /question /at
/A /B /C /D /E
/F /G /H /I /J
/K /L /M /N /O
/P /Q /R /S /T
/U /V /W /X /Y
/Z /bracketleft /backslash /bracketright /asciicircum
/underscore /quoteleft /a /b /c
/d /e /f /g /h
/i /j /k /l /m
/n /o /p /q /r
/s /t /u /v /w
/x /y /z /braceleft /bar
/braceright /asciitilde /bullet /Euro /bullet
/quotesinglbase /florin /quotedblbase /ellipsis /dagger
/daggerdbl /circumflex /perthousand /Scaron /guilsinglleft
/OE /bullet /Zcaron /bullet /bullet
/quoteleft /quoteright /quotedblleft /quotedblright /bullet
/endash /emdash /asciitilde /trademark /scaron
/guilsinglright /oe /bullet /zcaron /Ydieresis
/space /exclamdown /cent /sterling /currency
/yen /brokenbar /section /dieresis /copyright
/ordfeminine /guillemotleft /logicalnot /sfthyphen /registered
/macron /degree /plusminus /twosuperior /threesuperior
/acute /mu /paragraph /middot /cedilla
/onesuperior /ordmasculine /guillemotright /onequarter /onehalf
/threequarters /questiondown /Agrave /Aacute /Acircumflex
/Atilde /Adieresis /Aring /AE /Ccedilla
/Egrave /Eacute /Ecircumflex /Edieresis /Igrave
/Iacute /Icircumflex /Idieresis /Eth /Ntilde
/Ograve /Oacute /Ocircumflex /Otilde /Odieresis
/multiply /Oslash /Ugrave /Uacute /Ucircumflex
/Udieresis /Yacute /Thorn /germandbls /agrave
/aacute /acircumflex /atilde /adieresis /aring
/ae /ccedilla /egrave /eacute /ecircumflex
/edieresis /igrave /iacute /icircumflex /idieresis
/eth /ntilde /ograve /oacute /ocircumflex
/otilde /odieresis /divide /oslash /ugrave
/uacute /ucircumflex /udieresis /yacute /thorn
/ydieresis
] def
%%EndResource
%FOPBeginFontReencode
/Courier-Bold findfont
dup length dict begin
  {1 index /FID ne {def} {pop pop} ifelse} forall
  /Encoding WinAnsiEncoding def
  currentdict
end
/Courier-Bold exch definefont pop
/Helvetica findfont
dup length dict begin
  {1 index /FID ne {def} {pop pop} ifelse} forall
  /Encoding WinAnsiEncoding def
  currentdict
end
/Helvetica exch definefont pop
/Courier-BoldOblique findfont
dup length dict begin
  {1 index /FID ne {def} {pop pop} ifelse} forall
  /Encoding WinAnsiEncoding def
  currentdict
end
/Courier-BoldOblique exch definefont pop
/Courier-Oblique findfont
dup length dict begin
  {1 index /FID ne {def} {pop pop} ifelse} forall
  /Encoding WinAnsiEncoding def
  currentdict
end
/Courier-Oblique exch definefont pop
/Times-Roman findfont
dup length dict begin
  {1 index /FID ne {def} {pop pop} ifelse} forall
  /Encoding WinAnsiEncoding def
  currentdict
end
/Times-Roman exch definefont pop
/Helvetica-BoldOblique findfont
dup length dict begin
  {1 index /FID ne {def} {pop pop} ifelse} forall
  /Encoding WinAnsiEncoding def
  currentdict
end
/Helvetica-BoldOblique exch definefont pop
/Helvetica-Bold findfont
dup length dict begin
  {1 index /FID ne {def} {pop pop} ifelse} forall
  /Encoding WinAnsiEncoding def
  currentdict
end
/Helvetica-Bold exch definefont pop
/Helvetica-Oblique findfont
dup length dict begin
  {1 index /FID ne {def} {pop pop} ifelse} forall
  /Encoding WinAnsiEncoding def
  currentdict
end
/Helvetica-Oblique exch definefont pop
/Times-BoldItalic findfont
dup length dict begin
  {1 index /FID ne {def} {pop pop} ifelse} forall
  /Encoding WinAnsiEncoding def
  currentdict
end
/Times-BoldItalic exch definefont pop
/Courier findfont
dup length dict begin
  {1 index /FID ne {def} {pop pop} ifelse} forall
  /Encoding WinAnsiEncoding def
  currentdict
end
/Courier exch definefont pop
/Times-Italic findfont
dup length dict begin
  {1 index /FID ne {def} {pop pop} ifelse} forall
  /Encoding WinAnsiEncoding def
  currentdict
end
/Times-Italic exch definefont pop
/Times-Bold findfont
dup length dict begin
  {1 index /FID ne {def} {pop pop} ifelse} forall
  /Encoding WinAnsiEncoding def
  currentdict
end
/Times-Bold exch definefont pop
%FOPEndFontReencode
%%EndProlog
%%Page: 1 1
%%PageBoundingBox: 0 0 426 319
%%BeginPageSetup
[1 0 0 -1 0 319] CT
%%EndPageSetup
GS
[0.75 0 0 0.75 0 0.25] CT
0.997 GC
N
0 0 568 425 re
f
GR
GS
[0.75 0 0 0.75 0 0.25] CT
0.997 GC
N
0 0 568 425 re
f
GR
GS
[0.75 0 0 0.75 0 0.25] CT
0.997 GC
N
74 378 M
514 378 L
514 32 L
74 32 L
cp
f
GR
GS
[0.75 0 0 0.75 0 0.25] CT
0 GC
2 setlinecap
1 LJ
0.667 LW
N
74 378 M
514 378 L
S
GR
GS
[0.75 0 0 0.75 0 0.25] CT
0 GC
2 setlinecap
1 LJ
0.667 LW
N
74 32 M
514 32 L
S
GR
GS
[0.75 0 0 0.75 0 0.25] CT
0 GC
2 setlinecap
1 LJ
0.667 LW
N
74 378 M
74 373.6 L
S
GR
GS
[0.75 0 0 0.75 0 0.25] CT
0 GC
2 setlinecap
1 LJ
0.667 LW
N
162 378 M
162 373.6 L
S
GR
GS
[0.75 0 0 0.75 0 0.25] CT
0 GC
2 setlinecap
1 LJ
0.667 LW
N
250 378 M
250 373.6 L
S
GR
GS
[0.75 0 0 0.75 0 0.25] CT
0 GC
2 setlinecap
1 LJ
0.667 LW
N
338 378 M
338 373.6 L
S
GR
GS
[0.75 0 0 0.75 0 0.25] CT
0 GC
2 setlinecap
1 LJ
0.667 LW
N
426 378 M
426 373.6 L
S
GR
GS
[0.75 0 0 0.75 0 0.25] CT
0 GC
2 setlinecap
1 LJ
0.667 LW
N
514 378 M
514 373.6 L
S
GR
GS
[0.75 0 0 0.75 0 0.25] CT
0 GC
2 setlinecap
1 LJ
0.667 LW
N
74 32 M
74 36.4 L
S
GR
GS
[0.75 0 0 0.75 0 0.25] CT
0 GC
2 setlinecap
1 LJ
0.667 LW
N
162 32 M
162 36.4 L
S
GR
GS
[0.75 0 0 0.75 0 0.25] CT
0 GC
2 setlinecap
1 LJ
0.667 LW
N
250 32 M
250 36.4 L
S
GR
GS
[0.75 0 0 0.75 0 0.25] CT
0 GC
2 setlinecap
1 LJ
0.667 LW
N
338 32 M
338 36.4 L
S
GR
GS
[0.75 0 0 0.75 0 0.25] CT
0 GC
2 setlinecap
1 LJ
0.667 LW
N
426 32 M
426 36.4 L
S
GR
GS
[0.75 0 0 0.75 0 0.25] CT
0 GC
2 setlinecap
1 LJ
0.667 LW
N
514 32 M
514 36.4 L
S
GR
GS
[0.75 0 0 0.75 55.5 287.75001] CT
0 GC
/Helvetica 13.333 F
GS
[1 0 0 1 0 0] CT
-4.5 13 moveto 
1 -1 scale
(0) t 
GR
GR
GS
[0.75 0 0 0.75 121.5 287.75001] CT
0 GC
/Helvetica 13.333 F
GS
[1 0 0 1 0 0] CT
-12.5 13 moveto 
1 -1 scale
(500) t 
GR
GR
GS
[0.75 0 0 0.75 187.5 287.75001] CT
0 GC
/Helvetica 13.333 F
GS
[1 0 0 1 0 0] CT
-17 13 moveto 
1 -1 scale
(1000) t 
GR
GR
GS
[0.75 0 0 0.75 253.5 287.75001] CT
0 GC
/Helvetica 13.333 F
GS
[1 0 0 1 0 0] CT
-17 13 moveto 
1 -1 scale
(1500) t 
GR
GR
GS
[0.75 0 0 0.75 319.5 287.75001] CT
0 GC
/Helvetica 13.333 F
GS
[1 0 0 1 0 0] CT
-17 13 moveto 
1 -1 scale
(2000) t 
GR
GR
GS
[0.75 0 0 0.75 385.5 287.75001] CT
0 GC
/Helvetica 13.333 F
GS
[1 0 0 1 0 0] CT
-17 13 moveto 
1 -1 scale
(2500) t 
GR
GR
GS
[0.75 0 0 0.75 0 0.25] CT
0 GC
2 setlinecap
1 LJ
0.667 LW
N
74 378 M
74 32 L
S
GR
GS
[0.75 0 0 0.75 0 0.25] CT
0 GC
2 setlinecap
1 LJ
0.667 LW
N
514 378 M
514 32 L
S
GR
GS
[0.75 0 0 0.75 0 0.25] CT
0 GC
2 setlinecap
1 LJ
0.667 LW
N
74 378 M
78.4 378 L
S
GR
GS
[0.75 0 0 0.75 0 0.25] CT
0 GC
2 setlinecap
1 LJ
0.667 LW
N
74 334.75 M
78.4 334.75 L
S
GR
GS
[0.75 0 0 0.75 0 0.25] CT
0 GC
2 setlinecap
1 LJ
0.667 LW
N
74 291.5 M
78.4 291.5 L
S
GR
GS
[0.75 0 0 0.75 0 0.25] CT
0 GC
2 setlinecap
1 LJ
0.667 LW
N
74 248.25 M
78.4 248.25 L
S
GR
GS
[0.75 0 0 0.75 0 0.25] CT
0 GC
2 setlinecap
1 LJ
0.667 LW
N
74 205 M
78.4 205 L
S
GR
GS
[0.75 0 0 0.75 0 0.25] CT
0 GC
2 setlinecap
1 LJ
0.667 LW
N
74 161.75 M
78.4 161.75 L
S
GR
GS
[0.75 0 0 0.75 0 0.25] CT
0 GC
2 setlinecap
1 LJ
0.667 LW
N
74 118.5 M
78.4 118.5 L
S
GR
GS
[0.75 0 0 0.75 0 0.25] CT
0 GC
2 setlinecap
1 LJ
0.667 LW
N
74 75.25 M
78.4 75.25 L
S
GR
GS
[0.75 0 0 0.75 0 0.25] CT
0 GC
2 setlinecap
1 LJ
0.667 LW
N
74 32 M
78.4 32 L
S
GR
GS
[0.75 0 0 0.75 0 0.25] CT
0 GC
2 setlinecap
1 LJ
0.667 LW
N
514 378 M
509.6 378 L
S
GR
GS
[0.75 0 0 0.75 0 0.25] CT
0 GC
2 setlinecap
1 LJ
0.667 LW
N
514 334.75 M
509.6 334.75 L
S
GR
GS
[0.75 0 0 0.75 0 0.25] CT
0 GC
2 setlinecap
1 LJ
0.667 LW
N
514 291.5 M
509.6 291.5 L
S
GR
GS
[0.75 0 0 0.75 0 0.25] CT
0 GC
2 setlinecap
1 LJ
0.667 LW
N
514 248.25 M
509.6 248.25 L
S
GR
GS
[0.75 0 0 0.75 0 0.25] CT
0 GC
2 setlinecap
1 LJ
0.667 LW
N
514 205 M
509.6 205 L
S
GR
GS
[0.75 0 0 0.75 0 0.25] CT
0 GC
2 setlinecap
1 LJ
0.667 LW
N
514 161.75 M
509.6 161.75 L
S
GR
GS
[0.75 0 0 0.75 0 0.25] CT
0 GC
2 setlinecap
1 LJ
0.667 LW
N
514 118.5 M
509.6 118.5 L
S
GR
GS
[0.75 0 0 0.75 0 0.25] CT
0 GC
2 setlinecap
1 LJ
0.667 LW
N
514 75.25 M
509.6 75.25 L
S
GR
GS
[0.75 0 0 0.75 0 0.25] CT
0 GC
2 setlinecap
1 LJ
0.667 LW
N
514 32 M
509.6 32 L
S
GR
GS
[0.75 0 0 0.75 51.5 283.75] CT
0 GC
/Helvetica 13.333 F
GS
[1 0 0 1 0 0] CT
-26 4.5 moveto 
1 -1 scale
(-0.8) t 
GR
GR
GS
[0.75 0 0 0.75 51.5 251.3125] CT
0 GC
/Helvetica 13.333 F
GS
[1 0 0 1 0 0] CT
-26 4.5 moveto 
1 -1 scale
(-0.6) t 
GR
GR
GS
[0.75 0 0 0.75 51.5 218.875] CT
0 GC
/Helvetica 13.333 F
GS
[1 0 0 1 0 0] CT
-26 4.5 moveto 
1 -1 scale
(-0.4) t 
GR
GR
GS
[0.75 0 0 0.75 51.5 186.4375] CT
0 GC
/Helvetica 13.333 F
GS
[1 0 0 1 0 0] CT
-26 4.5 moveto 
1 -1 scale
(-0.2) t 
GR
GR
GS
[0.75 0 0 0.75 51.5 154] CT
0 GC
/Helvetica 13.333 F
GS
[1 0 0 1 0 0] CT
-9 4.5 moveto 
1 -1 scale
(0) t 
GR
GR
GS
[0.75 0 0 0.75 51.5 121.5625] CT
0 GC
/Helvetica 13.333 F
GS
[1 0 0 1 0 0] CT
-21 4.5 moveto 
1 -1 scale
(0.2) t 
GR
GR
GS
[0.75 0 0 0.75 51.5 89.125] CT
0 GC
/Helvetica 13.333 F
GS
[1 0 0 1 0 0] CT
-21 4.5 moveto 
1 -1 scale
(0.4) t 
GR
GR
GS
[0.75 0 0 0.75 51.5 56.68749] CT
0 GC
/Helvetica 13.333 F
GS
[1 0 0 1 0 0] CT
-21 4.5 moveto 
1 -1 scale
(0.6) t 
GR
GR
GS
[0.75 0 0 0.75 51.5 24.25] CT
0 GC
/Helvetica 13.333 F
GS
[1 0 0 1 0 0] CT
-21 4.5 moveto 
1 -1 scale
(0.8) t 
GR
GR
GS
[0.75 0 0 0.75 0 0.25] CT
0 GC
1 LJ
0.667 LW
N
74.176 210.636 M
74.352 205.766 L
74.528 207.349 L
74.704 210.979 L
74.88 215.5 L
75.056 228.85 L
75.232 223.822 L
75.408 216.186 L
75.584 231.853 L
75.76 238.354 L
75.936 223.221 L
76.112 206.208 L
76.288 194.349 L
76.464 193.774 L
76.64 196.566 L
76.816 194.184 L
76.992 180.754 L
77.168 173.699 L
77.344 191.471 L
77.52 202.835 L
77.696 203.832 L
77.872 204.089 L
78.048 195.761 L
78.224 188.97 L
78.4 189.65 L
78.576 196.078 L
78.752 192.006 L
78.928 178.239 L
79.104 176.22 L
79.28 166.413 L
79.456 151.228 L
79.632 156.864 L
79.808 172.221 L
79.984 193.359 L
80.16 208.102 L
80.336 209.95 L
80.512 206.854 L
80.688 204.34 L
80.864 207.567 L
81.04 216.879 L
81.216 238.472 L
81.392 257.069 L
81.568 265.913 L
81.744 257.234 L
81.92 252.588 L
82.096 265.299 L
82.272 253.664 L
82.448 226.95 L
82.624 221.829 L
82.8 242.458 L
82.976 246.213 L
83.152 245.045 L
83.328 258.686 L
83.504 265.847 L
83.68 276.34 L
83.856 280.068 L
84.032 289.545 L
84.208 292.581 L
84.384 283.837 L
84.56 281.613 L
84.736 279.811 L
84.912 307.08 L
85.088 343.944 L
85.264 357.711 L
85.44 343.733 L
85.616 327.71 L
85.792 331.63 L
85.968 323.301 L
86.144 314.095 L
86.32 301.675 L
86.496 288.694 L
86.672 305.971 L
86.848 318.814 L
87.024 324.958 L
87.2 333.326 L
87.376 323.618 L
87.552 320.127 L
87.728 325.802 L
87.904 330.257 L
88.08 335.22 L
88.256 331.762 L
88.432 336.355 L
88.608 340.262 L
88.784 315.323 L
88.96 278.023 L
89.136 265.24 L
89.312 263.953 L
89.488 258.152 L
89.664 257.069 L
89.84 257.314 L
90.016 260.356 L
90.192 250.853 L
90.368 249.157 L
90.544 253.552 L
90.72 256.608 L
90.896 252.206 L
91.072 209.91 L
91.248 194.085 L
91.424 220.357 L
91.6 231.259 L
91.776 217.011 L
91.952 201.707 L
92.128 189.947 L
92.304 188.429 L
92.48 200.268 L
92.656 192.224 L
92.832 171.897 L
93.008 155.306 L
93.184 153.412 L
93.36 171.515 L
93.536 183.321 L
93.712 178.18 L
93.888 167.02 L
94.064 156.567 L
94.24 163.067 L
94.416 165.093 L
94.592 141.678 L
94.768 132.545 L
94.944 148.509 L
95.12 176.622 L
95.296 183.697 L
95.472 167.264 L
95.648 154.805 L
95.824 150.667 L
96 164.447 L
96.176 178.86 L
96.352 174.682 L
96.528 158.54 L
96.704 166.36 L
96.88 190.237 L
97.056 195.385 L
97.232 179.15 L
97.408 157.709 L
97.584 167.231 L
97.76 165.555 L
97.936 148.073 L
98.112 155.927 L
98.288 162.882 L
98.464 165.707 L
98.64 172.009 L
98.816 168.353 L
98.992 152.211 L
99.168 163.978 L
99.344 190.283 L
99.52 196.163 L
99.696 185.551 L
99.872 168.664 L
100.048 177.949 L
100.224 191.418 L
100.4 194.665 L
100.576 182.014 L
100.752 175.593 L
100.928 198.077 L
101.104 198.988 L
101.28 190.785 L
101.456 183.558 L
101.632 181.605 L
101.808 185.776 L
101.984 171.554 L
102.16 167.132 L
102.336 166.222 L
102.512 159.385 L
102.688 150.872 L
102.864 144.978 L
103.04 141.909 L
103.216 124.315 L
103.392 136.412 L
103.568 158.071 L
103.744 146.905 L
103.92 129.621 L
104.096 119.986 L
104.272 121.577 L
104.448 109.315 L
104.624 109.678 L
104.8 131.41 L
104.976 136.907 L
105.152 132.4 L
105.328 136.241 L
105.504 162.724 L
105.68 175.824 L
105.856 173.871 L
106.032 175.217 L
106.208 169.172 L
106.384 163.985 L
106.56 162.684 L
106.736 169.046 L
106.912 173.409 L
107.088 172.379 L
107.264 160.012 L
107.44 142.338 L
107.616 131.925 L
107.792 122.699 L
107.968 129.74 L
108.144 141.362 L
108.32 148.08 L
108.496 154.871 L
108.672 149.34 L
108.848 141.025 L
109.024 135.092 L
109.2 122.969 L
109.376 111.084 L
109.552 115.109 L
109.728 120.824 L
109.904 108.767 L
110.08 96.789 L
110.256 92.295 L
110.432 86.606 L
110.608 79.215 L
110.784 92.724 L
110.96 123.906 L
111.136 115.367 L
111.312 87.649 L
111.488 94.677 L
111.664 111.242 L
111.84 110.186 L
112.016 99.561 L
112.192 93.087 L
112.368 90.573 L
112.544 95.971 L
112.72 105.25 L
112.896 103.877 L
113.072 97.225 L
113.248 91.186 L
113.424 96.268 L
113.6 109.11 L
113.776 115.994 L
113.952 115.188 L
114.128 110.628 L
114.304 115.743 L
114.48 122.903 L
114.656 128.156 L
114.832 142.932 L
115.008 154.231 L
115.184 150.284 L
115.36 145.671 L
115.536 148.469 L
115.712 144.562 L
115.888 138.597 L
116.064 144.655 L
116.24 159.405 L
116.416 170.709 L
116.592 172.128 L
116.768 163.813 L
116.944 138.544 L
117.12 113.143 L
117.296 115.235 L
117.472 144.312 L
117.648 163.985 L
117.824 161.167 L
118 177.104 L
118.176 194.863 L
118.352 199.08 L
118.528 212.688 L
118.704 216.146 L
118.88 221.195 L
119.056 226.824 L
119.232 226.151 L
119.408 253.341 L
119.584 283.942 L
119.76 292.073 L
119.936 273.713 L
120.112 249.52 L
120.288 253.328 L
120.464 258.772 L
120.64 253.856 L
120.816 243.659 L
120.992 234.876 L
121.168 234.328 L
121.344 240.05 L
121.52 248.833 L
121.696 242.115 L
121.872 231.668 L
122.048 231.879 L
122.224 240.261 L
122.4 241.02 L
122.576 239.251 L
122.752 254.74 L
122.928 272.677 L
123.104 286.028 L
123.28 278.768 L
123.456 266.045 L
123.632 257.3 L
123.808 239.462 L
123.984 243.838 L
124.16 246.062 L
124.336 237.463 L
124.512 236.539 L
124.688 231.081 L
124.864 235.714 L
125.04 228.428 L
125.216 208.141 L
125.392 206.373 L
125.568 220.443 L
125.744 222.271 L
125.92 205.205 L
126.096 200.75 L
126.272 200.809 L
126.448 196.652 L
126.624 176.339 L
126.8 145.882 L
126.976 138.993 L
127.152 140.444 L
127.328 147.532 L
127.504 161.833 L
127.68 167.938 L
127.856 170.498 L
128.032 175.461 L
128.208 178.893 L
128.384 170.01 L
128.56 161.114 L
128.736 169.218 L
128.912 189.333 L
129.088 208.867 L
129.264 198.269 L
129.44 172.491 L
129.616 173.356 L
129.792 191.847 L
129.968 204.241 L
130.144 211.309 L
130.32 209.705 L
130.496 194.89 L
130.672 195.477 L
130.848 210.92 L
131.024 233.543 L
131.2 255.71 L
131.376 255.42 L
131.552 240.406 L
131.728 224.303 L
131.904 213.414 L
132.08 200.295 L
132.256 199.701 L
132.432 208.201 L
132.608 205.112 L
132.784 215.209 L
132.96 232.374 L
133.136 231.391 L
133.312 232.341 L
133.488 243.25 L
133.664 243.442 L
133.84 238.545 L
134.016 241.072 L
134.192 249.17 L
134.368 253.968 L
134.544 251.671 L
134.72 260.877 L
134.896 277.831 L
135.072 275.686 L
135.248 264.052 L
135.424 258.548 L
135.6 267.939 L
135.776 277.237 L
135.952 266.282 L
136.128 264.012 L
136.304 268.401 L
136.48 278.656 L
136.656 280.233 L
136.832 258.574 L
137.008 255.862 L
137.184 263.616 L
137.36 258.277 L
137.536 246.576 L
137.712 247.573 L
137.888 252.998 L
138.064 254.509 L
138.24 249.579 L
138.416 244.795 L
138.592 261.511 L
138.768 268.407 L
138.944 266.289 L
139.12 261.96 L
139.296 252.773 L
139.472 247.309 L
139.648 246.075 L
139.824 260.574 L
140 264.019 L
140.176 250.081 L
140.352 245.916 L
140.528 247.382 L
140.704 239.68 L
140.88 222.944 L
141.056 213.507 L
141.232 225.716 L
141.408 239.733 L
141.584 240.017 L
141.76 229.101 L
141.936 208.122 L
142.112 200.895 L
142.288 210.095 L
142.464 219.407 L
142.64 236.822 L
142.816 259.59 L
142.992 265.86 L
143.168 254.806 L
143.344 238.637 L
143.52 240.135 L
143.696 252.687 L
143.872 253.097 L
144.048 251.816 L
144.224 238.215 L
144.4 223.94 L
144.576 215.097 L
144.752 203.674 L
144.928 207.726 L
145.104 211.019 L
145.28 203.436 L
145.456 199.971 L
145.632 208.517 L
145.808 207.759 L
145.984 193.623 L
146.16 188.435 L
146.336 186.535 L
146.512 184.641 L
146.688 188.977 L
146.864 200.757 L
147.04 207.937 L
147.216 208.927 L
147.392 211.355 L
147.568 209.963 L
147.744 214.398 L
147.92 218.958 L
148.096 223.353 L
148.272 248.794 L
148.448 262.587 L
148.624 250.569 L
148.8 239.291 L
148.976 234.011 L
149.152 238.466 L
149.328 235.291 L
149.504 224.092 L
149.68 228.124 L
149.856 236.4 L
150.032 235.965 L
150.208 229.497 L
150.384 214.701 L
150.56 206.881 L
150.736 216.899 L
150.912 225.339 L
151.088 232.83 L
151.264 234.48 L
151.44 227.992 L
151.616 228.342 L
151.792 223.03 L
151.968 217.15 L
152.144 224.442 L
152.32 232.183 L
152.496 231.411 L
152.672 230.612 L
152.848 233.529 L
153.024 238.908 L
153.2 256.099 L
153.376 268.163 L
153.552 262.098 L
153.728 256.938 L
153.904 251.229 L
154.08 246.596 L
154.256 259.373 L
154.432 268.255 L
154.608 254.351 L
154.784 250.932 L
154.96 265.484 L
155.136 260.712 L
155.312 236.189 L
155.488 215.863 L
155.664 218.667 L
155.84 243.461 L
156.016 259.94 L
156.192 269.655 L
156.368 275.686 L
156.544 271.113 L
156.72 276.993 L
156.896 290.126 L
157.072 295.531 L
157.248 288.641 L
157.424 277.653 L
157.6 277.778 L
157.776 285.46 L
157.952 284.893 L
158.128 266.46 L
158.304 250.213 L
158.48 243.435 L
158.656 232.632 L
158.832 223.023 L
159.008 230.434 L
159.184 241.264 L
159.36 241.904 L
159.536 252.687 L
159.712 256.97 L
159.888 247.401 L
160.064 246.167 L
160.24 247.362 L
160.416 245.646 L
160.592 245.105 L
160.768 244.676 L
160.944 249.579 L
161.12 251.704 L
161.296 237.707 L
161.472 235.588 L
161.648 247.197 L
161.824 254.133 L
162 253.545 L
162.176 245.257 L
162.352 242.828 L
162.528 240.399 L
162.704 234.532 L
162.88 235.991 L
163.056 231.714 L
163.232 214.662 L
163.408 206.142 L
163.584 201.984 L
163.76 191.484 L
163.936 179.44 L
164.112 168.716 L
164.288 166.704 L
164.464 176.273 L
164.64 179.638 L
164.816 174.702 L
164.992 177.487 L
165.168 169.64 L
165.344 161.358 L
165.52 166.294 L
165.696 175.646 L
165.872 187.036 L
166.048 190.204 L
166.224 187.591 L
166.4 188.812 L
166.576 197.127 L
166.752 189.485 L
166.928 177.414 L
167.104 170.379 L
167.28 161.497 L
167.456 173.402 L
167.632 190.613 L
167.808 196.388 L
167.984 198.552 L
168.16 210.016 L
168.336 207.099 L
168.512 190.527 L
168.688 191.154 L
168.864 182.153 L
169.04 174.161 L
169.216 175.032 L
169.392 175.342 L
169.568 178.662 L
169.744 182.008 L
169.92 191.445 L
170.096 185.657 L
170.272 185.248 L
170.448 188.475 L
170.624 180.562 L
170.8 201.463 L
170.976 222.191 L
171.152 217.018 L
171.328 211.19 L
171.504 211.646 L
171.68 209.686 L
171.856 204.716 L
172.032 191.854 L
172.208 175.296 L
172.384 182.417 L
172.56 191.306 L
172.736 195.86 L
172.912 207.924 L
173.088 206.881 L
173.264 205.587 L
173.44 208.484 L
173.616 215.381 L
173.792 221.162 L
173.968 214.299 L
174.144 205.574 L
174.32 202.492 L
174.496 213.071 L
174.672 212.629 L
174.848 197.523 L
175.024 185.162 L
175.2 171.62 L
175.376 172.623 L
175.552 177.375 L
175.728 163.245 L
175.904 156.362 L
176.08 168.32 L
176.256 162.882 L
176.432 161.543 L
176.608 180.034 L
176.784 179.724 L
176.96 162.691 L
177.136 135.581 L
177.312 123.966 L
177.488 138.214 L
177.664 139.956 L
177.84 129.687 L
178.016 130.473 L
178.192 130.05 L
178.368 119.399 L
178.544 116.931 L
178.72 124.903 L
178.896 139.87 L
179.072 155.636 L
179.248 163.179 L
179.424 160.177 L
179.6 149.611 L
179.776 144.754 L
179.952 144.945 L
180.128 154.422 L
180.304 168.631 L
180.48 156.831 L
180.656 132.222 L
180.832 136.67 L
181.008 156.323 L
181.184 163.397 L
181.36 173.303 L
181.536 185.598 L
181.712 179.942 L
181.888 171.059 L
182.064 183.77 L
182.24 202.175 L
182.416 201.205 L
182.592 195.53 L
182.768 200.149 L
182.944 205.363 L
183.12 206.881 L
183.296 206.003 L
183.472 195.028 L
183.648 179.223 L
183.824 170.366 L
184 164.869 L
184.176 174.431 L
184.352 192.659 L
184.528 193.266 L
184.704 179.183 L
184.88 168.459 L
185.056 173.699 L
185.232 181.717 L
185.408 187.32 L
185.584 188.713 L
185.76 191.399 L
185.936 210.458 L
186.112 227.035 L
186.288 237.172 L
186.464 235.522 L
186.64 227.781 L
186.816 235.529 L
186.992 248.16 L
187.168 252.107 L
187.344 246.418 L
187.52 251.051 L
187.696 256.99 L
187.872 246.319 L
188.048 230.969 L
188.224 218.971 L
188.4 217.242 L
188.576 229.939 L
188.752 252.562 L
188.928 257.545 L
189.104 241.013 L
189.28 232.381 L
189.456 228.956 L
189.632 226.778 L
189.808 230.969 L
189.984 222.297 L
190.16 214.701 L
190.336 223.789 L
190.512 229.933 L
190.688 233.114 L
190.864 225.412 L
191.04 222.007 L
191.216 234.249 L
191.392 224.759 L
191.568 205.343 L
191.744 207.343 L
191.92 212.583 L
192.096 204.03 L
192.272 198.684 L
192.448 204.419 L
192.624 215.005 L
192.8 230.698 L
192.976 231.602 L
193.152 215.117 L
193.328 205.607 L
193.504 201.417 L
193.68 195.332 L
193.856 185.987 L
194.032 189.722 L
194.208 202.175 L
194.384 196.606 L
194.56 188.389 L
194.736 180.318 L
194.912 173.461 L
195.088 166.585 L
195.264 157.517 L
195.44 162.711 L
195.616 172.511 L
195.792 182.285 L
195.968 177.83 L
196.144 165.931 L
196.32 165.78 L
196.496 163.391 L
196.672 161.906 L
196.848 161.556 L
197.024 156.699 L
197.2 143.441 L
197.376 131.225 L
197.552 136.472 L
197.728 140.867 L
197.904 139.23 L
198.08 134.465 L
198.256 125.55 L
198.432 132.802 L
198.608 150.825 L
198.784 159.84 L
198.96 160.144 L
199.136 164.981 L
199.312 162.025 L
199.488 156.164 L
199.664 170.069 L
199.84 171.943 L
200.016 166.869 L
200.192 173.936 L
200.368 184.251 L
200.544 194.474 L
200.72 181.895 L
200.896 153.208 L
201.072 148.892 L
201.248 164.169 L
201.424 162.223 L
201.6 148.892 L
201.776 142.154 L
201.952 149.202 L
202.128 159.378 L
202.304 154.607 L
202.48 155.755 L
202.656 160.672 L
202.832 151.611 L
203.008 145.282 L
203.184 148.779 L
203.36 155.61 L
203.536 166.09 L
203.712 178.563 L
203.888 184.377 L
204.064 185.928 L
204.24 179.889 L
204.416 170.412 L
204.592 182.159 L
204.768 196.52 L
204.944 196.863 L
205.12 193.009 L
205.296 196.526 L
205.472 207.27 L
205.648 204.281 L
205.824 199.331 L
206 206.861 L
206.176 220.931 L
206.352 228.454 L
206.528 226.118 L
206.704 219.558 L
206.88 216.008 L
207.056 230.124 L
207.232 235.463 L
207.408 231.371 L
207.584 239.033 L
207.76 235.529 L
207.936 224.046 L
208.112 219.308 L
208.288 235.674 L
208.464 260.396 L
208.64 258.099 L
208.816 252.984 L
208.992 260.29 L
209.168 258.587 L
209.344 250.648 L
209.52 257.109 L
209.696 260.099 L
209.872 250.595 L
210.048 254.766 L
210.224 255.961 L
210.4 259.63 L
210.576 269.061 L
210.752 262.006 L
210.928 261.069 L
211.104 257.281 L
211.28 249.025 L
211.456 257.215 L
211.632 265.114 L
211.808 280.247 L
211.984 280.827 L
212.16 258.561 L
212.336 257.287 L
212.512 253.07 L
212.688 240.716 L
212.864 246.596 L
213.04 244.887 L
213.216 232.625 L
213.392 221.782 L
213.568 208.089 L
213.744 215.031 L
213.92 228.263 L
214.096 223.624 L
214.272 228.494 L
214.448 236.763 L
214.624 231.497 L
214.8 222.172 L
214.976 220.502 L
215.152 222.244 L
215.328 225.465 L
215.504 231.78 L
215.68 236.004 L
215.856 233.536 L
216.032 209.085 L
216.208 190.659 L
216.384 199.463 L
216.56 214.629 L
216.736 219.189 L
216.912 214.853 L
217.088 225.755 L
217.264 234.552 L
217.44 220.456 L
217.616 205.667 L
217.792 205.594 L
217.968 215.651 L
218.144 222.29 L
218.32 221.34 L
218.496 226.824 L
218.672 237.1 L
218.848 243.739 L
219.024 249.025 L
219.2 249.388 L
219.376 246.464 L
219.552 244.425 L
219.728 247.606 L
219.904 250.252 L
220.08 254.977 L
220.256 265.134 L
220.432 267.813 L
220.608 268.981 L
220.784 269.193 L
220.96 258.944 L
221.136 258.396 L
221.312 271.496 L
221.488 263.425 L
221.664 252.1 L
221.84 253.255 L
222.016 241.732 L
222.192 236.565 L
222.368 240.855 L
222.544 234.592 L
222.72 226.877 L
222.896 228.857 L
223.072 240.234 L
223.248 240.723 L
223.424 232.17 L
223.6 241.627 L
223.776 251.447 L
223.952 240.683 L
224.128 226.6 L
224.304 221.875 L
224.48 219.598 L
224.656 215.863 L
224.832 216.899 L
225.008 225.287 L
225.184 231.714 L
225.36 233.015 L
225.536 234.664 L
225.712 232.071 L
225.888 237.773 L
226.064 249.104 L
226.24 250.232 L
226.416 263.438 L
226.592 286.549 L
226.768 294.178 L
226.944 285.124 L
227.12 269.457 L
227.296 253.031 L
227.472 240.327 L
227.648 245.487 L
227.824 254.555 L
228 247.355 L
228.176 237.654 L
228.352 233.701 L
228.528 239.621 L
228.704 244.781 L
228.88 237.925 L
229.056 228.831 L
229.232 212.873 L
229.408 211.349 L
229.584 220.403 L
229.76 195.662 L
229.936 175.177 L
230.112 176.537 L
230.288 171.27 L
230.464 179.117 L
230.64 194.989 L
230.816 191.894 L
230.992 171.587 L
231.168 151.129 L
231.344 145.869 L
231.52 172.603 L
231.696 190.937 L
231.872 181.783 L
232.048 194.573 L
232.224 198.645 L
232.4 191.247 L
232.576 188.587 L
232.752 170.459 L
232.928 162.737 L
233.104 166.169 L
233.28 173.112 L
233.456 180.965 L
233.632 185.347 L
233.808 186.97 L
233.984 176.754 L
234.16 158.679 L
234.336 151.901 L
234.512 155.814 L
234.688 152.799 L
234.864 153.201 L
235.04 152.191 L
235.216 144.437 L
235.392 145.473 L
235.568 144.114 L
235.744 131.548 L
235.92 114.205 L
236.096 96.459 L
236.272 91.714 L
236.448 104.445 L
236.624 119.194 L
236.8 137.91 L
236.976 147.374 L
237.152 132.881 L
237.328 116.225 L
237.504 113.07 L
237.68 123.761 L
237.856 130.987 L
238.032 131.746 L
238.208 133.165 L
238.384 137.244 L
238.56 141.916 L
238.736 146.087 L
238.912 148.456 L
239.088 132.782 L
239.264 127.312 L
239.44 141.903 L
239.616 152.601 L
239.792 162.302 L
239.968 162.962 L
240.144 163.364 L
240.32 182.839 L
240.496 203.218 L
240.672 205.046 L
240.848 208.676 L
241.024 219.605 L
241.2 229.015 L
241.376 242.016 L
241.552 239.984 L
241.728 220.482 L
241.904 211.302 L
242.08 225.108 L
242.256 245.639 L
242.432 250.199 L
242.608 248.061 L
242.784 256.99 L
242.96 264.83 L
243.136 263.992 L
243.312 270.988 L
243.488 279.085 L
243.664 280.603 L
243.84 281.474 L
244.016 279.244 L
244.192 275.231 L
244.368 260.64 L
244.544 252.087 L
244.72 264.5 L
244.896 274.076 L
245.072 269.298 L
245.248 260.924 L
245.424 257.98 L
245.6 248.035 L
245.776 247.355 L
245.952 261.953 L
246.128 277.475 L
246.304 292.489 L
246.48 286.14 L
246.656 275.106 L
246.832 267.813 L
247.008 266.19 L
247.184 278.247 L
247.36 276.472 L
247.536 275 L
247.712 271.529 L
247.888 262.573 L
248.064 265.946 L
248.24 255.585 L
248.416 249.968 L
248.592 260.019 L
248.768 259.617 L
248.944 250.767 L
249.12 248.193 L
249.296 249.856 L
249.472 232.572 L
249.648 222.231 L
249.824 225.795 L
250 236.116 L
250.176 252.437 L
250.352 249.46 L
250.528 248.51 L
250.704 250.193 L
250.88 255.123 L
251.056 271.846 L
251.232 275.027 L
251.408 261.234 L
251.584 260.468 L
251.76 274.697 L
251.936 274.598 L
252.112 274.789 L
252.288 268.209 L
252.464 257.809 L
252.64 261.874 L
252.816 271.694 L
252.992 284.253 L
253.168 280.372 L
253.344 271.331 L
253.52 266.427 L
253.696 254.7 L
253.872 237.872 L
254.048 239.112 L
254.224 251.46 L
254.4 236.202 L
254.576 226.554 L
254.752 242.089 L
254.928 243.125 L
255.104 231.787 L
255.28 236.149 L
255.456 246.312 L
255.632 258.363 L
255.808 272.38 L
255.984 257.789 L
256.16 232.698 L
256.336 233.674 L
256.512 240.248 L
256.688 239.937 L
256.864 239.106 L
257.04 235.641 L
257.216 231.457 L
257.392 226.006 L
257.568 228.184 L
257.744 231.305 L
257.92 239.429 L
258.096 254.344 L
258.272 254.324 L
258.448 248.847 L
258.624 243.098 L
258.8 240.611 L
258.976 236.558 L
259.152 225.095 L
259.328 215.124 L
259.504 225.353 L
259.68 250.087 L
259.856 253.704 L
260.032 248.952 L
260.208 238.947 L
260.384 228.712 L
260.56 228.19 L
260.736 226.29 L
260.912 227.623 L
261.088 223.775 L
261.264 222.759 L
261.44 220.377 L
261.616 219.842 L
261.792 239.911 L
261.968 244.735 L
262.144 232.058 L
262.32 219.347 L
262.496 207.607 L
262.672 211.019 L
262.848 215.929 L
263.024 224.6 L
263.2 228.883 L
263.376 218.694 L
263.552 222.667 L
263.728 232.203 L
263.904 233.833 L
264.08 217.658 L
264.256 206.043 L
264.432 235.496 L
264.608 256.792 L
264.784 248.721 L
264.96 236.578 L
265.136 220.436 L
265.312 202.367 L
265.488 198.229 L
265.664 217.381 L
265.84 222.812 L
266.016 214.312 L
266.192 216.437 L
266.368 222.264 L
266.544 234.004 L
266.72 227.497 L
266.896 208.841 L
267.072 211.956 L
267.248 225.524 L
267.424 240.01 L
267.6 241.336 L
267.776 210.867 L
267.952 187.017 L
268.128 205.917 L
268.304 237.476 L
268.48 242.419 L
268.656 225.689 L
268.832 212.622 L
269.008 206.188 L
269.184 209.369 L
269.36 213.586 L
269.536 203.238 L
269.712 188.27 L
269.888 176.939 L
270.064 167.165 L
270.24 157.86 L
270.416 147.4 L
270.592 133.581 L
270.768 129.74 L
270.944 137.587 L
271.12 144.094 L
271.296 147.446 L
271.472 146.582 L
271.648 142.622 L
271.824 140.794 L
272 145.942 L
272.176 148.285 L
272.352 146.536 L
272.528 151.98 L
272.704 168.056 L
272.88 188.713 L
273.056 194.744 L
273.232 178.094 L
273.408 163.483 L
273.584 160.922 L
273.76 151.168 L
273.936 154.646 L
274.112 161.556 L
274.288 152.152 L
274.464 154.891 L
274.64 156.983 L
274.816 148.344 L
274.992 138.148 L
275.168 137.395 L
275.344 140.458 L
275.52 143.493 L
275.696 146.41 L
275.872 129.476 L
276.048 121.913 L
276.224 118.35 L
276.4 108.576 L
276.576 109.328 L
276.752 102.392 L
276.928 93.621 L
277.104 86.243 L
277.28 86.521 L
277.456 89.193 L
277.632 83.749 L
277.808 91.338 L
277.984 109.612 L
278.16 113.816 L
278.336 88.982 L
278.512 70.675 L
278.688 87.068 L
278.864 104.484 L
279.04 106.207 L
279.216 102.405 L
279.392 106.253 L
279.568 114.403 L
279.744 114.977 L
279.92 119.313 L
280.096 122.441 L
280.272 124.111 L
280.448 139.567 L
280.624 157.002 L
280.8 164.301 L
280.976 162.242 L
281.152 162.651 L
281.328 167.436 L
281.504 163.925 L
281.68 156.263 L
281.856 153.201 L
282.032 159.042 L
282.208 160.685 L
282.384 152.304 L
282.56 152.548 L
282.736 161.431 L
282.912 160.005 L
283.088 151.333 L
283.264 155.254 L
283.44 160.995 L
283.616 156.705 L
283.792 150.462 L
283.968 156.197 L
284.144 163.641 L
284.32 154.877 L
284.496 142.002 L
284.672 141.843 L
284.848 161.424 L
285.024 169.139 L
285.2 171.528 L
285.376 176.715 L
285.552 164.13 L
285.728 160.982 L
285.904 166.849 L
286.08 164.724 L
286.256 154.653 L
286.432 148.285 L
286.608 150.878 L
286.784 159.266 L
286.96 161.912 L
287.136 154.039 L
287.312 160.493 L
287.488 172.762 L
287.664 170.122 L
287.84 172.709 L
288.016 197.265 L
288.192 201.436 L
288.368 185.419 L
288.544 182.8 L
288.72 189.98 L
288.896 203.35 L
289.072 202.024 L
289.248 200.248 L
289.424 203.429 L
289.6 200.71 L
289.776 206.161 L
289.952 209.25 L
290.128 205.95 L
290.304 205.125 L
290.48 215.962 L
290.656 226.574 L
290.832 216.232 L
291.008 198.691 L
291.184 192.831 L
291.36 210.464 L
291.536 230.81 L
291.712 219.308 L
291.888 206.069 L
292.064 214.675 L
292.24 225.973 L
292.416 224.442 L
292.592 222.785 L
292.768 229.398 L
292.944 223.023 L
293.12 221.598 L
293.296 231.873 L
293.472 244.999 L
293.648 247.487 L
293.824 235.542 L
294 237.951 L
294.176 253.922 L
294.352 276.835 L
294.528 280.24 L
294.704 266.249 L
294.88 260.64 L
295.056 259.637 L
295.232 265.787 L
295.408 278.353 L
295.584 289.69 L
295.76 281.395 L
295.936 263.379 L
296.112 257.399 L
296.288 266.19 L
296.464 278.135 L
296.64 280.002 L
296.816 277.033 L
296.992 279.026 L
297.168 290.093 L
297.344 288.443 L
297.52 279.62 L
297.696 279.699 L
297.872 276.366 L
298.048 274.122 L
298.224 266.243 L
298.4 256.931 L
298.576 262.554 L
298.752 265.279 L
298.928 256.68 L
299.104 253.974 L
299.28 256.35 L
299.456 245.217 L
299.632 233.708 L
299.808 223.214 L
299.984 204.281 L
300.16 209.158 L
300.336 213.705 L
300.512 193.24 L
300.688 186.258 L
300.864 189.485 L
301.04 192.263 L
301.216 197.252 L
301.392 180.925 L
301.568 152.145 L
301.744 149.657 L
301.92 161.622 L
302.096 170.445 L
302.272 179.876 L
302.448 182.364 L
302.624 184.496 L
302.8 189.643 L
302.976 185.65 L
303.152 173.706 L
303.328 176.754 L
303.504 188.911 L
303.68 184.529 L
303.856 180.694 L
304.032 181.407 L
304.208 173.758 L
304.384 173.626 L
304.56 177.15 L
304.736 177.395 L
304.912 183.704 L
305.088 186.673 L
305.264 176.88 L
305.44 170.657 L
305.616 186.304 L
305.792 198.539 L
305.968 192.725 L
306.144 183.585 L
306.32 178.187 L
306.496 179.097 L
306.672 180.298 L
306.848 188.112 L
307.024 200.057 L
307.2 198.79 L
307.376 194.137 L
307.552 208.267 L
307.728 219.954 L
307.904 218.37 L
308.08 220.614 L
308.256 226.494 L
308.432 232.157 L
308.608 231.721 L
308.784 231.299 L
308.96 217.895 L
309.136 210.154 L
309.312 220.911 L
309.488 224.91 L
309.664 229.042 L
309.84 226.811 L
310.016 221.492 L
310.192 221.611 L
310.368 228.712 L
310.544 227.121 L
310.72 227.174 L
310.896 246.299 L
311.072 256.027 L
311.248 254.212 L
311.424 239.244 L
311.6 232.19 L
311.776 251.942 L
311.952 271.568 L
312.128 277.29 L
312.304 274.109 L
312.48 262.045 L
312.656 252.001 L
312.832 257.267 L
313.008 257.974 L
313.184 245.23 L
313.36 232.737 L
313.536 240.149 L
313.712 247.309 L
313.888 235.714 L
314.064 239.416 L
314.24 250.503 L
314.416 250.358 L
314.592 251.783 L
314.768 257.677 L
314.944 259.491 L
315.12 255.004 L
315.296 248.629 L
315.472 240.485 L
315.648 234.275 L
315.824 231.015 L
316 227.88 L
316.176 226.428 L
316.352 216.978 L
316.528 197.107 L
316.704 194.415 L
316.88 209.818 L
317.056 218.74 L
317.232 221.842 L
317.408 220.997 L
317.584 216.549 L
317.76 217.539 L
317.936 208.221 L
318.112 196.335 L
318.288 204.782 L
318.464 203.938 L
318.64 198.962 L
318.816 204.934 L
318.992 205.264 L
319.168 198.242 L
319.344 195.035 L
319.52 208.504 L
319.696 207.831 L
319.872 196.883 L
320.048 202.004 L
320.224 204.584 L
320.4 201.661 L
320.576 193.801 L
320.752 186.508 L
320.928 189.109 L
321.104 193.484 L
321.28 194.118 L
321.456 190.93 L
321.632 178.365 L
321.808 169.139 L
321.984 173.316 L
322.16 176.22 L
322.336 179.929 L
322.512 182.786 L
322.688 177.381 L
322.864 179.645 L
323.04 189.802 L
323.216 189.01 L
323.392 184.997 L
323.568 176.108 L
323.744 164.407 L
323.92 170.808 L
324.096 175.098 L
324.272 168.703 L
324.448 164.743 L
324.624 162.421 L
324.8 158.863 L
324.976 150.555 L
325.152 142.008 L
325.328 142.101 L
325.504 149.479 L
325.68 149.789 L
325.856 149.446 L
326.032 156.712 L
326.208 163.536 L
326.384 166.882 L
326.56 163.846 L
326.736 167.832 L
326.912 178.701 L
327.088 187.419 L
327.264 202.156 L
327.44 212.253 L
327.616 213.46 L
327.792 204.96 L
327.968 194.705 L
328.144 200.163 L
328.32 206.412 L
328.496 205.924 L
328.672 199.859 L
328.848 198.783 L
329.024 204.558 L
329.2 205.251 L
329.376 207.759 L
329.552 197.153 L
329.728 175.316 L
329.904 166.948 L
330.08 163.206 L
330.256 159.471 L
330.432 160.988 L
330.608 168.195 L
330.784 182.602 L
330.96 191.339 L
331.136 194.711 L
331.312 194.632 L
331.488 190.184 L
331.664 193.9 L
331.84 202.789 L
332.016 207.382 L
332.192 207.627 L
332.368 215.289 L
332.544 227.075 L
332.72 236.987 L
332.896 235.958 L
333.072 223.518 L
333.248 219.433 L
333.424 214.444 L
333.6 196.434 L
333.776 186.093 L
333.952 206.406 L
334.128 217.605 L
334.304 206.795 L
334.48 197.642 L
334.656 192.534 L
334.832 203.482 L
335.008 207.666 L
335.184 205.785 L
335.36 203.726 L
335.536 194.118 L
335.712 190.554 L
335.888 193.055 L
336.064 195.015 L
336.24 187.96 L
336.416 182.443 L
336.592 183.149 L
336.768 186.126 L
336.944 186.812 L
337.12 183.294 L
337.296 180.265 L
337.472 180.483 L
337.648 186.139 L
337.824 188.944 L
338 181.044 L
338.176 159.853 L
338.352 144.793 L
338.528 149.934 L
338.704 172.24 L
338.88 187.36 L
339.056 162.625 L
339.232 129.562 L
339.408 126.256 L
339.584 140.755 L
339.76 158.355 L
339.936 168.281 L
340.112 165.595 L
340.288 160.916 L
340.464 169.521 L
340.64 183.347 L
340.816 174.676 L
340.992 167.086 L
341.168 174.207 L
341.344 172.161 L
341.52 172.207 L
341.696 175.6 L
341.872 175.032 L
342.048 176.055 L
342.224 179.249 L
342.4 180.411 L
342.576 192.52 L
342.752 203.852 L
342.928 187.637 L
343.104 171.119 L
343.28 164.46 L
343.456 161.794 L
343.632 173.118 L
343.808 198.605 L
343.984 217.189 L
344.16 217.064 L
344.336 211.712 L
344.512 202.38 L
344.688 196.949 L
344.864 194.784 L
345.04 194.395 L
345.216 201.647 L
345.392 209.613 L
345.568 218.542 L
345.744 220.165 L
345.92 207.613 L
346.096 198.493 L
346.272 205.779 L
346.448 221.149 L
346.624 232.744 L
346.8 238.954 L
346.976 246.022 L
347.152 243.237 L
347.328 234.572 L
347.504 246.794 L
347.68 260.422 L
347.856 252.905 L
348.032 245.382 L
348.208 251.295 L
348.384 256.113 L
348.56 252.978 L
348.736 255.413 L
348.912 257.822 L
349.088 251.236 L
349.264 250.015 L
349.44 250.199 L
349.616 247.896 L
349.792 255.908 L
349.968 257.512 L
350.144 252.291 L
350.32 264.065 L
350.496 268.698 L
350.672 255.789 L
350.848 253.532 L
351.024 252.371 L
351.2 241.026 L
351.376 248.404 L
351.552 267.906 L
351.728 267.78 L
351.904 254.238 L
352.08 235.45 L
352.256 227.715 L
352.432 232.487 L
352.608 228.157 L
352.784 226.923 L
352.96 230.599 L
353.136 216.443 L
353.312 197.76 L
353.488 200.829 L
353.664 215.077 L
353.84 218.997 L
354.016 211.659 L
354.192 214.252 L
354.368 222.396 L
354.544 214.965 L
354.72 199.107 L
354.896 190.778 L
355.072 195.913 L
355.248 197.206 L
355.424 197.859 L
355.6 201.351 L
355.776 181.493 L
355.952 154.369 L
356.128 160.045 L
356.304 181.361 L
356.48 178.978 L
356.656 168.644 L
356.832 170.894 L
357.008 178.338 L
357.184 177.038 L
357.36 172.623 L
357.536 178.939 L
357.712 182.978 L
357.888 190.791 L
358.064 200.295 L
358.24 199.945 L
358.416 193.596 L
358.592 188.62 L
358.768 198.401 L
358.944 199.371 L
359.12 187.71 L
359.296 179.209 L
359.472 173.039 L
359.648 175.006 L
359.824 176.497 L
360 184.337 L
360.176 187.729 L
360.352 176.893 L
360.528 166.862 L
360.704 160.48 L
360.88 166.895 L
361.056 162.757 L
361.232 143.322 L
361.408 140.444 L
361.584 144.232 L
361.76 136.115 L
361.936 126.744 L
362.112 131.522 L
362.288 145.467 L
362.464 152.429 L
362.64 147.908 L
362.816 145.46 L
362.992 151.34 L
363.168 156.666 L
363.344 161.873 L
363.52 170.901 L
363.696 172.346 L
363.872 179.658 L
364.048 204.987 L
364.224 218.852 L
364.4 226.131 L
364.576 249.355 L
364.752 271.245 L
364.928 278.135 L
365.104 271.324 L
365.28 254.529 L
365.456 258.178 L
365.632 281.151 L
365.808 295.379 L
365.984 294.607 L
366.16 278.194 L
366.336 266.388 L
366.512 262.87 L
366.688 269.08 L
366.864 285.058 L
367.04 287.044 L
367.216 274.175 L
367.392 260.528 L
367.568 251.031 L
367.744 243.719 L
367.92 241.812 L
368.096 242.854 L
368.272 239.561 L
368.448 240.749 L
368.624 251.018 L
368.8 252.932 L
368.976 247.923 L
369.152 245.619 L
369.328 247.058 L
369.504 251.071 L
369.68 247.85 L
369.856 256.621 L
370.032 268.44 L
370.208 258.462 L
370.384 245.012 L
370.56 240.096 L
370.736 242.577 L
370.912 239.522 L
371.088 238.578 L
371.264 245.257 L
371.44 246.062 L
371.616 242.419 L
371.792 236.532 L
371.968 235.417 L
372.144 230.078 L
372.32 218.7 L
372.496 209.382 L
372.672 201.826 L
372.848 199.932 L
373.024 202.281 L
373.2 211.929 L
373.376 219.717 L
373.552 218.285 L
373.728 209.494 L
373.904 202.552 L
374.08 207.613 L
374.256 207.409 L
374.432 197.813 L
374.608 196.012 L
374.784 195.972 L
374.96 190.501 L
375.136 193.649 L
375.312 194.883 L
375.488 185.347 L
375.664 185.895 L
375.84 192.936 L
376.016 192.989 L
376.192 191.768 L
376.368 198.559 L
376.544 209.956 L
376.72 218.674 L
376.896 222.713 L
377.072 218.344 L
377.248 225.735 L
377.424 242.551 L
377.6 241.706 L
377.776 237.119 L
377.952 243.197 L
378.128 253.149 L
378.304 258.64 L
378.48 271.258 L
378.656 277.185 L
378.832 268.889 L
379.008 281.897 L
379.184 299.86 L
379.36 296.805 L
379.536 284.807 L
379.712 285.051 L
379.888 292.7 L
380.064 284.451 L
380.24 268.757 L
380.416 270.262 L
380.592 284.239 L
380.768 274.393 L
380.944 254.687 L
381.12 271.417 L
381.296 291.815 L
381.472 280.068 L
381.648 270.717 L
381.824 266.982 L
382 251.414 L
382.176 239.72 L
382.352 234.803 L
382.528 223.822 L
382.704 214.642 L
382.88 214.959 L
383.056 226.25 L
383.232 249.361 L
383.408 254.918 L
383.584 246.405 L
383.76 245.963 L
383.936 242.194 L
384.112 227.121 L
384.288 216.952 L
384.464 227.959 L
384.64 236.235 L
384.816 232.856 L
384.992 226.079 L
385.168 222.482 L
385.344 224.442 L
385.52 215.711 L
385.696 204.096 L
385.872 204.314 L
386.048 206.518 L
386.224 200.262 L
386.4 201.707 L
386.576 208.207 L
386.752 207.257 L
386.928 204.32 L
387.104 199.199 L
387.28 204.479 L
387.456 220.469 L
387.632 236.11 L
387.808 236.578 L
387.984 231.154 L
388.16 244.187 L
388.336 258.396 L
388.512 264.943 L
388.688 265.642 L
388.864 266.031 L
389.04 274.769 L
389.216 279.791 L
389.392 278.881 L
389.568 271.793 L
389.744 257.076 L
389.92 253.592 L
390.096 262.877 L
390.272 266.071 L
390.448 263.365 L
390.624 252.021 L
390.8 242.181 L
390.976 251.288 L
391.152 253.981 L
391.328 245.963 L
391.504 259.491 L
391.68 278.848 L
391.856 272.077 L
392.032 260.594 L
392.208 256.212 L
392.384 257.716 L
392.56 271.377 L
392.736 281.138 L
392.912 284.714 L
393.088 280.458 L
393.264 269.892 L
393.44 257.432 L
393.616 241.567 L
393.792 232.183 L
393.968 224.185 L
394.144 212.273 L
394.32 206.907 L
394.496 216.463 L
394.672 219.954 L
394.848 206.3 L
395.024 196.216 L
395.2 191.735 L
395.376 185.796 L
395.552 177.395 L
395.728 156.89 L
395.904 133.304 L
396.08 144.358 L
396.256 170.155 L
396.432 174.695 L
396.608 171.699 L
396.784 165.918 L
396.96 159.147 L
397.136 162.783 L
397.312 175.27 L
397.488 176.893 L
397.664 162.935 L
397.84 147.11 L
398.016 144.932 L
398.192 159.702 L
398.368 170.036 L
398.544 165.351 L
398.72 157.735 L
398.896 155.108 L
399.072 153.201 L
399.248 148.37 L
399.424 137.706 L
399.6 127.688 L
399.776 128.843 L
399.952 139.283 L
400.128 150.264 L
400.304 164.453 L
400.48 174.504 L
400.656 171.35 L
400.832 179.256 L
401.008 199.47 L
401.184 209.666 L
401.36 201.027 L
401.536 199.423 L
401.712 204.921 L
401.888 185.123 L
402.064 174.775 L
402.24 181.249 L
402.416 177.665 L
402.592 168.571 L
402.768 156.989 L
402.944 156.197 L
403.12 156.369 L
403.296 156.309 L
403.472 175.098 L
403.648 192.369 L
403.824 199.826 L
404 209.006 L
404.176 209.026 L
404.352 203.871 L
404.528 215.031 L
404.704 223.795 L
404.88 213.454 L
405.056 212.669 L
405.232 214.134 L
405.408 195.695 L
405.584 186.792 L
405.76 200.235 L
405.936 213.262 L
406.112 217.024 L
406.288 215.533 L
406.464 224.739 L
406.64 242.366 L
406.816 239.799 L
406.992 221.895 L
407.168 209.045 L
407.344 207.825 L
407.52 213.995 L
407.696 210.676 L
407.872 198.836 L
408.048 195.952 L
408.224 200.895 L
408.4 198.005 L
408.576 195.748 L
408.752 196.698 L
408.928 184.918 L
409.104 176.88 L
409.28 187.485 L
409.456 200.671 L
409.632 211.302 L
409.808 222.205 L
409.984 221.202 L
410.16 221.056 L
410.336 233.734 L
410.512 239.093 L
410.688 241.039 L
410.864 249.784 L
411.04 261.722 L
411.216 272.598 L
411.392 283.408 L
411.568 289.011 L
411.744 281.699 L
411.92 281.118 L
412.096 283.005 L
412.272 276.604 L
412.448 270.889 L
412.624 267.332 L
412.8 270.249 L
412.976 269.925 L
413.152 262.824 L
413.328 256.278 L
413.504 249.348 L
413.68 242.637 L
413.856 241.211 L
414.032 242.109 L
414.208 250.239 L
414.384 263.933 L
414.56 261.445 L
414.736 257.505 L
414.912 253.493 L
415.088 246.042 L
415.264 246.609 L
415.44 238.334 L
415.616 231.648 L
415.792 236.037 L
415.968 239.416 L
416.144 242.551 L
416.32 237.746 L
416.496 225.518 L
416.672 223.69 L
416.848 222.337 L
417.024 213.335 L
417.2 212.748 L
417.376 220 L
417.552 224.046 L
417.728 221.373 L
417.904 229.985 L
418.08 244.973 L
418.256 242.755 L
418.432 229.972 L
418.608 221.109 L
418.784 229.352 L
418.96 242.934 L
419.136 251.968 L
419.312 262.092 L
419.488 263.676 L
419.664 266.276 L
419.84 278.788 L
420.016 277.02 L
420.192 260.673 L
420.368 254.047 L
420.544 252.047 L
420.72 255.294 L
420.896 260.006 L
421.072 247.566 L
421.248 234.315 L
421.424 228.098 L
421.6 217.994 L
421.776 200.479 L
421.952 190.64 L
422.128 196.256 L
422.304 185.716 L
422.48 159.253 L
422.656 155.689 L
422.832 175.309 L
423.008 185.446 L
423.184 182.344 L
423.36 181.486 L
423.536 184.535 L
423.712 190.884 L
423.888 196.559 L
424.064 205.581 L
424.24 217.704 L
424.416 219.195 L
424.592 225.669 L
424.768 229.299 L
424.944 211.316 L
425.12 208.445 L
425.296 221.631 L
425.472 225.155 L
425.648 227.101 L
425.824 231.008 L
426 222.363 L
426.176 209.204 L
426.352 204.67 L
426.528 194.408 L
426.704 193.378 L
426.88 202.182 L
427.056 195.972 L
427.232 178.754 L
427.408 169.535 L
427.584 168.136 L
427.76 165.661 L
427.936 175.639 L
428.112 183.671 L
428.288 187.426 L
428.464 192.903 L
428.64 189.98 L
428.816 185.136 L
428.992 185.868 L
429.168 198.566 L
429.344 199.522 L
429.52 188.785 L
429.696 188.429 L
429.872 195.662 L
430.048 195.002 L
430.224 183.281 L
430.4 182.654 L
430.576 187.795 L
430.752 188.521 L
430.928 190.673 L
431.104 191.847 L
431.28 184.628 L
431.456 182.186 L
431.632 192.184 L
431.808 202.162 L
431.984 210.293 L
432.16 210.009 L
432.336 203.126 L
432.512 201.746 L
432.688 210.689 L
432.864 215.955 L
433.04 212.127 L
433.216 209.336 L
433.392 210.009 L
433.568 212.563 L
433.744 210.807 L
433.92 213.804 L
434.096 225.471 L
434.272 233.364 L
434.448 234.961 L
S
GR
%%Trailer
%%Pages: 1
%%EOF
