%!PS-Adobe-3.0 EPSF-3.0
%%Creator: (MATLAB, The Mathworks, Inc. Version 9.2.0.538062 \(R2017a\). Operating System: Linux)
%%Title: /home/chris/Storage/christina/Desktop/THMMY/????????/Project/old/frame_2_comparison_iTNS.eps
%%CreationDate: 2019-02-15T19:55:02
%%Pages: (atend)
%%BoundingBox: 0 0 1024 497
%%LanguageLevel: 3
%%EndComments
%%BeginProlog
%%BeginResource: procset (Apache XML Graphics Std ProcSet) 1.2 0
%%Version: 1.2 0
%%Copyright: (Copyright 2001-2003,2010 The Apache Software Foundation. License terms: http://www.apache.org/licenses/LICENSE-2.0)
/bd{bind def}bind def
/ld{load def}bd
/GR/grestore ld
/M/moveto ld
/LJ/setlinejoin ld
/C/curveto ld
/f/fill ld
/LW/setlinewidth ld
/GC/setgray ld
/t/show ld
/N/newpath ld
/CT/concat ld
/cp/closepath ld
/S/stroke ld
/L/lineto ld
/CC/setcmykcolor ld
/A/ashow ld
/GS/gsave ld
/RC/setrgbcolor ld
/RM/rmoveto ld
/ML/setmiterlimit ld
/re {4 2 roll M
1 index 0 rlineto
0 exch rlineto
neg 0 rlineto
cp } bd
/_ctm matrix def
/_tm matrix def
/BT { _ctm currentmatrix pop matrix _tm copy pop 0 0 moveto } bd
/ET { _ctm setmatrix } bd
/iTm { _ctm setmatrix _tm concat } bd
/Tm { _tm astore pop iTm 0 0 moveto } bd
/ux 0.0 def
/uy 0.0 def
/F {
  /Tp exch def
  /Tf exch def
  Tf findfont Tp scalefont setfont
  /cf Tf def  /cs Tp def
} bd
/ULS {currentpoint /uy exch def /ux exch def} bd
/ULE {
  /Tcx currentpoint pop def
  gsave
  newpath
  cf findfont cs scalefont dup
  /FontMatrix get 0 get /Ts exch def /FontInfo get dup
  /UnderlinePosition get Ts mul /To exch def
  /UnderlineThickness get Ts mul /Tt exch def
  ux uy To add moveto  Tcx uy To add lineto
  Tt setlinewidth stroke
  grestore
} bd
/OLE {
  /Tcx currentpoint pop def
  gsave
  newpath
  cf findfont cs scalefont dup
  /FontMatrix get 0 get /Ts exch def /FontInfo get dup
  /UnderlinePosition get Ts mul /To exch def
  /UnderlineThickness get Ts mul /Tt exch def
  ux uy To add cs add moveto Tcx uy To add cs add lineto
  Tt setlinewidth stroke
  grestore
} bd
/SOE {
  /Tcx currentpoint pop def
  gsave
  newpath
  cf findfont cs scalefont dup
  /FontMatrix get 0 get /Ts exch def /FontInfo get dup
  /UnderlinePosition get Ts mul /To exch def
  /UnderlineThickness get Ts mul /Tt exch def
  ux uy To add cs 10 mul 26 idiv add moveto Tcx uy To add cs 10 mul 26 idiv add lineto
  Tt setlinewidth stroke
  grestore
} bd
/QT {
/Y22 exch store
/X22 exch store
/Y21 exch store
/X21 exch store
currentpoint
/Y21 load 2 mul add 3 div exch
/X21 load 2 mul add 3 div exch
/X21 load 2 mul /X22 load add 3 div
/Y21 load 2 mul /Y22 load add 3 div
/X22 load /Y22 load curveto
} bd
/SSPD {
dup length /d exch dict def
{
/v exch def
/k exch def
currentpagedevice k known {
/cpdv currentpagedevice k get def
v cpdv ne {
/upd false def
/nullv v type /nulltype eq def
/nullcpdv cpdv type /nulltype eq def
nullv nullcpdv or
{
/upd true def
} {
/sametype v type cpdv type eq def
sametype {
v type /arraytype eq {
/vlen v length def
/cpdvlen cpdv length def
vlen cpdvlen eq {
0 1 vlen 1 sub {
/i exch def
/obj v i get def
/cpdobj cpdv i get def
obj cpdobj ne {
/upd true def
exit
} if
} for
} {
/upd true def
} ifelse
} {
v type /dicttype eq {
v {
/dv exch def
/dk exch def
/cpddv cpdv dk get def
dv cpddv ne {
/upd true def
exit
} if
} forall
} {
/upd true def
} ifelse
} ifelse
} if
} ifelse
upd true eq {
d k v put
} if
} if
} if
} forall
d length 0 gt {
d setpagedevice
} if
} bd
/RE { % /NewFontName [NewEncodingArray] /FontName RE -
  findfont dup length dict begin
  {
    1 index /FID ne
    {def} {pop pop} ifelse
  } forall
  /Encoding exch def
  /FontName 1 index def
  currentdict definefont pop
  end
} bind def
%%EndResource
%%BeginResource: procset (Apache XML Graphics EPS ProcSet) 1.0 0
%%Version: 1.0 0
%%Copyright: (Copyright 2002-2003 The Apache Software Foundation. License terms: http://www.apache.org/licenses/LICENSE-2.0)
/BeginEPSF { %def
/b4_Inc_state save def         % Save state for cleanup
/dict_count countdictstack def % Count objects on dict stack
/op_count count 1 sub def      % Count objects on operand stack
userdict begin                 % Push userdict on dict stack
/showpage { } def              % Redefine showpage, { } = null proc
0 setgray 0 setlinecap         % Prepare graphics state
1 setlinewidth 0 setlinejoin
10 setmiterlimit [ ] 0 setdash newpath
/languagelevel where           % If level not equal to 1 then
{pop languagelevel             % set strokeadjust and
1 ne                           % overprint to their defaults.
{false setstrokeadjust false setoverprint
} if
} if
} bd
/EndEPSF { %def
count op_count sub {pop} repeat            % Clean up stacks
countdictstack dict_count sub {end} repeat
b4_Inc_state restore
} bd
%%EndResource
%FOPBeginFontDict
%%IncludeResource: font Courier-Bold
%%IncludeResource: font Helvetica
%%IncludeResource: font Courier-BoldOblique
%%IncludeResource: font Courier-Oblique
%%IncludeResource: font Times-Roman
%%IncludeResource: font Helvetica-BoldOblique
%%IncludeResource: font Helvetica-Bold
%%IncludeResource: font Helvetica-Oblique
%%IncludeResource: font Times-BoldItalic
%%IncludeResource: font Courier
%%IncludeResource: font Times-Italic
%%IncludeResource: font Times-Bold
%%IncludeResource: font Symbol
%%IncludeResource: font ZapfDingbats
%FOPEndFontDict
%%BeginResource: encoding WinAnsiEncoding
/WinAnsiEncoding [
/.notdef /.notdef /.notdef /.notdef /.notdef
/.notdef /.notdef /.notdef /.notdef /.notdef
/.notdef /.notdef /.notdef /.notdef /.notdef
/.notdef /.notdef /.notdef /.notdef /.notdef
/.notdef /.notdef /.notdef /.notdef /.notdef
/.notdef /.notdef /.notdef /.notdef /.notdef
/.notdef /.notdef /space /exclam /quotedbl
/numbersign /dollar /percent /ampersand /quotesingle
/parenleft /parenright /asterisk /plus /comma
/hyphen /period /slash /zero /one
/two /three /four /five /six
/seven /eight /nine /colon /semicolon
/less /equal /greater /question /at
/A /B /C /D /E
/F /G /H /I /J
/K /L /M /N /O
/P /Q /R /S /T
/U /V /W /X /Y
/Z /bracketleft /backslash /bracketright /asciicircum
/underscore /quoteleft /a /b /c
/d /e /f /g /h
/i /j /k /l /m
/n /o /p /q /r
/s /t /u /v /w
/x /y /z /braceleft /bar
/braceright /asciitilde /bullet /Euro /bullet
/quotesinglbase /florin /quotedblbase /ellipsis /dagger
/daggerdbl /circumflex /perthousand /Scaron /guilsinglleft
/OE /bullet /Zcaron /bullet /bullet
/quoteleft /quoteright /quotedblleft /quotedblright /bullet
/endash /emdash /asciitilde /trademark /scaron
/guilsinglright /oe /bullet /zcaron /Ydieresis
/space /exclamdown /cent /sterling /currency
/yen /brokenbar /section /dieresis /copyright
/ordfeminine /guillemotleft /logicalnot /sfthyphen /registered
/macron /degree /plusminus /twosuperior /threesuperior
/acute /mu /paragraph /middot /cedilla
/onesuperior /ordmasculine /guillemotright /onequarter /onehalf
/threequarters /questiondown /Agrave /Aacute /Acircumflex
/Atilde /Adieresis /Aring /AE /Ccedilla
/Egrave /Eacute /Ecircumflex /Edieresis /Igrave
/Iacute /Icircumflex /Idieresis /Eth /Ntilde
/Ograve /Oacute /Ocircumflex /Otilde /Odieresis
/multiply /Oslash /Ugrave /Uacute /Ucircumflex
/Udieresis /Yacute /Thorn /germandbls /agrave
/aacute /acircumflex /atilde /adieresis /aring
/ae /ccedilla /egrave /eacute /ecircumflex
/edieresis /igrave /iacute /icircumflex /idieresis
/eth /ntilde /ograve /oacute /ocircumflex
/otilde /odieresis /divide /oslash /ugrave
/uacute /ucircumflex /udieresis /yacute /thorn
/ydieresis
] def
%%EndResource
%FOPBeginFontReencode
/Courier-Bold findfont
dup length dict begin
  {1 index /FID ne {def} {pop pop} ifelse} forall
  /Encoding WinAnsiEncoding def
  currentdict
end
/Courier-Bold exch definefont pop
/Helvetica findfont
dup length dict begin
  {1 index /FID ne {def} {pop pop} ifelse} forall
  /Encoding WinAnsiEncoding def
  currentdict
end
/Helvetica exch definefont pop
/Courier-BoldOblique findfont
dup length dict begin
  {1 index /FID ne {def} {pop pop} ifelse} forall
  /Encoding WinAnsiEncoding def
  currentdict
end
/Courier-BoldOblique exch definefont pop
/Courier-Oblique findfont
dup length dict begin
  {1 index /FID ne {def} {pop pop} ifelse} forall
  /Encoding WinAnsiEncoding def
  currentdict
end
/Courier-Oblique exch definefont pop
/Times-Roman findfont
dup length dict begin
  {1 index /FID ne {def} {pop pop} ifelse} forall
  /Encoding WinAnsiEncoding def
  currentdict
end
/Times-Roman exch definefont pop
/Helvetica-BoldOblique findfont
dup length dict begin
  {1 index /FID ne {def} {pop pop} ifelse} forall
  /Encoding WinAnsiEncoding def
  currentdict
end
/Helvetica-BoldOblique exch definefont pop
/Helvetica-Bold findfont
dup length dict begin
  {1 index /FID ne {def} {pop pop} ifelse} forall
  /Encoding WinAnsiEncoding def
  currentdict
end
/Helvetica-Bold exch definefont pop
/Helvetica-Oblique findfont
dup length dict begin
  {1 index /FID ne {def} {pop pop} ifelse} forall
  /Encoding WinAnsiEncoding def
  currentdict
end
/Helvetica-Oblique exch definefont pop
/Times-BoldItalic findfont
dup length dict begin
  {1 index /FID ne {def} {pop pop} ifelse} forall
  /Encoding WinAnsiEncoding def
  currentdict
end
/Times-BoldItalic exch definefont pop
/Courier findfont
dup length dict begin
  {1 index /FID ne {def} {pop pop} ifelse} forall
  /Encoding WinAnsiEncoding def
  currentdict
end
/Courier exch definefont pop
/Times-Italic findfont
dup length dict begin
  {1 index /FID ne {def} {pop pop} ifelse} forall
  /Encoding WinAnsiEncoding def
  currentdict
end
/Times-Italic exch definefont pop
/Times-Bold findfont
dup length dict begin
  {1 index /FID ne {def} {pop pop} ifelse} forall
  /Encoding WinAnsiEncoding def
  currentdict
end
/Times-Bold exch definefont pop
%FOPEndFontReencode
%%EndProlog
%%Page: 1 1
%%PageBoundingBox: 0 0 1024 497
%%BeginPageSetup
[1 0 0 -1 0 497] CT
%%EndPageSetup
GS
[0.75 0 0 0.75 0 -0.25] CT
1 GC
N
0 0 1365 663 re
f
GR
GS
[0.75 0 0 0.75 0 -0.25] CT
1 GC
N
0 0 1365 663 re
f
GR
GS
[0.75 0 0 0.75 0 -0.25] CT
1 GC
N
177 590 M
1235 590 L
1235 50 L
177 50 L
cp
f
GR
GS
[0.75 0 0 0.75 0 -0.25] CT
0.149 GC
2 setlinecap
1 LJ
0.667 LW
N
177 590 M
1235 590 L
S
GR
GS
[0.75 0 0 0.75 0 -0.25] CT
0.149 GC
2 setlinecap
1 LJ
0.667 LW
N
177 50 M
1235 50 L
S
GR
GS
[0.75 0 0 0.75 0 -0.25] CT
0.149 GC
2 setlinecap
1 LJ
0.667 LW
N
177 590 M
177 579.42 L
S
GR
GS
[0.75 0 0 0.75 0 -0.25] CT
0.149 GC
2 setlinecap
1 LJ
0.667 LW
N
388.6 590 M
388.6 579.42 L
S
GR
GS
[0.75 0 0 0.75 0 -0.25] CT
0.149 GC
2 setlinecap
1 LJ
0.667 LW
N
600.2 590 M
600.2 579.42 L
S
GR
GS
[0.75 0 0 0.75 0 -0.25] CT
0.149 GC
2 setlinecap
1 LJ
0.667 LW
N
811.8 590 M
811.8 579.42 L
S
GR
GS
[0.75 0 0 0.75 0 -0.25] CT
0.149 GC
2 setlinecap
1 LJ
0.667 LW
N
1023.4 590 M
1023.4 579.42 L
S
GR
GS
[0.75 0 0 0.75 0 -0.25] CT
0.149 GC
2 setlinecap
1 LJ
0.667 LW
N
1235 590 M
1235 579.42 L
S
GR
GS
[0.75 0 0 0.75 0 -0.25] CT
0.149 GC
2 setlinecap
1 LJ
0.667 LW
N
177 50 M
177 60.58 L
S
GR
GS
[0.75 0 0 0.75 0 -0.25] CT
0.149 GC
2 setlinecap
1 LJ
0.667 LW
N
388.6 50 M
388.6 60.58 L
S
GR
GS
[0.75 0 0 0.75 0 -0.25] CT
0.149 GC
2 setlinecap
1 LJ
0.667 LW
N
600.2 50 M
600.2 60.58 L
S
GR
GS
[0.75 0 0 0.75 0 -0.25] CT
0.149 GC
2 setlinecap
1 LJ
0.667 LW
N
811.8 50 M
811.8 60.58 L
S
GR
GS
[0.75 0 0 0.75 0 -0.25] CT
0.149 GC
2 setlinecap
1 LJ
0.667 LW
N
1023.4 50 M
1023.4 60.58 L
S
GR
GS
[0.75 0 0 0.75 0 -0.25] CT
0.149 GC
2 setlinecap
1 LJ
0.667 LW
N
1235 50 M
1235 60.58 L
S
GR
GS
[0.75 0 0 0.75 132.75 446.24998] CT
0.149 GC
/Helvetica 13.333 F
GS
[1 0 0 1 0 0] CT
-4.5 13 moveto 
1 -1 scale
(0) t 
GR
GR
GS
[0.75 0 0 0.75 291.45 446.24998] CT
0.149 GC
/Helvetica 13.333 F
GS
[1 0 0 1 0 0] CT
-12.5 13 moveto 
1 -1 scale
(500) t 
GR
GR
GS
[0.75 0 0 0.75 450.15001 446.24998] CT
0.149 GC
/Helvetica 13.333 F
GS
[1 0 0 1 0 0] CT
-17 13 moveto 
1 -1 scale
(1000) t 
GR
GR
GS
[0.75 0 0 0.75 608.84999 446.24998] CT
0.149 GC
/Helvetica 13.333 F
GS
[1 0 0 1 0 0] CT
-17 13 moveto 
1 -1 scale
(1500) t 
GR
GR
GS
[0.75 0 0 0.75 767.55002 446.24998] CT
0.149 GC
/Helvetica 13.333 F
GS
[1 0 0 1 0 0] CT
-17 13 moveto 
1 -1 scale
(2000) t 
GR
GR
GS
[0.75 0 0 0.75 926.25 446.24998] CT
0.149 GC
/Helvetica 13.333 F
GS
[1 0 0 1 0 0] CT
-17 13 moveto 
1 -1 scale
(2500) t 
GR
GR
GS
[0.75 0 0 0.75 0 -0.25] CT
0.149 GC
2 setlinecap
1 LJ
0.667 LW
N
177 590 M
177 50 L
S
GR
GS
[0.75 0 0 0.75 0 -0.25] CT
0.149 GC
2 setlinecap
1 LJ
0.667 LW
N
1235 590 M
1235 50 L
S
GR
GS
[0.75 0 0 0.75 0 -0.25] CT
0.149 GC
2 setlinecap
1 LJ
0.667 LW
N
177 590 M
187.58 590 L
S
GR
GS
[0.75 0 0 0.75 0 -0.25] CT
0.149 GC
2 setlinecap
1 LJ
0.667 LW
N
177 522.5 M
187.58 522.5 L
S
GR
GS
[0.75 0 0 0.75 0 -0.25] CT
0.149 GC
2 setlinecap
1 LJ
0.667 LW
N
177 455 M
187.58 455 L
S
GR
GS
[0.75 0 0 0.75 0 -0.25] CT
0.149 GC
2 setlinecap
1 LJ
0.667 LW
N
177 387.5 M
187.58 387.5 L
S
GR
GS
[0.75 0 0 0.75 0 -0.25] CT
0.149 GC
2 setlinecap
1 LJ
0.667 LW
N
177 320 M
187.58 320 L
S
GR
GS
[0.75 0 0 0.75 0 -0.25] CT
0.149 GC
2 setlinecap
1 LJ
0.667 LW
N
177 252.5 M
187.58 252.5 L
S
GR
GS
[0.75 0 0 0.75 0 -0.25] CT
0.149 GC
2 setlinecap
1 LJ
0.667 LW
N
177 185 M
187.58 185 L
S
GR
GS
[0.75 0 0 0.75 0 -0.25] CT
0.149 GC
2 setlinecap
1 LJ
0.667 LW
N
177 117.5 M
187.58 117.5 L
S
GR
GS
[0.75 0 0 0.75 0 -0.25] CT
0.149 GC
2 setlinecap
1 LJ
0.667 LW
N
177 50 M
187.58 50 L
S
GR
GS
[0.75 0 0 0.75 0 -0.25] CT
0.149 GC
2 setlinecap
1 LJ
0.667 LW
N
1235 590 M
1224.42 590 L
S
GR
GS
[0.75 0 0 0.75 0 -0.25] CT
0.149 GC
2 setlinecap
1 LJ
0.667 LW
N
1235 522.5 M
1224.42 522.5 L
S
GR
GS
[0.75 0 0 0.75 0 -0.25] CT
0.149 GC
2 setlinecap
1 LJ
0.667 LW
N
1235 455 M
1224.42 455 L
S
GR
GS
[0.75 0 0 0.75 0 -0.25] CT
0.149 GC
2 setlinecap
1 LJ
0.667 LW
N
1235 387.5 M
1224.42 387.5 L
S
GR
GS
[0.75 0 0 0.75 0 -0.25] CT
0.149 GC
2 setlinecap
1 LJ
0.667 LW
N
1235 320 M
1224.42 320 L
S
GR
GS
[0.75 0 0 0.75 0 -0.25] CT
0.149 GC
2 setlinecap
1 LJ
0.667 LW
N
1235 252.5 M
1224.42 252.5 L
S
GR
GS
[0.75 0 0 0.75 0 -0.25] CT
0.149 GC
2 setlinecap
1 LJ
0.667 LW
N
1235 185 M
1224.42 185 L
S
GR
GS
[0.75 0 0 0.75 0 -0.25] CT
0.149 GC
2 setlinecap
1 LJ
0.667 LW
N
1235 117.5 M
1224.42 117.5 L
S
GR
GS
[0.75 0 0 0.75 0 -0.25] CT
0.149 GC
2 setlinecap
1 LJ
0.667 LW
N
1235 50 M
1224.42 50 L
S
GR
GS
[0.75 0 0 0.75 128.75 442.25] CT
0.149 GC
/Helvetica 13.333 F
GS
[1 0 0 1 0 0] CT
-26 4.5 moveto 
1 -1 scale
(-0.8) t 
GR
GR
GS
[0.75 0 0 0.75 128.75 391.625] CT
0.149 GC
/Helvetica 13.333 F
GS
[1 0 0 1 0 0] CT
-26 4.5 moveto 
1 -1 scale
(-0.6) t 
GR
GR
GS
[0.75 0 0 0.75 128.75 341] CT
0.149 GC
/Helvetica 13.333 F
GS
[1 0 0 1 0 0] CT
-26 4.5 moveto 
1 -1 scale
(-0.4) t 
GR
GR
GS
[0.75 0 0 0.75 128.75 290.375] CT
0.149 GC
/Helvetica 13.333 F
GS
[1 0 0 1 0 0] CT
-26 4.5 moveto 
1 -1 scale
(-0.2) t 
GR
GR
GS
[0.75 0 0 0.75 128.75 239.75] CT
0.149 GC
/Helvetica 13.333 F
GS
[1 0 0 1 0 0] CT
-9 4.5 moveto 
1 -1 scale
(0) t 
GR
GR
GS
[0.75 0 0 0.75 128.75 189.125] CT
0.149 GC
/Helvetica 13.333 F
GS
[1 0 0 1 0 0] CT
-21 4.5 moveto 
1 -1 scale
(0.2) t 
GR
GR
GS
[0.75 0 0 0.75 128.75 138.5] CT
0.149 GC
/Helvetica 13.333 F
GS
[1 0 0 1 0 0] CT
-21 4.5 moveto 
1 -1 scale
(0.4) t 
GR
GR
GS
[0.75 0 0 0.75 128.75 87.87499] CT
0.149 GC
/Helvetica 13.333 F
GS
[1 0 0 1 0 0] CT
-21 4.5 moveto 
1 -1 scale
(0.6) t 
GR
GR
GS
[0.75 0 0 0.75 128.75 37.25] CT
0.149 GC
/Helvetica 13.333 F
GS
[1 0 0 1 0 0] CT
-21 4.5 moveto 
1 -1 scale
(0.8) t 
GR
GR
GS
[0.75 0 0 0.75 0 -0.25] CT
1 0 0 RC
1 LJ
4 LW
N
177.423 328.796 M
177.846 321.195 L
178.27 323.667 L
178.693 329.332 L
179.116 336.387 L
179.539 357.223 L
179.962 349.375 L
180.386 337.458 L
180.809 361.909 L
181.232 372.055 L
181.655 348.437 L
182.078 321.885 L
182.502 303.376 L
182.925 302.48 L
183.348 306.837 L
183.771 303.119 L
184.194 282.159 L
184.618 271.149 L
185.041 298.886 L
185.464 316.622 L
185.887 318.177 L
186.31 318.579 L
186.734 305.58 L
187.157 294.982 L
187.58 296.043 L
188.003 306.075 L
188.426 299.72 L
188.85 278.235 L
189.273 275.083 L
189.696 259.778 L
190.119 236.078 L
190.542 244.874 L
190.966 268.841 L
191.389 301.831 L
191.812 324.841 L
192.235 327.725 L
192.658 322.894 L
193.082 318.97 L
193.505 324.007 L
193.928 338.539 L
194.351 372.24 L
194.774 401.264 L
195.198 415.066 L
195.621 401.522 L
196.044 394.271 L
196.467 414.108 L
196.89 395.95 L
197.314 354.257 L
197.737 346.264 L
198.16 378.461 L
198.583 384.322 L
199.006 382.498 L
199.43 403.788 L
199.853 414.963 L
200.276 431.34 L
200.699 437.159 L
201.122 451.949 L
201.546 456.687 L
201.969 443.04 L
202.392 439.569 L
202.815 436.757 L
203.238 479.315 L
203.662 536.849 L
204.085 558.335 L
204.508 536.52 L
204.931 511.512 L
205.354 517.63 L
205.778 504.632 L
206.201 490.264 L
206.624 470.88 L
207.047 450.621 L
207.47 477.585 L
207.894 497.628 L
208.317 507.217 L
208.74 520.277 L
209.163 505.126 L
209.586 499.678 L
210.01 508.536 L
210.433 515.488 L
210.856 523.233 L
211.279 517.836 L
211.702 525.005 L
212.126 531.102 L
212.549 492.18 L
212.972 433.966 L
213.395 414.016 L
213.818 412.007 L
214.242 402.954 L
214.665 401.264 L
215.088 401.646 L
215.511 406.394 L
215.934 391.562 L
216.358 388.915 L
216.781 395.775 L
217.204 400.544 L
217.627 393.674 L
218.05 327.663 L
218.474 302.964 L
218.897 343.967 L
219.32 360.982 L
219.743 338.745 L
220.166 314.86 L
220.59 296.506 L
221.013 294.138 L
221.436 312.615 L
221.859 300.06 L
222.282 268.337 L
222.706 242.443 L
223.129 239.487 L
223.552 267.739 L
223.975 286.166 L
224.398 278.142 L
224.822 260.725 L
225.245 244.411 L
225.668 254.556 L
226.091 257.718 L
226.514 221.175 L
226.938 206.92 L
227.361 231.835 L
227.784 275.711 L
228.207 286.753 L
228.63 261.106 L
229.054 241.661 L
229.477 235.203 L
229.9 256.708 L
230.323 279.203 L
230.746 272.683 L
231.17 247.49 L
231.593 259.695 L
232.016 296.96 L
232.439 304.993 L
232.862 279.656 L
233.286 246.192 L
233.709 261.055 L
234.132 258.439 L
234.555 231.155 L
234.978 243.412 L
235.402 254.267 L
235.825 258.676 L
236.248 268.512 L
236.671 262.806 L
237.094 237.613 L
237.518 255.977 L
237.941 297.032 L
238.364 306.209 L
238.787 289.647 L
239.21 263.29 L
239.634 277.782 L
240.057 298.803 L
240.48 303.871 L
240.903 284.126 L
241.326 274.105 L
241.75 309.196 L
242.173 310.617 L
242.596 297.814 L
243.019 286.536 L
243.442 283.488 L
243.866 289.997 L
244.289 267.801 L
244.712 260.9 L
245.135 259.479 L
245.558 248.809 L
245.982 235.522 L
246.405 226.324 L
246.828 221.535 L
247.251 194.076 L
247.674 212.955 L
248.098 246.759 L
248.521 229.332 L
248.944 202.357 L
249.367 187.319 L
249.79 189.802 L
250.214 170.665 L
250.637 171.231 L
251.06 205.148 L
251.483 213.728 L
251.906 206.693 L
252.33 212.688 L
252.753 254.02 L
253.176 274.465 L
253.599 271.416 L
254.022 273.518 L
254.446 264.083 L
254.869 255.987 L
255.292 253.958 L
255.715 263.887 L
256.138 270.695 L
256.562 269.089 L
256.985 249.787 L
257.408 222.205 L
257.831 205.952 L
258.254 191.553 L
258.678 202.542 L
259.101 220.68 L
259.524 231.165 L
259.947 241.764 L
260.37 233.132 L
260.794 220.155 L
261.217 210.895 L
261.64 191.975 L
262.063 173.425 L
262.486 179.708 L
262.91 188.628 L
263.333 169.81 L
263.756 151.116 L
264.179 144.102 L
264.602 135.224 L
265.026 123.688 L
265.449 144.771 L
265.872 193.438 L
266.295 180.11 L
266.718 136.851 L
267.142 147.82 L
267.565 173.672 L
267.988 172.024 L
268.411 155.442 L
268.834 145.338 L
269.258 141.414 L
269.681 149.839 L
270.104 164.32 L
270.527 162.178 L
270.95 151.796 L
271.374 142.372 L
271.797 150.302 L
272.22 170.346 L
272.643 181.088 L
273.066 179.832 L
273.49 172.715 L
273.913 180.697 L
274.336 191.872 L
274.759 200.07 L
275.182 223.131 L
275.606 240.765 L
276.029 234.605 L
276.452 227.406 L
276.875 231.773 L
277.298 225.676 L
277.722 216.365 L
278.145 225.82 L
278.568 248.839 L
278.991 266.483 L
279.414 268.697 L
279.838 255.72 L
280.261 216.282 L
280.684 176.639 L
281.107 179.904 L
281.53 225.284 L
281.954 255.987 L
282.377 251.59 L
282.8 276.463 L
283.223 304.18 L
283.646 310.761 L
284.07 331.999 L
284.493 337.396 L
284.916 345.275 L
285.339 354.061 L
285.762 353.01 L
286.186 395.445 L
286.609 443.205 L
287.032 455.894 L
287.455 427.24 L
287.878 389.482 L
288.302 395.425 L
288.725 403.922 L
289.148 396.249 L
289.571 380.336 L
289.994 366.627 L
290.418 365.772 L
290.841 374.702 L
291.264 388.41 L
291.687 377.925 L
292.11 361.621 L
292.534 361.951 L
292.957 375.031 L
293.38 376.216 L
293.803 373.455 L
294.226 397.629 L
294.65 425.623 L
295.073 446.46 L
295.496 435.13 L
295.919 415.272 L
296.342 401.625 L
296.766 373.785 L
297.189 380.614 L
297.612 384.085 L
298.035 370.664 L
298.458 369.222 L
298.882 360.704 L
299.305 367.935 L
299.728 356.564 L
300.151 324.903 L
300.574 322.142 L
300.998 344.101 L
301.421 346.954 L
301.844 320.319 L
302.267 313.367 L
302.69 313.46 L
303.114 306.971 L
303.537 275.268 L
303.96 227.735 L
304.383 216.983 L
304.806 219.249 L
305.23 230.31 L
305.653 252.63 L
306.076 262.157 L
306.499 266.153 L
306.922 273.899 L
307.346 279.254 L
307.769 265.391 L
308.192 251.507 L
308.615 264.155 L
309.038 295.549 L
309.462 326.036 L
309.885 309.494 L
310.308 269.264 L
310.731 270.613 L
311.154 299.473 L
311.578 318.816 L
312.001 329.846 L
312.424 327.344 L
312.847 304.221 L
313.27 305.138 L
313.694 329.239 L
314.117 364.546 L
314.54 399.143 L
314.963 398.69 L
315.386 375.258 L
315.81 350.127 L
316.233 333.132 L
316.656 312.656 L
317.079 311.729 L
317.502 324.995 L
317.926 320.175 L
318.349 335.934 L
318.772 362.723 L
319.195 361.188 L
319.618 362.672 L
320.042 379.697 L
320.465 379.996 L
320.888 372.353 L
321.311 376.298 L
321.734 388.936 L
322.158 396.424 L
322.581 392.839 L
323.004 407.207 L
323.427 433.667 L
323.85 430.32 L
324.274 412.162 L
324.697 403.572 L
325.12 418.228 L
325.543 432.74 L
325.966 415.643 L
326.39 412.1 L
326.813 418.949 L
327.236 434.955 L
327.659 437.416 L
328.082 403.613 L
328.506 399.38 L
328.929 411.482 L
329.352 403.149 L
329.775 384.888 L
330.198 386.443 L
330.622 394.91 L
331.045 397.268 L
331.468 389.574 L
331.891 382.107 L
332.314 408.196 L
332.738 418.959 L
333.161 415.653 L
333.584 408.897 L
334.007 394.559 L
334.43 386.031 L
334.854 384.105 L
335.277 406.734 L
335.7 412.11 L
336.123 390.357 L
336.546 383.858 L
336.97 386.145 L
337.393 374.125 L
337.816 348.005 L
338.239 333.276 L
338.662 352.331 L
339.086 374.207 L
339.509 374.65 L
339.932 357.614 L
340.355 324.872 L
340.778 313.594 L
341.202 327.951 L
341.625 342.484 L
342.048 369.665 L
342.471 405.199 L
342.894 414.984 L
343.318 397.732 L
343.741 372.497 L
344.164 374.836 L
344.587 394.426 L
345.01 395.064 L
345.434 393.066 L
345.857 371.838 L
346.28 349.56 L
346.703 335.759 L
347.126 317.93 L
347.55 324.254 L
347.973 329.393 L
348.396 317.559 L
348.819 312.152 L
349.242 325.49 L
349.666 324.305 L
350.089 302.243 L
350.512 294.148 L
350.935 291.181 L
351.358 288.225 L
351.782 294.992 L
352.205 313.377 L
352.628 324.583 L
353.051 326.128 L
353.474 329.919 L
353.898 327.745 L
354.321 334.667 L
354.744 341.784 L
355.167 348.643 L
355.59 388.349 L
356.014 409.875 L
356.437 391.119 L
356.86 373.517 L
357.283 365.277 L
357.706 372.23 L
358.13 367.276 L
358.553 349.797 L
358.976 356.09 L
359.399 369.006 L
359.822 368.326 L
360.246 358.232 L
360.669 335.141 L
361.092 322.935 L
361.515 338.57 L
361.938 351.744 L
362.362 363.434 L
362.785 366.009 L
363.208 355.884 L
363.631 356.43 L
364.054 348.139 L
364.478 338.962 L
364.901 350.343 L
365.324 362.424 L
365.747 361.219 L
366.17 359.973 L
366.594 364.526 L
367.017 372.92 L
367.44 399.75 L
367.863 418.578 L
368.286 409.113 L
368.71 401.059 L
369.133 392.149 L
369.556 384.919 L
369.979 404.859 L
370.402 418.722 L
370.826 397.021 L
371.249 391.686 L
371.672 414.397 L
372.095 406.95 L
372.518 368.676 L
372.942 336.953 L
373.365 341.331 L
373.788 380.027 L
374.211 405.745 L
374.634 420.906 L
375.058 430.32 L
375.481 423.182 L
375.904 432.359 L
376.327 452.856 L
376.75 461.291 L
377.174 450.538 L
377.597 433.389 L
378.02 433.585 L
378.443 445.574 L
378.866 444.688 L
379.29 415.921 L
379.713 390.563 L
380.136 379.985 L
380.559 363.125 L
380.982 348.128 L
381.406 359.695 L
381.829 376.597 L
382.252 377.596 L
382.675 394.426 L
383.098 401.11 L
383.522 386.175 L
383.945 384.249 L
384.368 386.114 L
384.791 383.436 L
385.214 382.591 L
385.638 381.922 L
386.061 389.574 L
386.484 392.891 L
386.907 371.045 L
387.33 367.739 L
387.754 385.856 L
388.177 396.681 L
388.6 395.764 L
389.023 382.828 L
389.446 379.038 L
389.87 375.247 L
390.293 366.091 L
390.716 368.367 L
391.139 361.693 L
391.562 335.079 L
391.986 321.782 L
392.409 315.293 L
392.832 298.906 L
393.255 280.109 L
393.678 263.372 L
394.102 260.231 L
394.525 275.165 L
394.948 280.418 L
395.371 272.714 L
395.794 277.061 L
396.218 264.814 L
396.641 251.888 L
397.064 259.592 L
397.487 274.187 L
397.91 291.964 L
398.334 296.908 L
398.757 292.829 L
399.18 294.735 L
399.603 307.712 L
400.026 295.785 L
400.45 276.947 L
400.873 265.968 L
401.296 252.104 L
401.719 270.685 L
402.142 297.547 L
402.566 306.559 L
402.989 309.937 L
403.412 327.828 L
403.835 323.275 L
404.258 297.413 L
404.682 298.391 L
405.105 284.342 L
405.528 271.87 L
405.951 273.229 L
406.374 273.713 L
406.798 278.894 L
407.221 284.116 L
407.644 298.844 L
408.067 289.812 L
408.49 289.173 L
408.914 294.21 L
409.337 281.86 L
409.76 314.479 L
410.183 346.831 L
410.606 338.756 L
411.03 329.661 L
411.453 330.372 L
411.876 327.313 L
412.299 319.557 L
412.722 299.483 L
413.146 273.641 L
413.569 284.754 L
413.992 298.628 L
414.415 305.735 L
414.838 324.563 L
415.262 322.935 L
415.685 320.917 L
416.108 325.438 L
416.531 336.201 L
416.954 345.224 L
417.378 334.512 L
417.801 320.896 L
418.224 316.086 L
418.647 332.596 L
419.07 331.906 L
419.494 308.33 L
419.917 289.039 L
420.34 267.904 L
420.763 269.47 L
421.186 276.886 L
421.61 254.834 L
422.033 244.091 L
422.456 262.754 L
422.879 254.267 L
423.302 252.177 L
423.726 281.036 L
424.149 280.552 L
424.572 253.969 L
424.995 211.658 L
425.418 193.53 L
425.842 215.767 L
426.265 218.486 L
426.688 202.46 L
427.111 203.686 L
427.534 203.027 L
427.958 186.403 L
428.381 182.551 L
428.804 194.993 L
429.227 218.352 L
429.65 242.958 L
430.074 254.731 L
430.497 250.045 L
430.92 233.555 L
431.343 225.974 L
431.766 226.273 L
432.19 241.063 L
432.613 263.238 L
433.036 244.823 L
433.459 206.415 L
433.882 213.357 L
434.306 244.03 L
434.729 255.071 L
435.152 270.531 L
435.575 289.719 L
435.998 280.892 L
436.422 267.029 L
436.845 286.866 L
437.268 315.592 L
437.691 314.078 L
438.114 305.22 L
438.538 312.43 L
438.961 320.566 L
439.384 322.935 L
439.807 321.566 L
440.23 304.437 L
440.654 279.769 L
441.077 265.947 L
441.5 257.368 L
441.923 272.292 L
442.346 300.74 L
442.77 301.687 L
443.193 279.708 L
443.616 262.971 L
444.039 271.149 L
444.462 283.663 L
444.886 292.407 L
445.309 294.58 L
445.732 298.772 L
446.155 328.518 L
446.578 354.391 L
447.002 370.211 L
447.425 367.636 L
447.848 355.555 L
448.271 367.646 L
448.694 387.36 L
449.118 393.519 L
449.541 384.641 L
449.964 391.871 L
450.387 401.141 L
450.81 384.486 L
451.234 360.529 L
451.657 341.804 L
452.08 339.106 L
452.503 358.922 L
452.926 394.23 L
453.35 402.006 L
453.773 376.205 L
454.196 362.733 L
454.619 357.388 L
455.042 353.989 L
455.466 360.529 L
455.889 346.995 L
456.312 335.141 L
456.735 349.323 L
457.158 358.912 L
457.582 363.877 L
458.005 351.857 L
458.428 346.542 L
458.851 365.648 L
459.274 350.837 L
459.698 320.536 L
460.121 323.656 L
460.544 331.834 L
460.967 318.486 L
461.39 310.143 L
461.814 319.094 L
462.237 335.614 L
462.66 360.107 L
463.083 361.518 L
463.506 335.789 L
463.93 320.948 L
464.353 314.407 L
464.776 304.911 L
465.199 290.327 L
465.622 296.156 L
466.046 315.592 L
466.469 306.899 L
466.892 294.076 L
467.315 281.479 L
467.738 270.778 L
468.162 260.046 L
468.585 245.894 L
469.008 254 L
469.431 269.295 L
469.854 284.548 L
470.278 277.596 L
470.701 259.026 L
471.124 258.789 L
471.547 255.061 L
471.97 252.743 L
472.394 252.197 L
472.817 244.617 L
473.24 223.925 L
473.663 204.86 L
474.086 213.048 L
474.51 219.908 L
474.933 217.353 L
475.356 209.917 L
475.779 196.002 L
476.202 207.321 L
476.626 235.45 L
477.049 249.519 L
477.472 249.993 L
477.895 257.543 L
478.318 252.928 L
478.742 243.782 L
479.165 265.484 L
479.588 268.409 L
480.011 260.488 L
480.434 271.519 L
480.858 287.618 L
481.281 303.572 L
481.704 283.941 L
482.127 239.168 L
482.55 232.432 L
482.974 256.276 L
483.397 253.237 L
483.82 232.432 L
484.243 221.916 L
484.666 232.916 L
485.09 248.798 L
485.513 241.352 L
485.936 243.144 L
486.359 250.817 L
486.782 236.676 L
487.206 226.798 L
487.629 232.257 L
488.052 242.917 L
488.475 259.273 L
488.898 278.739 L
489.322 287.813 L
489.745 290.234 L
490.168 280.81 L
490.591 266.019 L
491.014 284.353 L
491.438 306.765 L
491.861 307.3 L
492.284 301.285 L
492.707 306.775 L
493.13 323.543 L
493.554 318.877 L
493.977 311.153 L
494.4 322.905 L
494.823 344.863 L
495.246 356.605 L
495.67 352.959 L
496.093 342.721 L
496.516 337.18 L
496.939 359.211 L
497.362 367.543 L
497.786 361.158 L
498.209 373.115 L
498.632 367.646 L
499.055 349.725 L
499.478 342.33 L
499.902 367.873 L
500.325 406.456 L
500.748 402.871 L
501.171 394.889 L
501.594 406.291 L
502.018 403.633 L
502.441 391.243 L
502.864 401.326 L
503.287 405.992 L
503.71 391.161 L
504.134 397.67 L
504.557 399.534 L
504.98 405.261 L
505.403 419.979 L
505.826 408.969 L
506.25 407.506 L
506.673 401.594 L
507.096 388.709 L
507.519 401.491 L
507.942 413.82 L
508.366 437.437 L
508.789 438.343 L
509.212 403.592 L
509.635 401.604 L
510.058 395.023 L
510.482 375.742 L
510.905 384.919 L
511.328 382.251 L
511.751 363.114 L
512.174 346.192 L
512.598 324.82 L
513.021 335.656 L
513.444 356.306 L
513.867 349.066 L
514.29 356.667 L
514.714 369.572 L
515.137 361.353 L
515.56 346.8 L
515.983 344.194 L
516.406 346.913 L
516.83 351.939 L
517.253 361.796 L
517.676 368.388 L
518.099 364.536 L
518.522 326.375 L
518.946 297.619 L
519.369 311.359 L
519.792 335.027 L
520.215 342.144 L
520.638 335.377 L
521.062 352.393 L
521.485 366.122 L
521.908 344.122 L
522.331 321.04 L
522.754 320.927 L
523.178 336.624 L
523.601 346.985 L
524.024 345.502 L
524.447 354.061 L
524.87 370.098 L
525.294 380.459 L
525.717 388.709 L
526.14 389.276 L
526.563 384.713 L
526.986 381.53 L
527.41 386.495 L
527.833 390.625 L
528.256 398 L
528.679 413.851 L
529.102 418.032 L
529.526 419.855 L
529.949 420.185 L
530.372 404.19 L
530.795 403.335 L
531.218 423.78 L
531.642 411.183 L
532.065 393.509 L
532.488 395.311 L
532.911 377.328 L
533.334 369.263 L
533.758 375.958 L
534.181 366.184 L
534.604 354.143 L
535.027 357.233 L
535.45 374.99 L
535.874 375.752 L
536.297 362.404 L
536.72 377.163 L
537.143 392.489 L
537.566 375.69 L
537.99 353.711 L
538.413 346.336 L
538.836 342.783 L
539.259 336.953 L
539.682 338.57 L
540.106 351.661 L
540.529 361.693 L
540.952 363.722 L
541.375 366.297 L
541.798 362.249 L
542.222 371.148 L
542.645 388.833 L
543.068 390.594 L
543.491 411.204 L
543.914 447.273 L
544.338 459.18 L
544.761 445.048 L
545.184 420.597 L
545.607 394.961 L
546.03 375.134 L
546.454 383.189 L
546.877 397.34 L
547.3 386.103 L
547.723 370.963 L
548.146 364.793 L
548.57 374.032 L
548.993 382.086 L
549.416 371.385 L
549.839 357.192 L
550.262 332.288 L
550.686 329.908 L
551.109 344.039 L
551.532 305.426 L
551.955 273.456 L
552.378 275.577 L
552.802 267.358 L
553.225 279.605 L
553.648 304.375 L
554.071 299.545 L
554.494 267.853 L
554.918 235.924 L
555.341 227.715 L
555.764 269.439 L
556.187 298.051 L
556.61 283.766 L
557.034 303.727 L
557.457 310.081 L
557.88 298.535 L
558.303 294.385 L
558.726 266.091 L
559.15 254.041 L
559.573 259.397 L
559.996 270.232 L
560.419 282.489 L
560.842 289.328 L
561.266 291.861 L
561.689 275.917 L
562.112 247.707 L
562.535 237.129 L
562.958 243.236 L
563.382 238.53 L
563.805 239.158 L
564.228 237.582 L
564.651 225.48 L
565.074 227.097 L
565.498 224.975 L
565.921 205.365 L
566.344 178.297 L
566.767 150.601 L
567.19 143.196 L
567.614 163.064 L
568.037 186.084 L
568.46 215.293 L
568.883 230.063 L
569.306 207.445 L
569.73 181.449 L
570.153 176.525 L
570.576 193.211 L
570.999 204.489 L
571.422 205.674 L
571.846 207.888 L
572.269 214.253 L
572.692 221.545 L
573.115 228.055 L
573.538 231.752 L
573.962 207.291 L
574.385 198.752 L
574.808 221.525 L
575.231 238.221 L
575.654 253.361 L
576.078 254.391 L
576.501 255.019 L
576.924 285.414 L
577.347 317.219 L
577.77 320.072 L
578.194 325.737 L
578.617 342.793 L
579.04 357.481 L
579.463 377.771 L
579.886 374.599 L
580.31 344.163 L
580.733 329.836 L
581.156 351.383 L
581.579 383.425 L
582.002 390.543 L
582.426 387.205 L
582.849 401.141 L
583.272 413.377 L
583.695 412.069 L
584.118 422.987 L
584.542 435.624 L
584.965 437.993 L
585.388 439.353 L
585.811 435.871 L
586.234 429.609 L
586.658 406.837 L
587.081 393.488 L
587.504 412.862 L
587.927 427.807 L
588.35 420.35 L
588.774 407.28 L
589.197 402.686 L
589.62 387.164 L
590.043 386.103 L
590.466 408.886 L
590.89 433.111 L
591.313 456.543 L
591.736 446.635 L
592.159 429.414 L
592.582 418.032 L
593.006 415.499 L
593.429 434.316 L
593.852 431.546 L
594.275 429.249 L
594.698 423.831 L
595.122 409.854 L
595.545 415.118 L
595.968 398.947 L
596.391 390.182 L
596.814 405.868 L
597.238 405.24 L
597.661 391.428 L
598.084 387.411 L
598.507 390.007 L
598.93 363.032 L
599.354 346.892 L
599.777 352.454 L
600.2 368.563 L
600.623 394.034 L
601.046 389.389 L
601.47 387.906 L
601.893 390.532 L
602.316 398.226 L
602.739 424.326 L
603.162 429.29 L
603.586 407.764 L
604.009 406.569 L
604.432 428.775 L
604.855 428.62 L
605.278 428.919 L
605.702 418.65 L
606.125 402.418 L
606.548 408.763 L
606.971 424.089 L
607.394 443.689 L
607.818 437.633 L
608.241 423.522 L
608.664 415.869 L
609.087 397.567 L
609.51 371.303 L
609.934 373.239 L
610.357 392.51 L
610.78 368.697 L
611.203 353.639 L
611.626 377.884 L
612.05 379.501 L
612.473 361.806 L
612.896 368.615 L
613.319 384.476 L
613.742 403.283 L
614.166 425.16 L
614.589 402.387 L
615.012 363.228 L
615.435 364.752 L
615.858 375.011 L
616.282 374.527 L
616.705 373.229 L
617.128 367.821 L
617.551 361.291 L
617.974 352.784 L
618.398 356.183 L
618.821 361.055 L
619.244 373.733 L
619.667 397.011 L
620.09 396.98 L
620.514 388.431 L
620.937 379.46 L
621.36 375.577 L
621.783 369.253 L
622.206 351.363 L
622.63 335.8 L
623.053 351.764 L
623.476 390.367 L
623.899 396.012 L
624.322 388.596 L
624.746 372.982 L
625.169 357.007 L
625.592 356.193 L
626.015 353.227 L
626.438 355.307 L
626.862 349.303 L
627.285 347.716 L
627.708 343.998 L
628.131 343.164 L
628.554 374.485 L
628.978 382.014 L
629.401 362.229 L
629.824 342.392 L
630.247 324.068 L
630.67 329.393 L
631.094 337.056 L
631.517 350.59 L
631.94 357.275 L
632.363 341.372 L
632.786 347.572 L
633.21 362.455 L
633.633 364.999 L
634.056 339.755 L
634.479 321.627 L
634.902 367.595 L
635.326 400.832 L
635.749 388.235 L
636.172 369.284 L
636.595 344.091 L
637.018 315.89 L
637.442 309.433 L
637.865 339.322 L
638.288 347.799 L
638.711 334.533 L
639.134 337.849 L
639.558 346.944 L
639.981 365.267 L
640.404 355.112 L
640.827 325.994 L
641.25 330.856 L
641.674 352.032 L
642.097 374.64 L
642.52 376.71 L
642.943 329.156 L
643.366 291.933 L
643.79 321.432 L
644.213 370.685 L
644.636 378.399 L
645.059 352.289 L
645.482 331.896 L
645.906 321.854 L
646.329 326.818 L
646.752 333.4 L
647.175 317.25 L
647.598 293.89 L
648.022 276.206 L
648.445 260.952 L
648.868 246.429 L
649.291 230.104 L
649.714 208.537 L
650.138 202.542 L
650.561 214.789 L
650.984 224.944 L
651.407 230.176 L
651.83 228.827 L
652.254 222.647 L
652.677 219.794 L
653.1 227.828 L
653.523 231.485 L
653.946 228.755 L
654.37 237.252 L
654.793 262.342 L
655.216 294.58 L
655.639 303.994 L
656.062 278.008 L
656.486 255.205 L
656.909 251.208 L
657.332 235.985 L
657.755 241.413 L
658.178 252.197 L
658.602 237.52 L
659.025 241.795 L
659.448 245.06 L
659.871 231.577 L
660.294 215.664 L
660.718 214.49 L
661.141 219.269 L
661.564 224.007 L
661.987 228.559 L
662.41 202.13 L
662.834 190.327 L
663.257 184.765 L
663.68 169.511 L
664.103 170.686 L
664.526 159.861 L
664.95 146.172 L
665.373 134.657 L
665.796 135.09 L
666.219 139.261 L
666.642 130.764 L
667.066 142.609 L
667.489 171.128 L
667.912 177.689 L
668.335 138.932 L
668.758 110.36 L
669.182 135.945 L
669.605 163.126 L
670.028 165.814 L
670.451 159.881 L
670.874 165.886 L
671.298 178.606 L
671.721 179.502 L
672.144 186.269 L
672.567 191.151 L
672.99 193.757 L
673.414 217.879 L
673.837 245.09 L
674.26 256.482 L
674.683 253.268 L
675.106 253.907 L
675.53 261.374 L
675.953 255.895 L
676.376 243.937 L
676.799 239.158 L
677.222 248.273 L
677.646 250.838 L
678.069 237.757 L
678.492 238.138 L
678.915 252.001 L
679.338 249.777 L
679.762 236.243 L
680.185 242.361 L
680.608 251.322 L
681.031 244.627 L
681.454 234.883 L
681.878 243.834 L
682.301 255.452 L
682.724 241.774 L
683.147 221.679 L
683.57 221.432 L
683.994 251.991 L
684.417 264.032 L
684.84 267.76 L
685.263 275.856 L
685.686 256.214 L
686.11 251.301 L
686.533 260.458 L
686.956 257.141 L
687.379 241.424 L
687.802 231.485 L
688.226 235.532 L
688.649 248.623 L
689.072 252.753 L
689.495 240.466 L
689.918 250.539 L
690.342 269.686 L
690.765 265.566 L
691.188 269.604 L
691.611 307.929 L
692.034 314.438 L
692.458 289.441 L
692.881 285.352 L
693.304 296.558 L
693.727 317.425 L
694.15 315.355 L
694.574 312.584 L
694.997 317.549 L
695.42 313.305 L
695.843 321.813 L
696.266 326.633 L
696.69 321.483 L
697.113 320.196 L
697.536 337.108 L
697.959 353.67 L
698.382 337.53 L
698.806 310.154 L
699.229 301.007 L
699.652 328.528 L
700.075 360.282 L
700.498 342.33 L
700.922 321.669 L
701.345 335.099 L
701.768 352.732 L
702.191 350.343 L
702.614 347.758 L
703.038 358.078 L
703.461 348.128 L
703.884 345.904 L
704.307 361.94 L
704.73 382.426 L
705.154 386.309 L
705.577 367.667 L
706 371.426 L
706.423 396.352 L
706.846 432.112 L
707.27 437.427 L
707.693 415.591 L
708.116 406.837 L
708.539 405.271 L
708.962 414.87 L
709.386 434.481 L
709.809 452.176 L
710.232 439.229 L
710.655 411.111 L
711.078 401.779 L
711.502 415.499 L
711.925 434.141 L
712.348 437.056 L
712.771 432.421 L
713.194 435.532 L
713.618 452.804 L
714.041 450.229 L
714.464 436.458 L
714.887 436.582 L
715.31 431.381 L
715.734 427.879 L
716.157 415.581 L
716.58 401.048 L
717.003 409.824 L
717.426 414.077 L
717.85 400.657 L
718.273 396.434 L
718.696 400.142 L
719.119 382.766 L
719.542 364.804 L
719.966 348.427 L
720.389 318.877 L
720.812 326.489 L
721.235 333.585 L
721.658 301.646 L
722.082 290.749 L
722.505 295.785 L
722.928 300.122 L
723.351 307.908 L
723.774 282.427 L
724.198 237.51 L
724.621 233.627 L
725.044 252.3 L
725.467 266.071 L
725.89 280.789 L
726.314 284.672 L
726.737 287.999 L
727.16 296.033 L
727.583 289.801 L
728.006 271.159 L
728.43 275.917 L
728.853 294.889 L
729.276 288.05 L
729.699 282.066 L
730.122 283.179 L
730.546 271.241 L
730.969 271.035 L
731.392 276.535 L
731.815 276.916 L
732.238 286.763 L
732.662 291.398 L
733.085 276.113 L
733.508 266.4 L
733.931 290.821 L
734.354 309.917 L
734.778 300.843 L
735.201 286.578 L
735.624 278.152 L
736.047 279.574 L
736.47 281.448 L
736.894 293.643 L
737.317 312.286 L
737.74 310.308 L
738.163 303.047 L
738.586 325.098 L
739.01 343.339 L
739.433 340.867 L
739.856 344.369 L
740.279 353.546 L
740.702 362.383 L
741.126 361.703 L
741.549 361.044 L
741.972 340.126 L
742.395 328.044 L
742.818 344.833 L
743.242 351.074 L
743.665 357.522 L
744.088 354.04 L
744.511 345.739 L
744.934 345.924 L
745.358 357.007 L
745.781 354.525 L
746.204 354.607 L
746.627 384.455 L
747.05 399.637 L
747.474 396.805 L
747.897 373.445 L
748.32 362.435 L
748.743 393.262 L
749.166 423.893 L
749.59 432.823 L
750.013 427.858 L
750.436 409.03 L
750.859 393.354 L
751.282 401.573 L
751.706 402.676 L
752.129 382.787 L
752.552 363.29 L
752.975 374.856 L
753.398 386.031 L
753.822 367.935 L
754.245 373.713 L
754.668 391.016 L
755.091 390.79 L
755.514 393.014 L
755.938 402.212 L
756.361 405.044 L
756.784 398.041 L
757.207 388.091 L
757.63 375.381 L
758.054 365.689 L
758.477 360.601 L
758.9 355.709 L
759.323 353.443 L
759.746 338.694 L
760.17 307.682 L
760.593 303.479 L
761.016 327.519 L
761.439 341.444 L
761.862 346.285 L
762.286 344.966 L
762.709 338.024 L
763.132 339.569 L
763.555 325.026 L
763.978 306.477 L
764.402 319.66 L
764.825 318.342 L
765.248 310.576 L
765.671 319.897 L
766.094 320.412 L
766.518 309.453 L
766.941 304.447 L
767.364 325.469 L
767.787 324.419 L
768.21 307.331 L
768.634 315.324 L
769.057 319.351 L
769.48 314.788 L
769.903 302.521 L
770.326 291.14 L
770.75 295.198 L
771.173 302.027 L
771.596 303.016 L
772.019 298.041 L
772.442 278.43 L
772.866 264.032 L
773.289 270.551 L
773.712 275.083 L
774.135 280.872 L
774.558 285.331 L
774.982 276.896 L
775.405 280.429 L
775.828 296.28 L
776.251 295.044 L
776.674 288.782 L
777.098 274.908 L
777.521 256.647 L
777.944 266.637 L
778.367 273.332 L
778.79 263.352 L
779.214 257.172 L
779.637 253.546 L
780.06 247.995 L
780.483 235.028 L
780.906 221.69 L
781.33 221.834 L
781.753 233.349 L
782.176 233.833 L
782.599 233.297 L
783.022 244.637 L
783.446 255.287 L
783.869 260.509 L
784.292 255.771 L
784.715 261.992 L
785.138 278.956 L
785.562 292.562 L
785.985 315.561 L
786.408 331.319 L
786.831 333.204 L
787.254 319.938 L
787.678 303.932 L
788.101 312.45 L
788.524 322.204 L
788.947 321.442 L
789.37 311.977 L
789.794 310.298 L
790.217 319.31 L
790.64 320.391 L
791.063 324.305 L
791.486 307.754 L
791.91 273.672 L
792.333 260.612 L
792.756 254.772 L
793.179 248.942 L
793.602 251.311 L
794.026 262.559 L
794.449 285.043 L
794.872 298.68 L
795.295 303.943 L
795.718 303.819 L
796.142 296.877 L
796.565 302.676 L
796.988 316.55 L
797.411 323.718 L
797.834 324.099 L
798.258 336.057 L
798.681 354.452 L
799.104 369.923 L
799.527 368.316 L
799.95 348.901 L
800.374 342.525 L
800.797 334.739 L
801.22 306.631 L
801.643 290.491 L
802.066 322.194 L
802.49 339.672 L
802.913 322.802 L
803.336 308.516 L
803.759 300.544 L
804.182 317.631 L
804.606 324.161 L
805.029 321.226 L
805.452 318.012 L
805.875 303.016 L
806.298 297.454 L
806.722 301.358 L
807.145 304.417 L
807.568 293.406 L
807.991 284.796 L
808.414 285.898 L
808.838 290.543 L
809.261 291.614 L
809.684 286.124 L
810.107 281.397 L
810.53 281.737 L
810.954 290.564 L
811.377 294.941 L
811.8 282.612 L
812.223 249.54 L
812.646 226.036 L
813.07 234.059 L
813.493 268.872 L
813.916 292.469 L
814.339 253.866 L
814.762 202.264 L
815.186 197.104 L
815.609 219.733 L
816.032 247.202 L
816.455 262.693 L
816.878 258.501 L
817.302 251.198 L
817.725 264.629 L
818.148 286.207 L
818.571 272.673 L
818.994 260.828 L
819.418 271.942 L
819.841 268.749 L
820.264 268.821 L
820.687 274.115 L
821.11 273.229 L
821.534 274.826 L
821.957 279.811 L
822.38 281.623 L
822.803 300.523 L
823.226 318.208 L
823.65 292.902 L
824.073 267.121 L
824.496 256.729 L
824.919 252.568 L
825.342 270.242 L
825.766 310.02 L
826.189 339.023 L
826.612 338.828 L
827.035 330.475 L
827.458 315.911 L
827.882 307.434 L
828.305 304.056 L
828.728 303.448 L
829.151 314.768 L
829.574 327.199 L
829.998 341.135 L
830.421 343.669 L
830.844 324.079 L
831.267 309.845 L
831.69 321.215 L
832.114 345.203 L
832.537 363.3 L
832.96 372.992 L
833.383 384.023 L
833.806 379.676 L
834.23 366.153 L
834.653 385.228 L
835.076 406.497 L
835.499 394.765 L
835.922 383.024 L
836.346 392.252 L
836.769 399.771 L
837.192 394.879 L
837.615 398.679 L
838.038 402.439 L
838.462 392.16 L
838.885 390.254 L
839.308 390.543 L
839.731 386.948 L
840.154 399.452 L
840.578 401.955 L
841.001 393.808 L
841.424 412.182 L
841.847 419.413 L
842.27 399.266 L
842.694 395.744 L
843.117 393.931 L
843.54 376.226 L
843.963 387.741 L
844.386 418.177 L
844.81 417.981 L
845.233 396.846 L
845.656 367.523 L
846.079 355.452 L
846.502 362.898 L
846.926 356.142 L
847.349 354.216 L
847.772 359.952 L
848.195 337.86 L
848.618 308.701 L
849.042 313.491 L
849.465 335.728 L
849.888 341.846 L
850.311 330.392 L
850.734 334.44 L
851.158 347.15 L
851.581 335.553 L
852.004 310.802 L
852.427 297.804 L
852.85 305.817 L
853.274 307.836 L
853.697 308.856 L
854.12 314.304 L
854.543 283.313 L
854.966 240.981 L
855.39 249.839 L
855.813 283.107 L
856.236 279.388 L
856.659 263.259 L
857.082 266.771 L
857.506 278.389 L
857.929 276.36 L
858.352 269.47 L
858.775 279.327 L
859.198 285.63 L
859.622 297.825 L
860.045 312.656 L
860.468 312.11 L
860.891 302.202 L
861.314 294.436 L
861.738 309.7 L
862.161 311.214 L
862.584 293.015 L
863.007 279.749 L
863.43 270.119 L
863.854 273.188 L
864.277 275.516 L
864.7 287.752 L
865.123 293.046 L
865.546 276.134 L
865.97 260.478 L
866.393 250.518 L
866.816 260.53 L
867.239 254.072 L
867.662 223.739 L
868.086 219.249 L
868.509 225.161 L
868.932 212.492 L
869.355 197.866 L
869.778 205.323 L
870.202 227.087 L
870.625 237.953 L
871.048 230.897 L
871.471 227.076 L
871.894 236.253 L
872.318 244.565 L
872.741 252.692 L
873.164 266.782 L
873.587 269.037 L
874.01 280.449 L
874.434 319.979 L
874.857 341.619 L
875.28 352.98 L
875.703 389.224 L
876.126 423.388 L
876.55 434.141 L
876.973 423.512 L
877.396 397.299 L
877.819 402.995 L
878.242 438.848 L
878.666 461.054 L
879.089 459.849 L
879.512 434.234 L
879.935 415.808 L
880.358 410.318 L
880.782 420.01 L
881.205 444.945 L
881.628 448.046 L
882.051 427.961 L
882.474 406.662 L
882.898 391.84 L
883.321 380.428 L
883.744 377.452 L
884.167 379.079 L
884.59 373.939 L
885.014 375.793 L
885.437 391.82 L
885.86 394.807 L
886.283 386.989 L
886.706 383.395 L
887.13 385.64 L
887.553 391.902 L
887.976 386.876 L
888.399 400.564 L
888.822 419.011 L
889.246 403.438 L
889.669 382.447 L
890.092 374.774 L
890.515 378.646 L
890.938 373.878 L
891.362 372.405 L
891.785 382.828 L
892.208 384.085 L
892.631 378.399 L
893.054 369.212 L
893.478 367.471 L
893.901 359.139 L
894.324 341.382 L
894.747 326.839 L
895.17 315.046 L
895.594 312.09 L
896.017 315.757 L
896.44 330.815 L
896.863 342.968 L
897.286 340.733 L
897.71 327.014 L
898.133 316.179 L
898.556 324.079 L
898.979 323.759 L
899.402 308.784 L
899.826 305.972 L
900.249 305.91 L
900.672 297.372 L
901.095 302.285 L
901.518 304.211 L
901.942 289.328 L
902.365 290.182 L
902.788 301.172 L
903.211 301.255 L
903.634 299.349 L
904.058 309.948 L
904.481 327.735 L
904.904 341.341 L
905.327 347.644 L
905.75 340.826 L
906.174 352.362 L
906.597 378.605 L
907.02 377.287 L
907.443 370.129 L
907.866 379.615 L
908.29 395.146 L
908.713 403.716 L
909.136 423.409 L
909.559 432.658 L
909.982 419.711 L
910.406 440.012 L
910.829 468.048 L
911.252 463.279 L
911.675 444.554 L
912.098 444.935 L
912.522 456.872 L
912.945 443.998 L
913.368 419.505 L
913.791 421.854 L
914.214 443.668 L
914.638 428.301 L
915.061 397.546 L
915.484 423.656 L
915.907 455.492 L
916.33 437.159 L
916.754 422.564 L
917.177 416.735 L
917.6 392.438 L
918.023 374.187 L
918.446 366.513 L
918.87 349.375 L
919.293 335.048 L
919.716 335.542 L
920.139 353.165 L
920.562 389.234 L
920.986 397.907 L
921.409 384.62 L
921.832 383.93 L
922.255 378.049 L
922.678 354.525 L
923.102 338.653 L
923.525 355.833 L
923.948 368.748 L
924.371 363.475 L
924.794 352.897 L
925.218 347.284 L
925.641 350.343 L
926.064 336.716 L
926.487 318.589 L
926.91 318.929 L
927.334 322.369 L
927.757 312.605 L
928.18 314.86 L
928.603 325.006 L
929.026 323.522 L
929.45 318.939 L
929.873 310.947 L
930.296 319.186 L
930.719 344.142 L
931.142 368.553 L
931.566 369.284 L
931.989 360.818 L
932.412 381.16 L
932.835 403.335 L
933.258 413.552 L
933.682 414.644 L
934.105 415.251 L
934.528 428.888 L
934.951 436.726 L
935.374 435.305 L
935.798 424.243 L
936.221 401.275 L
936.644 395.837 L
937.067 410.328 L
937.49 415.313 L
937.914 411.09 L
938.337 393.385 L
938.76 378.028 L
939.183 392.242 L
939.606 396.444 L
940.03 383.93 L
940.453 405.044 L
940.876 435.253 L
941.299 424.686 L
941.722 406.765 L
942.146 399.926 L
942.569 402.274 L
942.992 423.594 L
943.415 438.827 L
943.838 444.41 L
944.262 437.767 L
944.685 421.277 L
945.108 401.831 L
945.531 377.071 L
945.954 362.424 L
946.378 349.941 L
946.801 331.35 L
947.224 322.977 L
947.647 337.891 L
948.07 343.339 L
948.494 322.029 L
948.917 306.291 L
949.34 299.298 L
949.763 290.028 L
950.186 276.916 L
950.61 244.915 L
951.033 208.104 L
951.456 225.356 L
951.879 265.618 L
952.302 272.704 L
952.726 268.028 L
953.149 259.005 L
953.572 248.438 L
953.995 254.113 L
954.418 273.6 L
954.842 276.134 L
955.265 254.35 L
955.688 229.651 L
956.111 226.252 L
956.534 249.303 L
956.958 265.432 L
957.381 258.12 L
957.804 246.234 L
958.227 242.134 L
958.65 239.158 L
959.074 231.618 L
959.497 214.974 L
959.92 199.339 L
960.343 201.142 L
960.766 217.436 L
961.19 234.574 L
961.613 256.719 L
962.036 272.405 L
962.459 267.482 L
962.882 279.821 L
963.306 311.369 L
963.729 327.282 L
964.152 313.8 L
964.575 311.297 L
964.998 319.876 L
965.422 288.977 L
965.845 272.827 L
966.268 282.931 L
966.691 277.339 L
967.114 263.146 L
967.538 245.07 L
967.961 243.834 L
968.384 244.102 L
968.807 244.009 L
969.23 273.332 L
969.654 300.286 L
970.077 311.925 L
970.5 326.252 L
970.923 326.283 L
971.346 318.239 L
971.77 335.656 L
972.193 349.333 L
972.616 333.194 L
973.039 331.968 L
973.462 334.255 L
973.886 305.477 L
974.309 291.583 L
974.732 312.564 L
975.155 332.895 L
975.578 338.766 L
976.002 336.438 L
976.425 350.806 L
976.848 378.317 L
977.271 374.31 L
977.694 346.367 L
978.118 326.314 L
978.541 324.408 L
978.964 334.038 L
979.387 328.858 L
979.81 310.38 L
980.234 305.879 L
980.657 313.594 L
981.08 309.082 L
981.503 305.56 L
981.926 307.043 L
982.35 288.658 L
982.773 276.113 L
983.196 292.665 L
983.619 313.243 L
984.042 329.836 L
984.466 346.851 L
984.889 345.286 L
985.312 345.059 L
985.735 364.845 L
986.158 373.208 L
986.582 376.247 L
987.005 389.894 L
987.428 408.526 L
987.851 425.5 L
988.274 442.371 L
988.698 451.115 L
989.121 439.703 L
989.544 438.797 L
989.967 441.742 L
990.39 431.752 L
990.814 422.832 L
991.237 417.281 L
991.66 421.833 L
992.083 421.328 L
992.506 410.246 L
992.93 400.029 L
993.353 389.214 L
993.776 378.739 L
994.199 376.514 L
994.622 377.915 L
995.046 390.604 L
995.469 411.976 L
995.892 408.093 L
996.315 401.944 L
996.738 395.682 L
997.162 384.054 L
997.585 384.94 L
998.008 372.024 L
998.431 361.59 L
998.854 368.439 L
999.278 373.713 L
999.701 378.605 L
1000.124 371.107 L
1000.547 352.022 L
1000.97 349.169 L
1001.394 347.057 L
1001.817 333.008 L
1002.24 332.092 L
1002.663 343.411 L
1003.086 349.725 L
1003.51 345.554 L
1003.933 358.995 L
1004.356 382.385 L
1004.779 378.924 L
1005.202 358.974 L
1005.626 345.142 L
1006.049 358.006 L
1006.472 379.203 L
1006.895 393.303 L
1007.318 409.103 L
1007.742 411.574 L
1008.165 415.633 L
1008.588 435.161 L
1009.011 432.4 L
1009.434 406.888 L
1009.858 396.547 L
1010.281 393.426 L
1010.704 398.494 L
1011.127 405.848 L
1011.55 386.433 L
1011.974 365.751 L
1012.397 356.049 L
1012.82 340.28 L
1013.243 312.945 L
1013.666 297.588 L
1014.09 306.353 L
1014.513 289.904 L
1014.936 248.603 L
1015.359 243.041 L
1015.782 273.662 L
1016.206 289.482 L
1016.629 284.641 L
1017.052 283.302 L
1017.475 288.061 L
1017.898 297.969 L
1018.322 306.827 L
1018.745 320.906 L
1019.168 339.827 L
1019.591 342.155 L
1020.014 352.259 L
1020.438 357.923 L
1020.861 329.857 L
1021.284 325.376 L
1021.707 345.955 L
1022.13 351.455 L
1022.554 354.494 L
1022.977 360.591 L
1023.4 347.098 L
1023.823 326.561 L
1024.246 319.485 L
1024.67 303.469 L
1025.093 301.862 L
1025.516 315.602 L
1025.939 305.91 L
1026.362 279.038 L
1026.786 264.65 L
1027.209 262.466 L
1027.632 258.604 L
1028.055 274.177 L
1028.478 286.711 L
1028.902 292.572 L
1029.325 301.121 L
1029.748 296.558 L
1030.171 288.998 L
1030.594 290.141 L
1031.018 309.958 L
1031.441 311.451 L
1031.864 294.694 L
1032.287 294.138 L
1032.71 305.426 L
1033.134 304.396 L
1033.557 286.104 L
1033.98 285.125 L
1034.403 293.149 L
1034.826 294.282 L
1035.25 297.639 L
1035.673 299.473 L
1036.096 288.205 L
1036.519 284.394 L
1036.942 299.998 L
1037.366 315.571 L
1037.789 328.26 L
1038.212 327.817 L
1038.635 317.075 L
1039.058 314.922 L
1039.482 328.878 L
1039.905 337.097 L
1040.328 331.124 L
1040.751 326.767 L
1041.174 327.817 L
1041.598 331.803 L
1042.021 329.064 L
1042.444 333.74 L
1042.867 351.95 L
1043.29 364.268 L
1043.714 366.761 L
S
GR
GS
[0.75 0 0 0.75 0 -0.25] CT
1 LJ
0.667 LW
N
177.423 328.796 M
177.846 321.195 L
178.27 323.667 L
178.693 329.332 L
179.116 336.387 L
179.539 357.223 L
179.962 349.375 L
180.386 337.458 L
180.809 361.909 L
181.232 372.055 L
181.655 348.437 L
182.078 321.885 L
182.502 303.376 L
182.925 302.48 L
183.348 306.837 L
183.771 303.119 L
184.194 282.159 L
184.618 271.149 L
185.041 298.886 L
185.464 316.622 L
185.887 318.177 L
186.31 318.579 L
186.734 305.58 L
187.157 294.982 L
187.58 296.043 L
188.003 306.075 L
188.426 299.72 L
188.85 278.235 L
189.273 275.083 L
189.696 259.778 L
190.119 236.078 L
190.542 244.874 L
190.966 268.841 L
191.389 301.831 L
191.812 324.841 L
192.235 327.725 L
192.658 322.894 L
193.082 318.97 L
193.505 324.007 L
193.928 338.539 L
194.351 372.24 L
194.774 401.264 L
195.198 415.066 L
195.621 401.522 L
196.044 394.271 L
196.467 414.108 L
196.89 395.95 L
197.314 354.257 L
197.737 346.264 L
198.16 378.461 L
198.583 384.322 L
199.006 382.498 L
199.43 403.788 L
199.853 414.963 L
200.276 431.34 L
200.699 437.159 L
201.122 451.949 L
201.546 456.687 L
201.969 443.04 L
202.392 439.569 L
202.815 436.757 L
203.238 479.315 L
203.662 536.849 L
204.085 558.335 L
204.508 536.52 L
204.931 511.512 L
205.354 517.63 L
205.778 504.632 L
206.201 490.264 L
206.624 470.88 L
207.047 450.621 L
207.47 477.585 L
207.894 497.628 L
208.317 507.217 L
208.74 520.277 L
209.163 505.126 L
209.586 499.678 L
210.01 508.536 L
210.433 515.488 L
210.856 523.233 L
211.279 517.836 L
211.702 525.005 L
212.126 531.102 L
212.549 492.18 L
212.972 433.966 L
213.395 414.016 L
213.818 412.007 L
214.242 402.954 L
214.665 401.264 L
215.088 401.646 L
215.511 406.394 L
215.934 391.562 L
216.358 388.915 L
216.781 395.775 L
217.204 400.544 L
217.627 393.674 L
218.05 327.663 L
218.474 302.964 L
218.897 343.967 L
219.32 360.982 L
219.743 338.745 L
220.166 314.86 L
220.59 296.506 L
221.013 294.138 L
221.436 312.615 L
221.859 300.06 L
222.282 268.337 L
222.706 242.443 L
223.129 239.487 L
223.552 267.739 L
223.975 286.166 L
224.398 278.142 L
224.822 260.725 L
225.245 244.411 L
225.668 254.556 L
226.091 257.718 L
226.514 221.175 L
226.938 206.92 L
227.361 231.835 L
227.784 275.711 L
228.207 286.753 L
228.63 261.106 L
229.054 241.661 L
229.477 235.203 L
229.9 256.708 L
230.323 279.203 L
230.746 272.683 L
231.17 247.49 L
231.593 259.695 L
232.016 296.96 L
232.439 304.993 L
232.862 279.656 L
233.286 246.192 L
233.709 261.055 L
234.132 258.439 L
234.555 231.155 L
234.978 243.412 L
235.402 254.267 L
235.825 258.676 L
236.248 268.512 L
236.671 262.806 L
237.094 237.613 L
237.518 255.977 L
237.941 297.032 L
238.364 306.209 L
238.787 289.647 L
239.21 263.29 L
239.634 277.782 L
240.057 298.803 L
240.48 303.871 L
240.903 284.126 L
241.326 274.105 L
241.75 309.196 L
242.173 310.617 L
242.596 297.814 L
243.019 286.536 L
243.442 283.488 L
243.866 289.997 L
244.289 267.801 L
244.712 260.9 L
245.135 259.479 L
245.558 248.809 L
245.982 235.522 L
246.405 226.324 L
246.828 221.535 L
247.251 194.076 L
247.674 212.955 L
248.098 246.759 L
248.521 229.332 L
248.944 202.357 L
249.367 187.319 L
249.79 189.802 L
250.214 170.665 L
250.637 171.231 L
251.06 205.148 L
251.483 213.728 L
251.906 206.693 L
252.33 212.688 L
252.753 254.02 L
253.176 274.465 L
253.599 271.416 L
254.022 273.518 L
254.446 264.083 L
254.869 255.987 L
255.292 253.958 L
255.715 263.887 L
256.138 270.695 L
256.562 269.089 L
256.985 249.787 L
257.408 222.205 L
257.831 205.952 L
258.254 191.553 L
258.678 202.542 L
259.101 220.68 L
259.524 231.165 L
259.947 241.764 L
260.37 233.132 L
260.794 220.155 L
261.217 210.895 L
261.64 191.975 L
262.063 173.425 L
262.486 179.708 L
262.91 188.628 L
263.333 169.81 L
263.756 151.116 L
264.179 144.102 L
264.602 135.224 L
265.026 123.688 L
265.449 144.771 L
265.872 193.438 L
266.295 180.11 L
266.718 136.851 L
267.142 147.82 L
267.565 173.672 L
267.988 172.024 L
268.411 155.442 L
268.834 145.338 L
269.258 141.414 L
269.681 149.839 L
270.104 164.32 L
270.527 162.178 L
270.95 151.796 L
271.374 142.372 L
271.797 150.302 L
272.22 170.346 L
272.643 181.088 L
273.066 179.832 L
273.49 172.715 L
273.913 180.697 L
274.336 191.872 L
274.759 200.07 L
275.182 223.131 L
275.606 240.765 L
276.029 234.605 L
276.452 227.406 L
276.875 231.773 L
277.298 225.676 L
277.722 216.365 L
278.145 225.82 L
278.568 248.839 L
278.991 266.483 L
279.414 268.697 L
279.838 255.72 L
280.261 216.282 L
280.684 176.639 L
281.107 179.904 L
281.53 225.284 L
281.954 255.987 L
282.377 251.59 L
282.8 276.463 L
283.223 304.18 L
283.646 310.761 L
284.07 331.999 L
284.493 337.396 L
284.916 345.275 L
285.339 354.061 L
285.762 353.01 L
286.186 395.445 L
286.609 443.205 L
287.032 455.894 L
287.455 427.24 L
287.878 389.482 L
288.302 395.425 L
288.725 403.922 L
289.148 396.249 L
289.571 380.336 L
289.994 366.627 L
290.418 365.772 L
290.841 374.702 L
291.264 388.41 L
291.687 377.925 L
292.11 361.621 L
292.534 361.951 L
292.957 375.031 L
293.38 376.216 L
293.803 373.455 L
294.226 397.629 L
294.65 425.623 L
295.073 446.46 L
295.496 435.13 L
295.919 415.272 L
296.342 401.625 L
296.766 373.785 L
297.189 380.614 L
297.612 384.085 L
298.035 370.664 L
298.458 369.222 L
298.882 360.704 L
299.305 367.935 L
299.728 356.564 L
300.151 324.903 L
300.574 322.142 L
300.998 344.101 L
301.421 346.954 L
301.844 320.319 L
302.267 313.367 L
302.69 313.46 L
303.114 306.971 L
303.537 275.268 L
303.96 227.735 L
304.383 216.983 L
304.806 219.249 L
305.23 230.31 L
305.653 252.63 L
306.076 262.157 L
306.499 266.153 L
306.922 273.899 L
307.346 279.254 L
307.769 265.391 L
308.192 251.507 L
308.615 264.155 L
309.038 295.549 L
309.462 326.036 L
309.885 309.494 L
310.308 269.264 L
310.731 270.613 L
311.154 299.473 L
311.578 318.816 L
312.001 329.846 L
312.424 327.344 L
312.847 304.221 L
313.27 305.138 L
313.694 329.239 L
314.117 364.546 L
314.54 399.143 L
314.963 398.69 L
315.386 375.258 L
315.81 350.127 L
316.233 333.132 L
316.656 312.656 L
317.079 311.729 L
317.502 324.995 L
317.926 320.175 L
318.349 335.934 L
318.772 362.723 L
319.195 361.188 L
319.618 362.672 L
320.042 379.697 L
320.465 379.996 L
320.888 372.353 L
321.311 376.298 L
321.734 388.936 L
322.158 396.424 L
322.581 392.839 L
323.004 407.207 L
323.427 433.667 L
323.85 430.32 L
324.274 412.162 L
324.697 403.572 L
325.12 418.228 L
325.543 432.74 L
325.966 415.643 L
326.39 412.1 L
326.813 418.949 L
327.236 434.955 L
327.659 437.416 L
328.082 403.613 L
328.506 399.38 L
328.929 411.482 L
329.352 403.149 L
329.775 384.888 L
330.198 386.443 L
330.622 394.91 L
331.045 397.268 L
331.468 389.574 L
331.891 382.107 L
332.314 408.196 L
332.738 418.959 L
333.161 415.653 L
333.584 408.897 L
334.007 394.559 L
334.43 386.031 L
334.854 384.105 L
335.277 406.734 L
335.7 412.11 L
336.123 390.357 L
336.546 383.858 L
336.97 386.145 L
337.393 374.125 L
337.816 348.005 L
338.239 333.276 L
338.662 352.331 L
339.086 374.207 L
339.509 374.65 L
339.932 357.614 L
340.355 324.872 L
340.778 313.594 L
341.202 327.951 L
341.625 342.484 L
342.048 369.665 L
342.471 405.199 L
342.894 414.984 L
343.318 397.732 L
343.741 372.497 L
344.164 374.836 L
344.587 394.426 L
345.01 395.064 L
345.434 393.066 L
345.857 371.838 L
346.28 349.56 L
346.703 335.759 L
347.126 317.93 L
347.55 324.254 L
347.973 329.393 L
348.396 317.559 L
348.819 312.152 L
349.242 325.49 L
349.666 324.305 L
350.089 302.243 L
350.512 294.148 L
350.935 291.181 L
351.358 288.225 L
351.782 294.992 L
352.205 313.377 L
352.628 324.583 L
353.051 326.128 L
353.474 329.919 L
353.898 327.745 L
354.321 334.667 L
354.744 341.784 L
355.167 348.643 L
355.59 388.349 L
356.014 409.875 L
356.437 391.119 L
356.86 373.517 L
357.283 365.277 L
357.706 372.23 L
358.13 367.276 L
358.553 349.797 L
358.976 356.09 L
359.399 369.006 L
359.822 368.326 L
360.246 358.232 L
360.669 335.141 L
361.092 322.935 L
361.515 338.57 L
361.938 351.744 L
362.362 363.434 L
362.785 366.009 L
363.208 355.884 L
363.631 356.43 L
364.054 348.139 L
364.478 338.962 L
364.901 350.343 L
365.324 362.424 L
365.747 361.219 L
366.17 359.973 L
366.594 364.526 L
367.017 372.92 L
367.44 399.75 L
367.863 418.578 L
368.286 409.113 L
368.71 401.059 L
369.133 392.149 L
369.556 384.919 L
369.979 404.859 L
370.402 418.722 L
370.826 397.021 L
371.249 391.686 L
371.672 414.397 L
372.095 406.95 L
372.518 368.676 L
372.942 336.953 L
373.365 341.331 L
373.788 380.027 L
374.211 405.745 L
374.634 420.906 L
375.058 430.32 L
375.481 423.182 L
375.904 432.359 L
376.327 452.856 L
376.75 461.291 L
377.174 450.538 L
377.597 433.389 L
378.02 433.585 L
378.443 445.574 L
378.866 444.688 L
379.29 415.921 L
379.713 390.563 L
380.136 379.985 L
380.559 363.125 L
380.982 348.128 L
381.406 359.695 L
381.829 376.597 L
382.252 377.596 L
382.675 394.426 L
383.098 401.11 L
383.522 386.175 L
383.945 384.249 L
384.368 386.114 L
384.791 383.436 L
385.214 382.591 L
385.638 381.922 L
386.061 389.574 L
386.484 392.891 L
386.907 371.045 L
387.33 367.739 L
387.754 385.856 L
388.177 396.681 L
388.6 395.764 L
389.023 382.828 L
389.446 379.038 L
389.87 375.247 L
390.293 366.091 L
390.716 368.367 L
391.139 361.693 L
391.562 335.079 L
391.986 321.782 L
392.409 315.293 L
392.832 298.906 L
393.255 280.109 L
393.678 263.372 L
394.102 260.231 L
394.525 275.165 L
394.948 280.418 L
395.371 272.714 L
395.794 277.061 L
396.218 264.814 L
396.641 251.888 L
397.064 259.592 L
397.487 274.187 L
397.91 291.964 L
398.334 296.908 L
398.757 292.829 L
399.18 294.735 L
399.603 307.712 L
400.026 295.785 L
400.45 276.947 L
400.873 265.968 L
401.296 252.104 L
401.719 270.685 L
402.142 297.547 L
402.566 306.559 L
402.989 309.937 L
403.412 327.828 L
403.835 323.275 L
404.258 297.413 L
404.682 298.391 L
405.105 284.342 L
405.528 271.87 L
405.951 273.229 L
406.374 273.713 L
406.798 278.894 L
407.221 284.116 L
407.644 298.844 L
408.067 289.812 L
408.49 289.173 L
408.914 294.21 L
409.337 281.86 L
409.76 314.479 L
410.183 346.831 L
410.606 338.756 L
411.03 329.661 L
411.453 330.372 L
411.876 327.313 L
412.299 319.557 L
412.722 299.483 L
413.146 273.641 L
413.569 284.754 L
413.992 298.628 L
414.415 305.735 L
414.838 324.563 L
415.262 322.935 L
415.685 320.917 L
416.108 325.438 L
416.531 336.201 L
416.954 345.224 L
417.378 334.512 L
417.801 320.896 L
418.224 316.086 L
418.647 332.596 L
419.07 331.906 L
419.494 308.33 L
419.917 289.039 L
420.34 267.904 L
420.763 269.47 L
421.186 276.886 L
421.61 254.834 L
422.033 244.091 L
422.456 262.754 L
422.879 254.267 L
423.302 252.177 L
423.726 281.036 L
424.149 280.552 L
424.572 253.969 L
424.995 211.658 L
425.418 193.53 L
425.842 215.767 L
426.265 218.486 L
426.688 202.46 L
427.111 203.686 L
427.534 203.027 L
427.958 186.403 L
428.381 182.551 L
428.804 194.993 L
429.227 218.352 L
429.65 242.958 L
430.074 254.731 L
430.497 250.045 L
430.92 233.555 L
431.343 225.974 L
431.766 226.273 L
432.19 241.063 L
432.613 263.238 L
433.036 244.823 L
433.459 206.415 L
433.882 213.357 L
434.306 244.03 L
434.729 255.071 L
435.152 270.531 L
435.575 289.719 L
435.998 280.892 L
436.422 267.029 L
436.845 286.866 L
437.268 315.592 L
437.691 314.078 L
438.114 305.22 L
438.538 312.43 L
438.961 320.566 L
439.384 322.935 L
439.807 321.566 L
440.23 304.437 L
440.654 279.769 L
441.077 265.947 L
441.5 257.368 L
441.923 272.292 L
442.346 300.74 L
442.77 301.687 L
443.193 279.708 L
443.616 262.971 L
444.039 271.149 L
444.462 283.663 L
444.886 292.407 L
445.309 294.58 L
445.732 298.772 L
446.155 328.518 L
446.578 354.391 L
447.002 370.211 L
447.425 367.636 L
447.848 355.555 L
448.271 367.646 L
448.694 387.36 L
449.118 393.519 L
449.541 384.641 L
449.964 391.871 L
450.387 401.141 L
450.81 384.486 L
451.234 360.529 L
451.657 341.804 L
452.08 339.106 L
452.503 358.922 L
452.926 394.23 L
453.35 402.006 L
453.773 376.205 L
454.196 362.733 L
454.619 357.388 L
455.042 353.989 L
455.466 360.529 L
455.889 346.995 L
456.312 335.141 L
456.735 349.323 L
457.158 358.912 L
457.582 363.877 L
458.005 351.857 L
458.428 346.542 L
458.851 365.648 L
459.274 350.837 L
459.698 320.536 L
460.121 323.656 L
460.544 331.834 L
460.967 318.486 L
461.39 310.143 L
461.814 319.094 L
462.237 335.614 L
462.66 360.107 L
463.083 361.518 L
463.506 335.789 L
463.93 320.948 L
464.353 314.407 L
464.776 304.911 L
465.199 290.327 L
465.622 296.156 L
466.046 315.592 L
466.469 306.899 L
466.892 294.076 L
467.315 281.479 L
467.738 270.778 L
468.162 260.046 L
468.585 245.894 L
469.008 254 L
469.431 269.295 L
469.854 284.548 L
470.278 277.596 L
470.701 259.026 L
471.124 258.789 L
471.547 255.061 L
471.97 252.743 L
472.394 252.197 L
472.817 244.617 L
473.24 223.925 L
473.663 204.86 L
474.086 213.048 L
474.51 219.908 L
474.933 217.353 L
475.356 209.917 L
475.779 196.002 L
476.202 207.321 L
476.626 235.45 L
477.049 249.519 L
477.472 249.993 L
477.895 257.543 L
478.318 252.928 L
478.742 243.782 L
479.165 265.484 L
479.588 268.409 L
480.011 260.488 L
480.434 271.519 L
480.858 287.618 L
481.281 303.572 L
481.704 283.941 L
482.127 239.168 L
482.55 232.432 L
482.974 256.276 L
483.397 253.237 L
483.82 232.432 L
484.243 221.916 L
484.666 232.916 L
485.09 248.798 L
485.513 241.352 L
485.936 243.144 L
486.359 250.817 L
486.782 236.676 L
487.206 226.798 L
487.629 232.257 L
488.052 242.917 L
488.475 259.273 L
488.898 278.739 L
489.322 287.813 L
489.745 290.234 L
490.168 280.81 L
490.591 266.019 L
491.014 284.353 L
491.438 306.765 L
491.861 307.3 L
492.284 301.285 L
492.707 306.775 L
493.13 323.543 L
493.554 318.877 L
493.977 311.153 L
494.4 322.905 L
494.823 344.863 L
495.246 356.605 L
495.67 352.959 L
496.093 342.721 L
496.516 337.18 L
496.939 359.211 L
497.362 367.543 L
497.786 361.158 L
498.209 373.115 L
498.632 367.646 L
499.055 349.725 L
499.478 342.33 L
499.902 367.873 L
500.325 406.456 L
500.748 402.871 L
501.171 394.889 L
501.594 406.291 L
502.018 403.633 L
502.441 391.243 L
502.864 401.326 L
503.287 405.992 L
503.71 391.161 L
504.134 397.67 L
504.557 399.534 L
504.98 405.261 L
505.403 419.979 L
505.826 408.969 L
506.25 407.506 L
506.673 401.594 L
507.096 388.709 L
507.519 401.491 L
507.942 413.82 L
508.366 437.437 L
508.789 438.343 L
509.212 403.592 L
509.635 401.604 L
510.058 395.023 L
510.482 375.742 L
510.905 384.919 L
511.328 382.251 L
511.751 363.114 L
512.174 346.192 L
512.598 324.82 L
513.021 335.656 L
513.444 356.306 L
513.867 349.066 L
514.29 356.667 L
514.714 369.572 L
515.137 361.353 L
515.56 346.8 L
515.983 344.194 L
516.406 346.913 L
516.83 351.939 L
517.253 361.796 L
517.676 368.388 L
518.099 364.536 L
518.522 326.375 L
518.946 297.619 L
519.369 311.359 L
519.792 335.027 L
520.215 342.144 L
520.638 335.377 L
521.062 352.393 L
521.485 366.122 L
521.908 344.122 L
522.331 321.04 L
522.754 320.927 L
523.178 336.624 L
523.601 346.985 L
524.024 345.502 L
524.447 354.061 L
524.87 370.098 L
525.294 380.459 L
525.717 388.709 L
526.14 389.276 L
526.563 384.713 L
526.986 381.53 L
527.41 386.495 L
527.833 390.625 L
528.256 398 L
528.679 413.851 L
529.102 418.032 L
529.526 419.855 L
529.949 420.185 L
530.372 404.19 L
530.795 403.335 L
531.218 423.78 L
531.642 411.183 L
532.065 393.509 L
532.488 395.311 L
532.911 377.328 L
533.334 369.263 L
533.758 375.958 L
534.181 366.184 L
534.604 354.143 L
535.027 357.233 L
535.45 374.99 L
535.874 375.752 L
536.297 362.404 L
536.72 377.163 L
537.143 392.489 L
537.566 375.69 L
537.99 353.711 L
538.413 346.336 L
538.836 342.783 L
539.259 336.953 L
539.682 338.57 L
540.106 351.661 L
540.529 361.693 L
540.952 363.722 L
541.375 366.297 L
541.798 362.249 L
542.222 371.148 L
542.645 388.833 L
543.068 390.594 L
543.491 411.204 L
543.914 447.273 L
544.338 459.18 L
544.761 445.048 L
545.184 420.597 L
545.607 394.961 L
546.03 375.134 L
546.454 383.189 L
546.877 397.34 L
547.3 386.103 L
547.723 370.963 L
548.146 364.793 L
548.57 374.032 L
548.993 382.086 L
549.416 371.385 L
549.839 357.192 L
550.262 332.288 L
550.686 329.908 L
551.109 344.039 L
551.532 305.426 L
551.955 273.456 L
552.378 275.577 L
552.802 267.358 L
553.225 279.605 L
553.648 304.375 L
554.071 299.545 L
554.494 267.853 L
554.918 235.924 L
555.341 227.715 L
555.764 269.439 L
556.187 298.051 L
556.61 283.766 L
557.034 303.727 L
557.457 310.081 L
557.88 298.535 L
558.303 294.385 L
558.726 266.091 L
559.15 254.041 L
559.573 259.397 L
559.996 270.232 L
560.419 282.489 L
560.842 289.328 L
561.266 291.861 L
561.689 275.917 L
562.112 247.707 L
562.535 237.129 L
562.958 243.236 L
563.382 238.53 L
563.805 239.158 L
564.228 237.582 L
564.651 225.48 L
565.074 227.097 L
565.498 224.975 L
565.921 205.365 L
566.344 178.297 L
566.767 150.601 L
567.19 143.196 L
567.614 163.064 L
568.037 186.084 L
568.46 215.293 L
568.883 230.063 L
569.306 207.445 L
569.73 181.449 L
570.153 176.525 L
570.576 193.211 L
570.999 204.489 L
571.422 205.674 L
571.846 207.888 L
572.269 214.253 L
572.692 221.545 L
573.115 228.055 L
573.538 231.752 L
573.962 207.291 L
574.385 198.752 L
574.808 221.525 L
575.231 238.221 L
575.654 253.361 L
576.078 254.391 L
576.501 255.019 L
576.924 285.414 L
577.347 317.219 L
577.77 320.072 L
578.194 325.737 L
578.617 342.793 L
579.04 357.481 L
579.463 377.771 L
579.886 374.599 L
580.31 344.163 L
580.733 329.836 L
581.156 351.383 L
581.579 383.425 L
582.002 390.543 L
582.426 387.205 L
582.849 401.141 L
583.272 413.377 L
583.695 412.069 L
584.118 422.987 L
584.542 435.624 L
584.965 437.993 L
585.388 439.353 L
585.811 435.871 L
586.234 429.609 L
586.658 406.837 L
587.081 393.488 L
587.504 412.862 L
587.927 427.807 L
588.35 420.35 L
588.774 407.28 L
589.197 402.686 L
589.62 387.164 L
590.043 386.103 L
590.466 408.886 L
590.89 433.111 L
591.313 456.543 L
591.736 446.635 L
592.159 429.414 L
592.582 418.032 L
593.006 415.499 L
593.429 434.316 L
593.852 431.546 L
594.275 429.249 L
594.698 423.831 L
595.122 409.854 L
595.545 415.118 L
595.968 398.947 L
596.391 390.182 L
596.814 405.868 L
597.238 405.24 L
597.661 391.428 L
598.084 387.411 L
598.507 390.007 L
598.93 363.032 L
599.354 346.892 L
599.777 352.454 L
600.2 368.563 L
600.623 394.034 L
601.046 389.389 L
601.47 387.906 L
601.893 390.532 L
602.316 398.226 L
602.739 424.326 L
603.162 429.29 L
603.586 407.764 L
604.009 406.569 L
604.432 428.775 L
604.855 428.62 L
605.278 428.919 L
605.702 418.65 L
606.125 402.418 L
606.548 408.763 L
606.971 424.089 L
607.394 443.689 L
607.818 437.633 L
608.241 423.522 L
608.664 415.869 L
609.087 397.567 L
609.51 371.303 L
609.934 373.239 L
610.357 392.51 L
610.78 368.697 L
611.203 353.639 L
611.626 377.884 L
612.05 379.501 L
612.473 361.806 L
612.896 368.615 L
613.319 384.476 L
613.742 403.283 L
614.166 425.16 L
614.589 402.387 L
615.012 363.228 L
615.435 364.752 L
615.858 375.011 L
616.282 374.527 L
616.705 373.229 L
617.128 367.821 L
617.551 361.291 L
617.974 352.784 L
618.398 356.183 L
618.821 361.055 L
619.244 373.733 L
619.667 397.011 L
620.09 396.98 L
620.514 388.431 L
620.937 379.46 L
621.36 375.577 L
621.783 369.253 L
622.206 351.363 L
622.63 335.8 L
623.053 351.764 L
623.476 390.367 L
623.899 396.012 L
624.322 388.596 L
624.746 372.982 L
625.169 357.007 L
625.592 356.193 L
626.015 353.227 L
626.438 355.307 L
626.862 349.303 L
627.285 347.716 L
627.708 343.998 L
628.131 343.164 L
628.554 374.485 L
628.978 382.014 L
629.401 362.229 L
629.824 342.392 L
630.247 324.068 L
630.67 329.393 L
631.094 337.056 L
631.517 350.59 L
631.94 357.275 L
632.363 341.372 L
632.786 347.572 L
633.21 362.455 L
633.633 364.999 L
634.056 339.755 L
634.479 321.627 L
634.902 367.595 L
635.326 400.832 L
635.749 388.235 L
636.172 369.284 L
636.595 344.091 L
637.018 315.89 L
637.442 309.433 L
637.865 339.322 L
638.288 347.799 L
638.711 334.533 L
639.134 337.849 L
639.558 346.944 L
639.981 365.267 L
640.404 355.112 L
640.827 325.994 L
641.25 330.856 L
641.674 352.032 L
642.097 374.64 L
642.52 376.71 L
642.943 329.156 L
643.366 291.933 L
643.79 321.432 L
644.213 370.685 L
644.636 378.399 L
645.059 352.289 L
645.482 331.896 L
645.906 321.854 L
646.329 326.818 L
646.752 333.4 L
647.175 317.25 L
647.598 293.89 L
648.022 276.206 L
648.445 260.952 L
648.868 246.429 L
649.291 230.104 L
649.714 208.537 L
650.138 202.542 L
650.561 214.789 L
650.984 224.944 L
651.407 230.176 L
651.83 228.827 L
652.254 222.647 L
652.677 219.794 L
653.1 227.828 L
653.523 231.485 L
653.946 228.755 L
654.37 237.252 L
654.793 262.342 L
655.216 294.58 L
655.639 303.994 L
656.062 278.008 L
656.486 255.205 L
656.909 251.208 L
657.332 235.985 L
657.755 241.413 L
658.178 252.197 L
658.602 237.52 L
659.025 241.795 L
659.448 245.06 L
659.871 231.577 L
660.294 215.664 L
660.718 214.49 L
661.141 219.269 L
661.564 224.007 L
661.987 228.559 L
662.41 202.13 L
662.834 190.327 L
663.257 184.765 L
663.68 169.511 L
664.103 170.686 L
664.526 159.861 L
664.95 146.172 L
665.373 134.657 L
665.796 135.09 L
666.219 139.261 L
666.642 130.764 L
667.066 142.609 L
667.489 171.128 L
667.912 177.689 L
668.335 138.932 L
668.758 110.36 L
669.182 135.945 L
669.605 163.126 L
670.028 165.814 L
670.451 159.881 L
670.874 165.886 L
671.298 178.606 L
671.721 179.502 L
672.144 186.269 L
672.567 191.151 L
672.99 193.757 L
673.414 217.879 L
673.837 245.09 L
674.26 256.482 L
674.683 253.268 L
675.106 253.907 L
675.53 261.374 L
675.953 255.895 L
676.376 243.937 L
676.799 239.158 L
677.222 248.273 L
677.646 250.838 L
678.069 237.757 L
678.492 238.138 L
678.915 252.001 L
679.338 249.777 L
679.762 236.243 L
680.185 242.361 L
680.608 251.322 L
681.031 244.627 L
681.454 234.883 L
681.878 243.834 L
682.301 255.452 L
682.724 241.774 L
683.147 221.679 L
683.57 221.432 L
683.994 251.991 L
684.417 264.032 L
684.84 267.76 L
685.263 275.856 L
685.686 256.214 L
686.11 251.301 L
686.533 260.458 L
686.956 257.141 L
687.379 241.424 L
687.802 231.485 L
688.226 235.532 L
688.649 248.623 L
689.072 252.753 L
689.495 240.466 L
689.918 250.539 L
690.342 269.686 L
690.765 265.566 L
691.188 269.604 L
691.611 307.929 L
692.034 314.438 L
692.458 289.441 L
692.881 285.352 L
693.304 296.558 L
693.727 317.425 L
694.15 315.355 L
694.574 312.584 L
694.997 317.549 L
695.42 313.305 L
695.843 321.813 L
696.266 326.633 L
696.69 321.483 L
697.113 320.196 L
697.536 337.108 L
697.959 353.67 L
698.382 337.53 L
698.806 310.154 L
699.229 301.007 L
699.652 328.528 L
700.075 360.282 L
700.498 342.33 L
700.922 321.669 L
701.345 335.099 L
701.768 352.732 L
702.191 350.343 L
702.614 347.758 L
703.038 358.078 L
703.461 348.128 L
703.884 345.904 L
704.307 361.94 L
704.73 382.426 L
705.154 386.309 L
705.577 367.667 L
706 371.426 L
706.423 396.352 L
706.846 432.112 L
707.27 437.427 L
707.693 415.591 L
708.116 406.837 L
708.539 405.271 L
708.962 414.87 L
709.386 434.481 L
709.809 452.176 L
710.232 439.229 L
710.655 411.111 L
711.078 401.779 L
711.502 415.499 L
711.925 434.141 L
712.348 437.056 L
712.771 432.421 L
713.194 435.532 L
713.618 452.804 L
714.041 450.229 L
714.464 436.458 L
714.887 436.582 L
715.31 431.381 L
715.734 427.879 L
716.157 415.581 L
716.58 401.048 L
717.003 409.824 L
717.426 414.077 L
717.85 400.657 L
718.273 396.434 L
718.696 400.142 L
719.119 382.766 L
719.542 364.804 L
719.966 348.427 L
720.389 318.877 L
720.812 326.489 L
721.235 333.585 L
721.658 301.646 L
722.082 290.749 L
722.505 295.785 L
722.928 300.122 L
723.351 307.908 L
723.774 282.427 L
724.198 237.51 L
724.621 233.627 L
725.044 252.3 L
725.467 266.071 L
725.89 280.789 L
726.314 284.672 L
726.737 287.999 L
727.16 296.033 L
727.583 289.801 L
728.006 271.159 L
728.43 275.917 L
728.853 294.889 L
729.276 288.05 L
729.699 282.066 L
730.122 283.179 L
730.546 271.241 L
730.969 271.035 L
731.392 276.535 L
731.815 276.916 L
732.238 286.763 L
732.662 291.398 L
733.085 276.113 L
733.508 266.4 L
733.931 290.821 L
734.354 309.917 L
734.778 300.843 L
735.201 286.578 L
735.624 278.152 L
736.047 279.574 L
736.47 281.448 L
736.894 293.643 L
737.317 312.286 L
737.74 310.308 L
738.163 303.047 L
738.586 325.098 L
739.01 343.339 L
739.433 340.867 L
739.856 344.369 L
740.279 353.546 L
740.702 362.383 L
741.126 361.703 L
741.549 361.044 L
741.972 340.126 L
742.395 328.044 L
742.818 344.833 L
743.242 351.074 L
743.665 357.522 L
744.088 354.04 L
744.511 345.739 L
744.934 345.924 L
745.358 357.007 L
745.781 354.525 L
746.204 354.607 L
746.627 384.455 L
747.05 399.637 L
747.474 396.805 L
747.897 373.445 L
748.32 362.435 L
748.743 393.262 L
749.166 423.893 L
749.59 432.823 L
750.013 427.858 L
750.436 409.03 L
750.859 393.354 L
751.282 401.573 L
751.706 402.676 L
752.129 382.787 L
752.552 363.29 L
752.975 374.856 L
753.398 386.031 L
753.822 367.935 L
754.245 373.713 L
754.668 391.016 L
755.091 390.79 L
755.514 393.014 L
755.938 402.212 L
756.361 405.044 L
756.784 398.041 L
757.207 388.091 L
757.63 375.381 L
758.054 365.689 L
758.477 360.601 L
758.9 355.709 L
759.323 353.443 L
759.746 338.694 L
760.17 307.682 L
760.593 303.479 L
761.016 327.519 L
761.439 341.444 L
761.862 346.285 L
762.286 344.966 L
762.709 338.024 L
763.132 339.569 L
763.555 325.026 L
763.978 306.477 L
764.402 319.66 L
764.825 318.342 L
765.248 310.576 L
765.671 319.897 L
766.094 320.412 L
766.518 309.453 L
766.941 304.447 L
767.364 325.469 L
767.787 324.419 L
768.21 307.331 L
768.634 315.324 L
769.057 319.351 L
769.48 314.788 L
769.903 302.521 L
770.326 291.14 L
770.75 295.198 L
771.173 302.027 L
771.596 303.016 L
772.019 298.041 L
772.442 278.43 L
772.866 264.032 L
773.289 270.551 L
773.712 275.083 L
774.135 280.872 L
774.558 285.331 L
774.982 276.896 L
775.405 280.429 L
775.828 296.28 L
776.251 295.044 L
776.674 288.782 L
777.098 274.908 L
777.521 256.647 L
777.944 266.637 L
778.367 273.332 L
778.79 263.352 L
779.214 257.172 L
779.637 253.546 L
780.06 247.995 L
780.483 235.028 L
780.906 221.69 L
781.33 221.834 L
781.753 233.349 L
782.176 233.833 L
782.599 233.297 L
783.022 244.637 L
783.446 255.287 L
783.869 260.509 L
784.292 255.771 L
784.715 261.992 L
785.138 278.956 L
785.562 292.562 L
785.985 315.561 L
786.408 331.319 L
786.831 333.204 L
787.254 319.938 L
787.678 303.932 L
788.101 312.45 L
788.524 322.204 L
788.947 321.442 L
789.37 311.977 L
789.794 310.298 L
790.217 319.31 L
790.64 320.391 L
791.063 324.305 L
791.486 307.754 L
791.91 273.672 L
792.333 260.612 L
792.756 254.772 L
793.179 248.942 L
793.602 251.311 L
794.026 262.559 L
794.449 285.043 L
794.872 298.68 L
795.295 303.943 L
795.718 303.819 L
796.142 296.877 L
796.565 302.676 L
796.988 316.55 L
797.411 323.718 L
797.834 324.099 L
798.258 336.057 L
798.681 354.452 L
799.104 369.923 L
799.527 368.316 L
799.95 348.901 L
800.374 342.525 L
800.797 334.739 L
801.22 306.631 L
801.643 290.491 L
802.066 322.194 L
802.49 339.672 L
802.913 322.802 L
803.336 308.516 L
803.759 300.544 L
804.182 317.631 L
804.606 324.161 L
805.029 321.226 L
805.452 318.012 L
805.875 303.016 L
806.298 297.454 L
806.722 301.358 L
807.145 304.417 L
807.568 293.406 L
807.991 284.796 L
808.414 285.898 L
808.838 290.543 L
809.261 291.614 L
809.684 286.124 L
810.107 281.397 L
810.53 281.737 L
810.954 290.564 L
811.377 294.941 L
811.8 282.612 L
812.223 249.54 L
812.646 226.036 L
813.07 234.059 L
813.493 268.872 L
813.916 292.469 L
814.339 253.866 L
814.762 202.264 L
815.186 197.104 L
815.609 219.733 L
816.032 247.202 L
816.455 262.693 L
816.878 258.501 L
817.302 251.198 L
817.725 264.629 L
818.148 286.207 L
818.571 272.673 L
818.994 260.828 L
819.418 271.942 L
819.841 268.749 L
820.264 268.821 L
820.687 274.115 L
821.11 273.229 L
821.534 274.826 L
821.957 279.811 L
822.38 281.623 L
822.803 300.523 L
823.226 318.208 L
823.65 292.902 L
824.073 267.121 L
824.496 256.729 L
824.919 252.568 L
825.342 270.242 L
825.766 310.02 L
826.189 339.023 L
826.612 338.828 L
827.035 330.475 L
827.458 315.911 L
827.882 307.434 L
828.305 304.056 L
828.728 303.448 L
829.151 314.768 L
829.574 327.199 L
829.998 341.135 L
830.421 343.669 L
830.844 324.079 L
831.267 309.845 L
831.69 321.215 L
832.114 345.203 L
832.537 363.3 L
832.96 372.992 L
833.383 384.023 L
833.806 379.676 L
834.23 366.153 L
834.653 385.228 L
835.076 406.497 L
835.499 394.765 L
835.922 383.024 L
836.346 392.252 L
836.769 399.771 L
837.192 394.879 L
837.615 398.679 L
838.038 402.439 L
838.462 392.16 L
838.885 390.254 L
839.308 390.543 L
839.731 386.948 L
840.154 399.452 L
840.578 401.955 L
841.001 393.808 L
841.424 412.182 L
841.847 419.413 L
842.27 399.266 L
842.694 395.744 L
843.117 393.931 L
843.54 376.226 L
843.963 387.741 L
844.386 418.177 L
844.81 417.981 L
845.233 396.846 L
845.656 367.523 L
846.079 355.452 L
846.502 362.898 L
846.926 356.142 L
847.349 354.216 L
847.772 359.952 L
848.195 337.86 L
848.618 308.701 L
849.042 313.491 L
849.465 335.728 L
849.888 341.846 L
850.311 330.392 L
850.734 334.44 L
851.158 347.15 L
851.581 335.553 L
852.004 310.802 L
852.427 297.804 L
852.85 305.817 L
853.274 307.836 L
853.697 308.856 L
854.12 314.304 L
854.543 283.313 L
854.966 240.981 L
855.39 249.839 L
855.813 283.107 L
856.236 279.388 L
856.659 263.259 L
857.082 266.771 L
857.506 278.389 L
857.929 276.36 L
858.352 269.47 L
858.775 279.327 L
859.198 285.63 L
859.622 297.825 L
860.045 312.656 L
860.468 312.11 L
860.891 302.202 L
861.314 294.436 L
861.738 309.7 L
862.161 311.214 L
862.584 293.015 L
863.007 279.749 L
863.43 270.119 L
863.854 273.188 L
864.277 275.516 L
864.7 287.752 L
865.123 293.046 L
865.546 276.134 L
865.97 260.478 L
866.393 250.518 L
866.816 260.53 L
867.239 254.072 L
867.662 223.739 L
868.086 219.249 L
868.509 225.161 L
868.932 212.492 L
869.355 197.866 L
869.778 205.323 L
870.202 227.087 L
870.625 237.953 L
871.048 230.897 L
871.471 227.076 L
871.894 236.253 L
872.318 244.565 L
872.741 252.692 L
873.164 266.782 L
873.587 269.037 L
874.01 280.449 L
874.434 319.979 L
874.857 341.619 L
875.28 352.98 L
875.703 389.224 L
876.126 423.388 L
876.55 434.141 L
876.973 423.512 L
877.396 397.299 L
877.819 402.995 L
878.242 438.848 L
878.666 461.054 L
879.089 459.849 L
879.512 434.234 L
879.935 415.808 L
880.358 410.318 L
880.782 420.01 L
881.205 444.945 L
881.628 448.046 L
882.051 427.961 L
882.474 406.662 L
882.898 391.84 L
883.321 380.428 L
883.744 377.452 L
884.167 379.079 L
884.59 373.939 L
885.014 375.793 L
885.437 391.82 L
885.86 394.807 L
886.283 386.989 L
886.706 383.395 L
887.13 385.64 L
887.553 391.902 L
887.976 386.876 L
888.399 400.564 L
888.822 419.011 L
889.246 403.438 L
889.669 382.447 L
890.092 374.774 L
890.515 378.646 L
890.938 373.878 L
891.362 372.405 L
891.785 382.828 L
892.208 384.085 L
892.631 378.399 L
893.054 369.212 L
893.478 367.471 L
893.901 359.139 L
894.324 341.382 L
894.747 326.839 L
895.17 315.046 L
895.594 312.09 L
896.017 315.757 L
896.44 330.815 L
896.863 342.968 L
897.286 340.733 L
897.71 327.014 L
898.133 316.179 L
898.556 324.079 L
898.979 323.759 L
899.402 308.784 L
899.826 305.972 L
900.249 305.91 L
900.672 297.372 L
901.095 302.285 L
901.518 304.211 L
901.942 289.328 L
902.365 290.182 L
902.788 301.172 L
903.211 301.255 L
903.634 299.349 L
904.058 309.948 L
904.481 327.735 L
904.904 341.341 L
905.327 347.644 L
905.75 340.826 L
906.174 352.362 L
906.597 378.605 L
907.02 377.287 L
907.443 370.129 L
907.866 379.615 L
908.29 395.146 L
908.713 403.716 L
909.136 423.409 L
909.559 432.658 L
909.982 419.711 L
910.406 440.012 L
910.829 468.048 L
911.252 463.279 L
911.675 444.554 L
912.098 444.935 L
912.522 456.872 L
912.945 443.998 L
913.368 419.505 L
913.791 421.854 L
914.214 443.668 L
914.638 428.301 L
915.061 397.546 L
915.484 423.656 L
915.907 455.492 L
916.33 437.159 L
916.754 422.564 L
917.177 416.735 L
917.6 392.438 L
918.023 374.187 L
918.446 366.513 L
918.87 349.375 L
919.293 335.048 L
919.716 335.542 L
920.139 353.165 L
920.562 389.234 L
920.986 397.907 L
921.409 384.62 L
921.832 383.93 L
922.255 378.049 L
922.678 354.525 L
923.102 338.653 L
923.525 355.833 L
923.948 368.748 L
924.371 363.475 L
924.794 352.897 L
925.218 347.284 L
925.641 350.343 L
926.064 336.716 L
926.487 318.589 L
926.91 318.929 L
927.334 322.369 L
927.757 312.605 L
928.18 314.86 L
928.603 325.006 L
929.026 323.522 L
929.45 318.939 L
929.873 310.947 L
930.296 319.186 L
930.719 344.142 L
931.142 368.553 L
931.566 369.284 L
931.989 360.818 L
932.412 381.16 L
932.835 403.335 L
933.258 413.552 L
933.682 414.644 L
934.105 415.251 L
934.528 428.888 L
934.951 436.726 L
935.374 435.305 L
935.798 424.243 L
936.221 401.275 L
936.644 395.837 L
937.067 410.328 L
937.49 415.313 L
937.914 411.09 L
938.337 393.385 L
938.76 378.028 L
939.183 392.242 L
939.606 396.444 L
940.03 383.93 L
940.453 405.044 L
940.876 435.253 L
941.299 424.686 L
941.722 406.765 L
942.146 399.926 L
942.569 402.274 L
942.992 423.594 L
943.415 438.827 L
943.838 444.41 L
944.262 437.767 L
944.685 421.277 L
945.108 401.831 L
945.531 377.071 L
945.954 362.424 L
946.378 349.941 L
946.801 331.35 L
947.224 322.977 L
947.647 337.891 L
948.07 343.339 L
948.494 322.029 L
948.917 306.291 L
949.34 299.298 L
949.763 290.028 L
950.186 276.916 L
950.61 244.915 L
951.033 208.104 L
951.456 225.356 L
951.879 265.618 L
952.302 272.704 L
952.726 268.028 L
953.149 259.005 L
953.572 248.438 L
953.995 254.113 L
954.418 273.6 L
954.842 276.134 L
955.265 254.35 L
955.688 229.651 L
956.111 226.252 L
956.534 249.303 L
956.958 265.432 L
957.381 258.12 L
957.804 246.234 L
958.227 242.134 L
958.65 239.158 L
959.074 231.618 L
959.497 214.974 L
959.92 199.339 L
960.343 201.142 L
960.766 217.436 L
961.19 234.574 L
961.613 256.719 L
962.036 272.405 L
962.459 267.482 L
962.882 279.821 L
963.306 311.369 L
963.729 327.282 L
964.152 313.8 L
964.575 311.297 L
964.998 319.876 L
965.422 288.977 L
965.845 272.827 L
966.268 282.931 L
966.691 277.339 L
967.114 263.146 L
967.538 245.07 L
967.961 243.834 L
968.384 244.102 L
968.807 244.009 L
969.23 273.332 L
969.654 300.286 L
970.077 311.925 L
970.5 326.252 L
970.923 326.283 L
971.346 318.239 L
971.77 335.656 L
972.193 349.333 L
972.616 333.194 L
973.039 331.968 L
973.462 334.255 L
973.886 305.477 L
974.309 291.583 L
974.732 312.564 L
975.155 332.895 L
975.578 338.766 L
976.002 336.438 L
976.425 350.806 L
976.848 378.317 L
977.271 374.31 L
977.694 346.367 L
978.118 326.314 L
978.541 324.408 L
978.964 334.038 L
979.387 328.858 L
979.81 310.38 L
980.234 305.879 L
980.657 313.594 L
981.08 309.082 L
981.503 305.56 L
981.926 307.043 L
982.35 288.658 L
982.773 276.113 L
983.196 292.665 L
983.619 313.243 L
984.042 329.836 L
984.466 346.851 L
984.889 345.286 L
985.312 345.059 L
985.735 364.845 L
986.158 373.208 L
986.582 376.247 L
987.005 389.894 L
987.428 408.526 L
987.851 425.5 L
988.274 442.371 L
988.698 451.115 L
989.121 439.703 L
989.544 438.797 L
989.967 441.742 L
990.39 431.752 L
990.814 422.832 L
991.237 417.281 L
991.66 421.833 L
992.083 421.328 L
992.506 410.246 L
992.93 400.029 L
993.353 389.214 L
993.776 378.739 L
994.199 376.514 L
994.622 377.915 L
995.046 390.604 L
995.469 411.976 L
995.892 408.093 L
996.315 401.944 L
996.738 395.682 L
997.162 384.054 L
997.585 384.94 L
998.008 372.024 L
998.431 361.59 L
998.854 368.439 L
999.278 373.713 L
999.701 378.605 L
1000.124 371.107 L
1000.547 352.022 L
1000.97 349.169 L
1001.394 347.057 L
1001.817 333.008 L
1002.24 332.092 L
1002.663 343.411 L
1003.086 349.725 L
1003.51 345.554 L
1003.933 358.995 L
1004.356 382.385 L
1004.779 378.924 L
1005.202 358.974 L
1005.626 345.142 L
1006.049 358.006 L
1006.472 379.203 L
1006.895 393.303 L
1007.318 409.103 L
1007.742 411.574 L
1008.165 415.633 L
1008.588 435.161 L
1009.011 432.4 L
1009.434 406.888 L
1009.858 396.547 L
1010.281 393.426 L
1010.704 398.494 L
1011.127 405.848 L
1011.55 386.433 L
1011.974 365.751 L
1012.397 356.049 L
1012.82 340.28 L
1013.243 312.945 L
1013.666 297.588 L
1014.09 306.353 L
1014.513 289.904 L
1014.936 248.603 L
1015.359 243.041 L
1015.782 273.662 L
1016.206 289.482 L
1016.629 284.641 L
1017.052 283.302 L
1017.475 288.061 L
1017.898 297.969 L
1018.322 306.827 L
1018.745 320.906 L
1019.168 339.827 L
1019.591 342.155 L
1020.014 352.259 L
1020.438 357.923 L
1020.861 329.857 L
1021.284 325.376 L
1021.707 345.955 L
1022.13 351.455 L
1022.554 354.494 L
1022.977 360.591 L
1023.4 347.098 L
1023.823 326.561 L
1024.246 319.485 L
1024.67 303.469 L
1025.093 301.862 L
1025.516 315.602 L
1025.939 305.91 L
1026.362 279.038 L
1026.786 264.65 L
1027.209 262.466 L
1027.632 258.604 L
1028.055 274.177 L
1028.478 286.711 L
1028.902 292.572 L
1029.325 301.121 L
1029.748 296.558 L
1030.171 288.998 L
1030.594 290.141 L
1031.018 309.958 L
1031.441 311.451 L
1031.864 294.694 L
1032.287 294.138 L
1032.71 305.426 L
1033.134 304.396 L
1033.557 286.104 L
1033.98 285.125 L
1034.403 293.149 L
1034.826 294.282 L
1035.25 297.639 L
1035.673 299.473 L
1036.096 288.205 L
1036.519 284.394 L
1036.942 299.998 L
1037.366 315.571 L
1037.789 328.26 L
1038.212 327.817 L
1038.635 317.075 L
1039.058 314.922 L
1039.482 328.878 L
1039.905 337.097 L
1040.328 331.124 L
1040.751 326.767 L
1041.174 327.817 L
1041.598 331.803 L
1042.021 329.064 L
1042.444 333.74 L
1042.867 351.95 L
1043.29 364.268 L
1043.714 366.761 L
S
GR
%%Trailer
%%Pages: 1
%%EOF
