%!PS-Adobe-3.0 EPSF-3.0
%%Creator: (MATLAB, The Mathworks, Inc. Version 9.2.0.538062 \(R2017a\). Operating System: Linux)
%%Title: /home/chris/Storage/christina/Desktop/THMMY/????????/Project/authMultimediaAssignment2018/Level_1/frame_2_left_filtered.eps
%%CreationDate: 2019-02-15T00:45:20
%%Pages: (atend)
%%BoundingBox:   109    40   938   464
%%LanguageLevel: 3
%%EndComments
%%BeginProlog
%%BeginResource: procset (Apache XML Graphics Std ProcSet) 1.2 0
%%Version: 1.2 0
%%Copyright: (Copyright 2001-2003,2010 The Apache Software Foundation. License terms: http://www.apache.org/licenses/LICENSE-2.0)
/bd{bind def}bind def
/ld{load def}bd
/GR/grestore ld
/M/moveto ld
/LJ/setlinejoin ld
/C/curveto ld
/f/fill ld
/LW/setlinewidth ld
/GC/setgray ld
/t/show ld
/N/newpath ld
/CT/concat ld
/cp/closepath ld
/S/stroke ld
/L/lineto ld
/CC/setcmykcolor ld
/A/ashow ld
/GS/gsave ld
/RC/setrgbcolor ld
/RM/rmoveto ld
/ML/setmiterlimit ld
/re {4 2 roll M
1 index 0 rlineto
0 exch rlineto
neg 0 rlineto
cp } bd
/_ctm matrix def
/_tm matrix def
/BT { _ctm currentmatrix pop matrix _tm copy pop 0 0 moveto } bd
/ET { _ctm setmatrix } bd
/iTm { _ctm setmatrix _tm concat } bd
/Tm { _tm astore pop iTm 0 0 moveto } bd
/ux 0.0 def
/uy 0.0 def
/F {
  /Tp exch def
  /Tf exch def
  Tf findfont Tp scalefont setfont
  /cf Tf def  /cs Tp def
} bd
/ULS {currentpoint /uy exch def /ux exch def} bd
/ULE {
  /Tcx currentpoint pop def
  gsave
  newpath
  cf findfont cs scalefont dup
  /FontMatrix get 0 get /Ts exch def /FontInfo get dup
  /UnderlinePosition get Ts mul /To exch def
  /UnderlineThickness get Ts mul /Tt exch def
  ux uy To add moveto  Tcx uy To add lineto
  Tt setlinewidth stroke
  grestore
} bd
/OLE {
  /Tcx currentpoint pop def
  gsave
  newpath
  cf findfont cs scalefont dup
  /FontMatrix get 0 get /Ts exch def /FontInfo get dup
  /UnderlinePosition get Ts mul /To exch def
  /UnderlineThickness get Ts mul /Tt exch def
  ux uy To add cs add moveto Tcx uy To add cs add lineto
  Tt setlinewidth stroke
  grestore
} bd
/SOE {
  /Tcx currentpoint pop def
  gsave
  newpath
  cf findfont cs scalefont dup
  /FontMatrix get 0 get /Ts exch def /FontInfo get dup
  /UnderlinePosition get Ts mul /To exch def
  /UnderlineThickness get Ts mul /Tt exch def
  ux uy To add cs 10 mul 26 idiv add moveto Tcx uy To add cs 10 mul 26 idiv add lineto
  Tt setlinewidth stroke
  grestore
} bd
/QT {
/Y22 exch store
/X22 exch store
/Y21 exch store
/X21 exch store
currentpoint
/Y21 load 2 mul add 3 div exch
/X21 load 2 mul add 3 div exch
/X21 load 2 mul /X22 load add 3 div
/Y21 load 2 mul /Y22 load add 3 div
/X22 load /Y22 load curveto
} bd
/SSPD {
dup length /d exch dict def
{
/v exch def
/k exch def
currentpagedevice k known {
/cpdv currentpagedevice k get def
v cpdv ne {
/upd false def
/nullv v type /nulltype eq def
/nullcpdv cpdv type /nulltype eq def
nullv nullcpdv or
{
/upd true def
} {
/sametype v type cpdv type eq def
sametype {
v type /arraytype eq {
/vlen v length def
/cpdvlen cpdv length def
vlen cpdvlen eq {
0 1 vlen 1 sub {
/i exch def
/obj v i get def
/cpdobj cpdv i get def
obj cpdobj ne {
/upd true def
exit
} if
} for
} {
/upd true def
} ifelse
} {
v type /dicttype eq {
v {
/dv exch def
/dk exch def
/cpddv cpdv dk get def
dv cpddv ne {
/upd true def
exit
} if
} forall
} {
/upd true def
} ifelse
} ifelse
} if
} ifelse
upd true eq {
d k v put
} if
} if
} if
} forall
d length 0 gt {
d setpagedevice
} if
} bd
/RE { % /NewFontName [NewEncodingArray] /FontName RE -
  findfont dup length dict begin
  {
    1 index /FID ne
    {def} {pop pop} ifelse
  } forall
  /Encoding exch def
  /FontName 1 index def
  currentdict definefont pop
  end
} bind def
%%EndResource
%%BeginResource: procset (Apache XML Graphics EPS ProcSet) 1.0 0
%%Version: 1.0 0
%%Copyright: (Copyright 2002-2003 The Apache Software Foundation. License terms: http://www.apache.org/licenses/LICENSE-2.0)
/BeginEPSF { %def
/b4_Inc_state save def         % Save state for cleanup
/dict_count countdictstack def % Count objects on dict stack
/op_count count 1 sub def      % Count objects on operand stack
userdict begin                 % Push userdict on dict stack
/showpage { } def              % Redefine showpage, { } = null proc
0 setgray 0 setlinecap         % Prepare graphics state
1 setlinewidth 0 setlinejoin
10 setmiterlimit [ ] 0 setdash newpath
/languagelevel where           % If level not equal to 1 then
{pop languagelevel             % set strokeadjust and
1 ne                           % overprint to their defaults.
{false setstrokeadjust false setoverprint
} if
} if
} bd
/EndEPSF { %def
count op_count sub {pop} repeat            % Clean up stacks
countdictstack dict_count sub {end} repeat
b4_Inc_state restore
} bd
%%EndResource
%FOPBeginFontDict
%%IncludeResource: font Courier-Bold
%%IncludeResource: font Helvetica
%%IncludeResource: font Courier-BoldOblique
%%IncludeResource: font Courier-Oblique
%%IncludeResource: font Times-Roman
%%IncludeResource: font Helvetica-BoldOblique
%%IncludeResource: font Helvetica-Bold
%%IncludeResource: font Helvetica-Oblique
%%IncludeResource: font Times-BoldItalic
%%IncludeResource: font Courier
%%IncludeResource: font Times-Italic
%%IncludeResource: font Times-Bold
%%IncludeResource: font Symbol
%%IncludeResource: font ZapfDingbats
%FOPEndFontDict
%%BeginResource: encoding WinAnsiEncoding
/WinAnsiEncoding [
/.notdef /.notdef /.notdef /.notdef /.notdef
/.notdef /.notdef /.notdef /.notdef /.notdef
/.notdef /.notdef /.notdef /.notdef /.notdef
/.notdef /.notdef /.notdef /.notdef /.notdef
/.notdef /.notdef /.notdef /.notdef /.notdef
/.notdef /.notdef /.notdef /.notdef /.notdef
/.notdef /.notdef /space /exclam /quotedbl
/numbersign /dollar /percent /ampersand /quotesingle
/parenleft /parenright /asterisk /plus /comma
/hyphen /period /slash /zero /one
/two /three /four /five /six
/seven /eight /nine /colon /semicolon
/less /equal /greater /question /at
/A /B /C /D /E
/F /G /H /I /J
/K /L /M /N /O
/P /Q /R /S /T
/U /V /W /X /Y
/Z /bracketleft /backslash /bracketright /asciicircum
/underscore /quoteleft /a /b /c
/d /e /f /g /h
/i /j /k /l /m
/n /o /p /q /r
/s /t /u /v /w
/x /y /z /braceleft /bar
/braceright /asciitilde /bullet /Euro /bullet
/quotesinglbase /florin /quotedblbase /ellipsis /dagger
/daggerdbl /circumflex /perthousand /Scaron /guilsinglleft
/OE /bullet /Zcaron /bullet /bullet
/quoteleft /quoteright /quotedblleft /quotedblright /bullet
/endash /emdash /asciitilde /trademark /scaron
/guilsinglright /oe /bullet /zcaron /Ydieresis
/space /exclamdown /cent /sterling /currency
/yen /brokenbar /section /dieresis /copyright
/ordfeminine /guillemotleft /logicalnot /sfthyphen /registered
/macron /degree /plusminus /twosuperior /threesuperior
/acute /mu /paragraph /middot /cedilla
/onesuperior /ordmasculine /guillemotright /onequarter /onehalf
/threequarters /questiondown /Agrave /Aacute /Acircumflex
/Atilde /Adieresis /Aring /AE /Ccedilla
/Egrave /Eacute /Ecircumflex /Edieresis /Igrave
/Iacute /Icircumflex /Idieresis /Eth /Ntilde
/Ograve /Oacute /Ocircumflex /Otilde /Odieresis
/multiply /Oslash /Ugrave /Uacute /Ucircumflex
/Udieresis /Yacute /Thorn /germandbls /agrave
/aacute /acircumflex /atilde /adieresis /aring
/ae /ccedilla /egrave /eacute /ecircumflex
/edieresis /igrave /iacute /icircumflex /idieresis
/eth /ntilde /ograve /oacute /ocircumflex
/otilde /odieresis /divide /oslash /ugrave
/uacute /ucircumflex /udieresis /yacute /thorn
/ydieresis
] def
%%EndResource
%FOPBeginFontReencode
/Courier-Bold findfont
dup length dict begin
  {1 index /FID ne {def} {pop pop} ifelse} forall
  /Encoding WinAnsiEncoding def
  currentdict
end
/Courier-Bold exch definefont pop
/Helvetica findfont
dup length dict begin
  {1 index /FID ne {def} {pop pop} ifelse} forall
  /Encoding WinAnsiEncoding def
  currentdict
end
/Helvetica exch definefont pop
/Courier-BoldOblique findfont
dup length dict begin
  {1 index /FID ne {def} {pop pop} ifelse} forall
  /Encoding WinAnsiEncoding def
  currentdict
end
/Courier-BoldOblique exch definefont pop
/Courier-Oblique findfont
dup length dict begin
  {1 index /FID ne {def} {pop pop} ifelse} forall
  /Encoding WinAnsiEncoding def
  currentdict
end
/Courier-Oblique exch definefont pop
/Times-Roman findfont
dup length dict begin
  {1 index /FID ne {def} {pop pop} ifelse} forall
  /Encoding WinAnsiEncoding def
  currentdict
end
/Times-Roman exch definefont pop
/Helvetica-BoldOblique findfont
dup length dict begin
  {1 index /FID ne {def} {pop pop} ifelse} forall
  /Encoding WinAnsiEncoding def
  currentdict
end
/Helvetica-BoldOblique exch definefont pop
/Helvetica-Bold findfont
dup length dict begin
  {1 index /FID ne {def} {pop pop} ifelse} forall
  /Encoding WinAnsiEncoding def
  currentdict
end
/Helvetica-Bold exch definefont pop
/Helvetica-Oblique findfont
dup length dict begin
  {1 index /FID ne {def} {pop pop} ifelse} forall
  /Encoding WinAnsiEncoding def
  currentdict
end
/Helvetica-Oblique exch definefont pop
/Times-BoldItalic findfont
dup length dict begin
  {1 index /FID ne {def} {pop pop} ifelse} forall
  /Encoding WinAnsiEncoding def
  currentdict
end
/Times-BoldItalic exch definefont pop
/Courier findfont
dup length dict begin
  {1 index /FID ne {def} {pop pop} ifelse} forall
  /Encoding WinAnsiEncoding def
  currentdict
end
/Courier exch definefont pop
/Times-Italic findfont
dup length dict begin
  {1 index /FID ne {def} {pop pop} ifelse} forall
  /Encoding WinAnsiEncoding def
  currentdict
end
/Times-Italic exch definefont pop
/Times-Bold findfont
dup length dict begin
  {1 index /FID ne {def} {pop pop} ifelse} forall
  /Encoding WinAnsiEncoding def
  currentdict
end
/Times-Bold exch definefont pop
%FOPEndFontReencode
%%EndProlog
%%Page: 1 1
%%PageBoundingBox: 0 0 1024 497
%%BeginPageSetup
[1 0 0 -1 0 497] CT
%%EndPageSetup
GS
[0.75 0 0 0.75 0 -0.25] CT
0.997 GC
N
0 0 1365 663 re
f
GR
GS
[0.75 0 0 0.75 0 -0.25] CT
0.997 GC
N
0 0 1365 663 re
f
GR
GS
[0.75 0 0 0.75 0 -0.25] CT
0.997 GC
N
177 590 M
1235 590 L
1235 50 L
177 50 L
cp
f
GR
GS
[0.75 0 0 0.75 0 -0.25] CT
0 GC
2 setlinecap
1 LJ
0.667 LW
N
177 590 M
1235 590 L
S
GR
GS
[0.75 0 0 0.75 0 -0.25] CT
0 GC
2 setlinecap
1 LJ
0.667 LW
N
177 50 M
1235 50 L
S
GR
GS
[0.75 0 0 0.75 0 -0.25] CT
0 GC
2 setlinecap
1 LJ
0.667 LW
N
177 590 M
177 579.42 L
S
GR
GS
[0.75 0 0 0.75 0 -0.25] CT
0 GC
2 setlinecap
1 LJ
0.667 LW
N
353.333 590 M
353.333 579.42 L
S
GR
GS
[0.75 0 0 0.75 0 -0.25] CT
0 GC
2 setlinecap
1 LJ
0.667 LW
N
529.667 590 M
529.667 579.42 L
S
GR
GS
[0.75 0 0 0.75 0 -0.25] CT
0 GC
2 setlinecap
1 LJ
0.667 LW
N
706 590 M
706 579.42 L
S
GR
GS
[0.75 0 0 0.75 0 -0.25] CT
0 GC
2 setlinecap
1 LJ
0.667 LW
N
882.333 590 M
882.333 579.42 L
S
GR
GS
[0.75 0 0 0.75 0 -0.25] CT
0 GC
2 setlinecap
1 LJ
0.667 LW
N
1058.667 590 M
1058.667 579.42 L
S
GR
GS
[0.75 0 0 0.75 0 -0.25] CT
0 GC
2 setlinecap
1 LJ
0.667 LW
N
1235 590 M
1235 579.42 L
S
GR
GS
[0.75 0 0 0.75 0 -0.25] CT
0 GC
2 setlinecap
1 LJ
0.667 LW
N
177 50 M
177 60.58 L
S
GR
GS
[0.75 0 0 0.75 0 -0.25] CT
0 GC
2 setlinecap
1 LJ
0.667 LW
N
353.333 50 M
353.333 60.58 L
S
GR
GS
[0.75 0 0 0.75 0 -0.25] CT
0 GC
2 setlinecap
1 LJ
0.667 LW
N
529.667 50 M
529.667 60.58 L
S
GR
GS
[0.75 0 0 0.75 0 -0.25] CT
0 GC
2 setlinecap
1 LJ
0.667 LW
N
706 50 M
706 60.58 L
S
GR
GS
[0.75 0 0 0.75 0 -0.25] CT
0 GC
2 setlinecap
1 LJ
0.667 LW
N
882.333 50 M
882.333 60.58 L
S
GR
GS
[0.75 0 0 0.75 0 -0.25] CT
0 GC
2 setlinecap
1 LJ
0.667 LW
N
1058.667 50 M
1058.667 60.58 L
S
GR
GS
[0.75 0 0 0.75 0 -0.25] CT
0 GC
2 setlinecap
1 LJ
0.667 LW
N
1235 50 M
1235 60.58 L
S
GR
GS
[0.75 0 0 0.75 132.75 446.24998] CT
0 GC
/Helvetica 13.333 F
GS
[1 0 0 1 0 0] CT
-4.5 13 moveto 
1 -1 scale
(0) t 
GR
GR
GS
[0.75 0 0 0.75 265.00001 446.24998] CT
0 GC
/Helvetica 13.333 F
GS
[1 0 0 1 0 0] CT
-12.5 13 moveto 
1 -1 scale
(200) t 
GR
GR
GS
[0.75 0 0 0.75 397.25002 446.24998] CT
0 GC
/Helvetica 13.333 F
GS
[1 0 0 1 0 0] CT
-12.5 13 moveto 
1 -1 scale
(400) t 
GR
GR
GS
[0.75 0 0 0.75 529.5 446.24998] CT
0 GC
/Helvetica 13.333 F
GS
[1 0 0 1 0 0] CT
-12.5 13 moveto 
1 -1 scale
(600) t 
GR
GR
GS
[0.75 0 0 0.75 661.74998 446.24998] CT
0 GC
/Helvetica 13.333 F
GS
[1 0 0 1 0 0] CT
-12.5 13 moveto 
1 -1 scale
(800) t 
GR
GR
GS
[0.75 0 0 0.75 793.99997 446.24998] CT
0 GC
/Helvetica 13.333 F
GS
[1 0 0 1 0 0] CT
-17 13 moveto 
1 -1 scale
(1000) t 
GR
GR
GS
[0.75 0 0 0.75 926.25 446.24998] CT
0 GC
/Helvetica 13.333 F
GS
[1 0 0 1 0 0] CT
-17 13 moveto 
1 -1 scale
(1200) t 
GR
GR
GS
[0.75 0 0 0.75 0 -0.25] CT
0 GC
2 setlinecap
1 LJ
0.667 LW
N
177 590 M
177 50 L
S
GR
GS
[0.75 0 0 0.75 0 -0.25] CT
0 GC
2 setlinecap
1 LJ
0.667 LW
N
1235 590 M
1235 50 L
S
GR
GS
[0.75 0 0 0.75 0 -0.25] CT
0 GC
2 setlinecap
1 LJ
0.667 LW
N
177 590 M
187.58 590 L
S
GR
GS
[0.75 0 0 0.75 0 -0.25] CT
0 GC
2 setlinecap
1 LJ
0.667 LW
N
177 522.5 M
187.58 522.5 L
S
GR
GS
[0.75 0 0 0.75 0 -0.25] CT
0 GC
2 setlinecap
1 LJ
0.667 LW
N
177 455 M
187.58 455 L
S
GR
GS
[0.75 0 0 0.75 0 -0.25] CT
0 GC
2 setlinecap
1 LJ
0.667 LW
N
177 387.5 M
187.58 387.5 L
S
GR
GS
[0.75 0 0 0.75 0 -0.25] CT
0 GC
2 setlinecap
1 LJ
0.667 LW
N
177 320 M
187.58 320 L
S
GR
GS
[0.75 0 0 0.75 0 -0.25] CT
0 GC
2 setlinecap
1 LJ
0.667 LW
N
177 252.5 M
187.58 252.5 L
S
GR
GS
[0.75 0 0 0.75 0 -0.25] CT
0 GC
2 setlinecap
1 LJ
0.667 LW
N
177 185 M
187.58 185 L
S
GR
GS
[0.75 0 0 0.75 0 -0.25] CT
0 GC
2 setlinecap
1 LJ
0.667 LW
N
177 117.5 M
187.58 117.5 L
S
GR
GS
[0.75 0 0 0.75 0 -0.25] CT
0 GC
2 setlinecap
1 LJ
0.667 LW
N
177 50 M
187.58 50 L
S
GR
GS
[0.75 0 0 0.75 0 -0.25] CT
0 GC
2 setlinecap
1 LJ
0.667 LW
N
1235 590 M
1224.42 590 L
S
GR
GS
[0.75 0 0 0.75 0 -0.25] CT
0 GC
2 setlinecap
1 LJ
0.667 LW
N
1235 522.5 M
1224.42 522.5 L
S
GR
GS
[0.75 0 0 0.75 0 -0.25] CT
0 GC
2 setlinecap
1 LJ
0.667 LW
N
1235 455 M
1224.42 455 L
S
GR
GS
[0.75 0 0 0.75 0 -0.25] CT
0 GC
2 setlinecap
1 LJ
0.667 LW
N
1235 387.5 M
1224.42 387.5 L
S
GR
GS
[0.75 0 0 0.75 0 -0.25] CT
0 GC
2 setlinecap
1 LJ
0.667 LW
N
1235 320 M
1224.42 320 L
S
GR
GS
[0.75 0 0 0.75 0 -0.25] CT
0 GC
2 setlinecap
1 LJ
0.667 LW
N
1235 252.5 M
1224.42 252.5 L
S
GR
GS
[0.75 0 0 0.75 0 -0.25] CT
0 GC
2 setlinecap
1 LJ
0.667 LW
N
1235 185 M
1224.42 185 L
S
GR
GS
[0.75 0 0 0.75 0 -0.25] CT
0 GC
2 setlinecap
1 LJ
0.667 LW
N
1235 117.5 M
1224.42 117.5 L
S
GR
GS
[0.75 0 0 0.75 0 -0.25] CT
0 GC
2 setlinecap
1 LJ
0.667 LW
N
1235 50 M
1224.42 50 L
S
GR
GS
[0.75 0 0 0.75 128.75 442.25] CT
0 GC
/Helvetica 13.333 F
GS
[1 0 0 1 0 0] CT
-26 4.5 moveto 
1 -1 scale
(-2.5) t 
GR
GR
GS
[0.75 0 0 0.75 128.75 391.625] CT
0 GC
/Helvetica 13.333 F
GS
[1 0 0 1 0 0] CT
-13 4.5 moveto 
1 -1 scale
(-2) t 
GR
GR
GS
[0.75 0 0 0.75 128.75 341] CT
0 GC
/Helvetica 13.333 F
GS
[1 0 0 1 0 0] CT
-26 4.5 moveto 
1 -1 scale
(-1.5) t 
GR
GR
GS
[0.75 0 0 0.75 128.75 290.375] CT
0 GC
/Helvetica 13.333 F
GS
[1 0 0 1 0 0] CT
-13 4.5 moveto 
1 -1 scale
(-1) t 
GR
GR
GS
[0.75 0 0 0.75 128.75 239.75] CT
0 GC
/Helvetica 13.333 F
GS
[1 0 0 1 0 0] CT
-26 4.5 moveto 
1 -1 scale
(-0.5) t 
GR
GR
GS
[0.75 0 0 0.75 128.75 189.125] CT
0 GC
/Helvetica 13.333 F
GS
[1 0 0 1 0 0] CT
-9 4.5 moveto 
1 -1 scale
(0) t 
GR
GR
GS
[0.75 0 0 0.75 128.75 138.5] CT
0 GC
/Helvetica 13.333 F
GS
[1 0 0 1 0 0] CT
-21 4.5 moveto 
1 -1 scale
(0.5) t 
GR
GR
GS
[0.75 0 0 0.75 128.75 87.875] CT
0 GC
/Helvetica 13.333 F
GS
[1 0 0 1 0 0] CT
-9 4.5 moveto 
1 -1 scale
(1) t 
GR
GR
GS
[0.75 0 0 0.75 128.75 37.25] CT
0 GC
/Helvetica 13.333 F
GS
[1 0 0 1 0 0] CT
-21 4.5 moveto 
1 -1 scale
(1.5) t 
GR
GR
GS
[0.75 0 0 0.75 0 -0.25] CT
0 GC
1 LJ
0.667 LW
N
177.882 237.018 M
178.763 250.432 L
179.645 173.192 L
180.527 186.312 L
181.408 152.128 L
182.29 303.795 L
183.172 424.579 L
184.053 311.295 L
184.935 205.084 L
185.817 144.629 L
186.698 233.509 L
187.58 274.767 L
188.462 309.501 L
189.343 215.212 L
190.225 205.129 L
191.107 241.04 L
191.988 274.587 L
192.87 165.044 L
193.752 337.86 L
194.633 114.208 L
195.515 561.77 L
196.397 298.593 L
197.278 259.655 L
198.16 212.841 L
199.042 272.05 L
199.923 224.833 L
200.805 233.002 L
201.687 311.667 L
202.568 223.931 L
203.45 222.285 L
204.332 462.577 L
205.213 131.103 L
206.095 245.606 L
206.977 262.768 L
207.858 242.751 L
208.74 246.893 L
209.622 270.925 L
210.503 242.92 L
211.385 247.51 L
212.267 254.969 L
213.148 251.107 L
214.03 285.819 L
214.912 220.411 L
215.793 244.236 L
216.675 250.845 L
217.557 261.497 L
218.438 200.136 L
219.32 326.693 L
220.202 247.578 L
221.083 218.969 L
221.965 278.587 L
222.847 234.287 L
223.728 252.048 L
224.61 250.224 L
225.492 266.153 L
226.373 289.107 L
227.255 217.29 L
228.137 246.144 L
229.018 292.496 L
229.9 262.798 L
230.782 271.157 L
231.663 258.025 L
232.545 249.071 L
233.427 253.289 L
234.308 228.975 L
235.19 249.497 L
236.072 280.265 L
236.953 249.454 L
237.835 261.354 L
238.717 245.646 L
239.598 272.157 L
240.48 243.106 L
241.362 247.965 L
242.243 240.356 L
243.125 243.604 L
244.007 242.866 L
244.888 278.137 L
245.77 276.108 L
246.652 276.064 L
247.533 245.172 L
248.415 270.052 L
249.297 250.815 L
250.178 269.126 L
251.06 255.96 L
251.942 287.699 L
252.823 258.392 L
253.705 239.238 L
254.587 266.883 L
255.468 234.44 L
256.35 250.702 L
257.232 252.641 L
258.113 249.354 L
258.995 246.935 L
259.877 295.585 L
260.758 233.293 L
261.64 242.179 L
262.522 266.398 L
263.403 229.239 L
264.285 260.734 L
265.167 241.244 L
266.048 262.418 L
266.93 242.187 L
267.812 259.737 L
268.693 255.459 L
269.575 231.414 L
270.457 234.935 L
271.338 262.611 L
272.22 266.856 L
273.102 243.919 L
273.983 246.765 L
274.865 252.297 L
275.747 258.112 L
276.628 235.867 L
277.51 233.856 L
278.392 269.721 L
279.273 261.038 L
280.155 251.227 L
281.037 254.659 L
281.918 247.523 L
282.8 251.085 L
283.682 260.19 L
284.563 257.802 L
285.445 245.866 L
286.327 250.064 L
287.208 268.63 L
288.09 266.432 L
288.972 276.141 L
289.853 256.143 L
290.735 274.617 L
291.617 253.685 L
292.498 250.547 L
293.38 265.823 L
294.262 245.186 L
295.143 264.115 L
296.025 261.655 L
296.907 258.053 L
297.788 258.835 L
298.67 249.522 L
299.552 254.623 L
300.433 247.241 L
301.315 256.307 L
302.197 250.56 L
303.078 233.323 L
303.96 244.36 L
304.842 256.705 L
305.723 267.626 L
306.605 245.157 L
307.487 261.963 L
308.368 250.913 L
309.25 262.808 L
310.132 231.186 L
311.013 255.011 L
311.895 253.331 L
312.777 259.932 L
313.658 243.492 L
314.54 253.243 L
315.422 243.247 L
316.303 255.899 L
317.185 247.611 L
318.067 256.111 L
318.948 249.256 L
319.83 242.353 L
320.712 256.184 L
321.593 251.991 L
322.475 252.792 L
323.357 253.46 L
324.238 244.918 L
325.12 252.979 L
326.002 257.933 L
326.883 251.089 L
327.765 245.419 L
328.647 253.999 L
329.528 250.959 L
330.41 248.684 L
331.292 250.354 L
332.173 249.52 L
333.055 247.214 L
333.937 258.24 L
334.818 249.175 L
335.7 248.03 L
336.582 257.521 L
337.463 262.027 L
338.345 252.398 L
339.227 254.742 L
340.108 244.115 L
340.99 260.778 L
341.872 247.842 L
342.753 247.067 L
343.635 244.106 L
344.517 248.548 L
345.398 253.967 L
346.28 255.011 L
347.162 251.639 L
348.043 260.312 L
348.925 251.151 L
349.807 247.746 L
350.688 240.952 L
351.57 255.877 L
352.452 248.355 L
353.333 253.924 L
354.215 252.785 L
355.097 252.738 L
355.978 248.271 L
356.86 261.459 L
357.742 253.736 L
358.623 246.82 L
359.505 257.801 L
360.387 260.215 L
361.268 252.387 L
362.15 241.929 L
363.032 243.257 L
363.913 257.994 L
364.795 255.755 L
365.677 262.504 L
366.558 258.015 L
367.44 249.552 L
368.322 269.74 L
369.203 259.792 L
370.085 250.18 L
370.967 237.316 L
371.848 245.884 L
372.73 267.943 L
373.612 261.478 L
374.493 254.589 L
375.375 261.786 L
376.257 250.454 L
377.138 250.401 L
378.02 243.198 L
378.902 248.415 L
379.783 249.812 L
380.665 256.633 L
381.547 253.669 L
382.428 253.484 L
383.31 249.118 L
384.192 248.184 L
385.073 245.907 L
385.955 259.623 L
386.837 245.003 L
387.718 255.863 L
388.6 256.369 L
389.482 255.697 L
390.363 247.055 L
391.245 267.607 L
392.127 249.466 L
393.008 255.696 L
393.89 253.618 L
394.772 253.269 L
395.653 257.036 L
396.535 255.049 L
397.417 257.516 L
398.298 248.508 L
399.18 253.215 L
400.062 241.633 L
400.943 259.61 L
401.825 253.192 L
402.707 253.107 L
403.588 248.145 L
404.47 248.686 L
405.352 251.494 L
406.233 263.999 L
407.115 258.816 L
407.997 258.34 L
408.878 257.058 L
409.76 254.956 L
410.642 250.671 L
411.523 253.737 L
412.405 241.087 L
413.287 252.291 L
414.168 267.962 L
415.05 248.007 L
415.932 248.385 L
416.813 250.873 L
417.695 249.248 L
418.577 244.481 L
419.458 253.158 L
420.34 252.022 L
421.222 258.05 L
422.103 253.176 L
422.985 254.284 L
423.867 251.997 L
424.748 258.501 L
425.63 259.608 L
426.512 254.789 L
427.393 255.643 L
428.275 247.521 L
429.157 249.089 L
430.038 249.387 L
430.92 250.866 L
431.802 251.048 L
432.683 254.124 L
433.565 257.188 L
434.447 253.661 L
435.328 251.453 L
436.21 259.688 L
437.092 260.634 L
437.973 251.481 L
438.855 239.964 L
439.737 261.62 L
440.618 246.036 L
441.5 247.276 L
442.382 259.968 L
443.263 248.52 L
444.145 252.42 L
445.027 253.371 L
445.908 247.352 L
446.79 253.115 L
447.672 254.731 L
448.553 241.824 L
449.435 253.74 L
450.317 250.407 L
451.198 242.03 L
452.08 268.736 L
452.962 256.523 L
453.843 250.576 L
454.725 253.696 L
455.607 254.875 L
456.488 244.417 L
457.37 239.118 L
458.252 257.351 L
459.133 244.905 L
460.015 260.039 L
460.897 254.123 L
461.778 253.433 L
462.66 249.006 L
463.542 255.252 L
464.423 255.652 L
465.305 257.456 L
466.187 253.803 L
467.068 251.223 L
467.95 255.464 L
468.832 257.99 L
469.713 254.187 L
470.595 254.891 L
471.477 248.139 L
472.358 252.789 L
473.24 252.016 L
474.122 265.197 L
475.003 242.361 L
475.885 243.241 L
476.767 250.341 L
477.648 252.05 L
478.53 247.976 L
479.412 255.933 L
480.293 257.391 L
481.175 256.571 L
482.057 256.36 L
482.938 255.359 L
483.82 251.5 L
484.702 257.541 L
485.583 252.888 L
486.465 253.044 L
487.347 247.111 L
488.228 255.505 L
489.11 256.5 L
489.992 253.676 L
490.873 248.635 L
491.755 253.181 L
492.637 244.389 L
493.518 252.582 L
494.4 253.411 L
495.282 253.132 L
496.163 256.123 L
497.045 250.201 L
497.927 253.843 L
498.808 250.622 L
499.69 251.663 L
500.572 258.443 L
501.453 250.43 L
502.335 257.661 L
503.217 255.234 L
504.098 251.76 L
504.98 243.213 L
505.862 253.161 L
506.743 252.709 L
507.625 252.18 L
508.507 266.59 L
509.388 257.193 L
510.27 247.296 L
511.152 249.465 L
512.033 253.678 L
512.915 252.945 L
513.797 252.34 L
514.678 249.573 L
515.56 255.459 L
516.442 256.641 L
517.323 259.508 L
518.205 251.027 L
519.087 245.119 L
519.968 254.684 L
520.85 264.149 L
521.732 251.784 L
522.613 250.008 L
523.495 252.218 L
524.377 247.883 L
525.258 256.642 L
526.14 255.616 L
527.022 247.127 L
527.903 254.731 L
528.785 251.964 L
529.667 256.25 L
530.548 252.781 L
531.43 247.189 L
532.312 253.109 L
533.193 250.624 L
534.075 254.532 L
534.957 253.677 L
535.838 250.44 L
536.72 247.345 L
537.602 257.655 L
538.483 252.069 L
539.365 255.777 L
540.247 249.829 L
541.128 241.298 L
542.01 249.785 L
542.892 255.861 L
543.773 259.398 L
544.655 254.61 L
545.537 252.971 L
546.418 255.525 L
547.3 254.609 L
548.182 253.923 L
549.063 255.114 L
549.945 254.593 L
550.827 247.958 L
551.708 256.159 L
552.59 255.273 L
553.472 261.693 L
554.353 249.96 L
555.235 237.284 L
556.117 256.635 L
556.998 247.498 L
557.88 252.553 L
558.762 252.017 L
559.643 249.167 L
560.525 250.529 L
561.407 256.494 L
562.288 260.459 L
563.17 254.013 L
564.052 247.076 L
564.933 247.187 L
565.815 250.793 L
566.697 252.396 L
567.578 249.746 L
568.46 254.041 L
569.342 254.957 L
570.223 247.569 L
571.105 251.338 L
571.987 258.378 L
572.868 250.651 L
573.75 252.944 L
574.632 254.215 L
575.513 260.132 L
576.395 246.633 L
577.277 252.829 L
578.158 257.745 L
579.04 245.848 L
579.922 247.438 L
580.803 250.235 L
581.685 252.502 L
582.567 258.542 L
583.448 247.694 L
584.33 247.854 L
585.212 252.037 L
586.093 254.429 L
586.975 257.146 L
587.857 254.341 L
588.738 251.795 L
589.62 253.771 L
590.502 253.597 L
591.383 247.959 L
592.265 253.803 L
593.147 253.872 L
594.028 253.164 L
594.91 251.764 L
595.792 254.189 L
596.673 254.728 L
597.555 251.163 L
598.437 250.966 L
599.318 250.861 L
600.2 254.721 L
601.082 243.914 L
601.963 251.032 L
602.845 257.178 L
603.727 248.778 L
604.608 252.557 L
605.49 255.529 L
606.372 251.857 L
607.253 252.393 L
608.135 249.136 L
609.017 259.838 L
609.898 256.11 L
610.78 248.307 L
611.662 250.85 L
612.543 256.495 L
613.425 250.741 L
614.307 247.036 L
615.188 256.396 L
616.07 252.589 L
616.952 260.45 L
617.833 257.41 L
618.715 255.733 L
619.597 254.056 L
620.478 251.689 L
621.36 255.066 L
622.242 255.933 L
623.123 246.051 L
624.005 250.146 L
624.887 253.397 L
625.768 254.686 L
626.65 247.421 L
627.532 251.207 L
628.413 255.524 L
629.295 253.201 L
630.177 252.642 L
631.058 253.631 L
631.94 250.6 L
632.822 249.099 L
633.703 257.513 L
634.585 248.989 L
635.467 253.639 L
636.348 253.557 L
637.23 250.631 L
638.112 251.964 L
638.993 250.216 L
639.875 252.131 L
640.757 251.619 L
641.638 254.617 L
642.52 255.684 L
643.402 256.732 L
644.283 250.228 L
645.165 254.163 L
646.047 255.191 L
646.928 252.112 L
647.81 253.316 L
648.692 253.422 L
649.573 245.815 L
650.455 252.148 L
651.337 259.747 L
652.218 258.912 L
653.1 254.752 L
653.982 249.442 L
654.863 254.619 L
655.745 245.11 L
656.627 253.02 L
657.508 255.833 L
658.39 254.596 L
659.272 250.71 L
660.153 253.337 L
661.035 250.699 L
661.917 250.958 L
662.798 251.452 L
663.68 256.099 L
664.562 252.168 L
665.443 246.359 L
666.325 257.581 L
667.207 253.932 L
668.088 248.093 L
668.97 255.142 L
669.852 254.545 L
670.733 248.005 L
671.615 256.045 L
672.497 254.857 L
673.378 250.542 L
674.26 247.405 L
675.142 253.242 L
676.023 253.65 L
676.905 249.356 L
677.787 253.223 L
678.668 252.622 L
679.55 254.811 L
680.432 247.424 L
681.313 254.039 L
682.195 255.808 L
683.077 251.898 L
683.958 252.231 L
684.84 254.265 L
685.722 251.535 L
686.603 247.545 L
687.485 253.463 L
688.367 253.497 L
689.248 251.045 L
690.13 253.951 L
691.012 254.322 L
691.893 251.753 L
692.775 249.182 L
693.657 254.999 L
694.538 256.094 L
695.42 251.775 L
696.302 250.897 L
697.183 253.248 L
698.065 250.673 L
698.947 251.995 L
699.828 257.837 L
700.71 253.828 L
701.592 247.237 L
702.473 251.672 L
703.355 254.279 L
704.237 254.197 L
705.118 249.746 L
706 254.47 L
706.882 252.527 L
707.763 248.771 L
708.645 248.134 L
709.527 256.729 L
710.408 252.821 L
711.29 253.842 L
712.172 250.963 L
713.053 253.804 L
713.935 257.197 L
714.817 248.875 L
715.698 251.446 L
716.58 255.65 L
717.462 251.765 L
718.343 254.932 L
719.225 253.77 L
720.107 252.611 L
720.988 249.07 L
721.87 255.51 L
722.752 254.698 L
723.633 249.346 L
724.515 252.143 L
725.397 258.253 L
726.278 249.123 L
727.16 248.72 L
728.042 252.067 L
728.923 252.484 L
729.805 248.37 L
730.687 253.013 L
731.568 254.01 L
732.45 249.247 L
733.332 249.962 L
734.213 256.696 L
735.095 252.636 L
735.977 251.205 L
736.858 251.296 L
737.74 255.686 L
738.622 249.687 L
739.503 250.129 L
740.385 252.624 L
741.267 251.803 L
742.148 249.87 L
743.03 251.887 L
743.912 256.296 L
744.793 248.274 L
745.675 249.927 L
746.557 253.801 L
747.438 255.603 L
748.32 248.246 L
749.202 253.988 L
750.083 253.646 L
750.965 251.198 L
751.847 252.319 L
752.728 256.507 L
753.61 255.09 L
754.492 250.618 L
755.373 254.613 L
756.255 252.812 L
757.137 251.82 L
758.018 251.757 L
758.9 254.606 L
759.782 250.156 L
760.663 251.791 L
761.545 254.919 L
762.427 253.207 L
763.308 250.481 L
764.19 252.355 L
765.072 254.941 L
765.953 251.893 L
766.835 251.164 L
767.717 254.312 L
768.598 254.741 L
769.48 250.384 L
770.362 253.107 L
771.243 256.619 L
772.125 252.754 L
773.007 253.511 L
773.888 257.509 L
774.77 253.148 L
775.652 248.966 L
776.533 255.049 L
777.415 254.071 L
778.297 250.597 L
779.178 252.76 L
780.06 254.662 L
780.942 252.856 L
781.823 253.771 L
782.705 255.904 L
783.587 253.743 L
784.468 249.553 L
785.35 252.321 L
786.232 253.188 L
787.113 251.933 L
787.995 251.103 L
788.877 250.79 L
789.758 251.98 L
790.64 251.619 L
791.522 252.701 L
792.403 253.715 L
793.285 251.393 L
794.167 249.241 L
795.048 251.78 L
795.93 253.377 L
796.812 249.617 L
797.693 249.981 L
798.575 254.791 L
799.457 252.265 L
800.338 250.018 L
801.22 254.255 L
802.102 255.167 L
802.983 248.676 L
803.865 253.72 L
804.747 255.886 L
805.628 249.601 L
806.51 252.279 L
807.392 257.25 L
808.273 254.842 L
809.155 249.961 L
810.037 253.565 L
810.918 254.295 L
811.8 251.203 L
812.682 249.354 L
813.563 255.931 L
814.445 253.758 L
815.327 249.676 L
816.208 254.557 L
817.09 253.944 L
817.972 247.933 L
818.853 251.946 L
819.735 256.642 L
820.617 249.57 L
821.498 250.917 L
822.38 254.301 L
823.262 253.803 L
824.143 248.121 L
825.025 252.433 L
825.907 256.54 L
826.788 251.026 L
827.67 250.32 L
828.552 254.461 L
829.433 254.379 L
830.315 249.967 L
831.197 253.807 L
832.078 256.158 L
832.96 250.809 L
833.842 250.361 L
834.723 255.104 L
835.605 254.987 L
836.487 247.628 L
837.368 252.574 L
838.25 255.218 L
839.132 251.156 L
840.013 251.28 L
840.895 255.117 L
841.777 252.739 L
842.658 247.952 L
843.54 255.157 L
844.422 256.062 L
845.303 248.855 L
846.185 250.201 L
847.067 254.67 L
847.948 254.844 L
848.83 250.406 L
849.712 252.988 L
850.593 256.74 L
851.475 250.236 L
852.357 250.759 L
853.238 256.706 L
854.12 257.048 L
855.002 246.734 L
855.883 254.055 L
856.765 257.616 L
857.647 249.64 L
858.528 248.542 L
859.41 253.463 L
860.292 253.953 L
861.173 248.456 L
862.055 251.781 L
862.937 257.762 L
863.818 251.2 L
864.7 250.367 L
865.582 257.218 L
866.463 251.87 L
867.345 249.253 L
868.227 253.872 L
869.108 255.165 L
869.99 249.659 L
870.872 251.104 L
871.753 255.919 L
872.635 250.317 L
873.517 251.097 L
874.398 252.457 L
875.28 253.923 L
876.162 251.223 L
877.043 251.298 L
877.925 255.426 L
878.807 254.089 L
879.688 248.319 L
880.57 251.247 L
881.452 257.422 L
882.333 248.273 L
883.215 250.851 L
884.097 257.407 L
884.978 250.166 L
885.86 250.589 L
886.742 255.658 L
887.623 252.253 L
888.505 248.212 L
889.387 253.982 L
890.268 255.687 L
891.15 248.903 L
892.032 251.936 L
892.913 256.276 L
893.795 252.986 L
894.677 248.705 L
895.558 253.203 L
896.44 255.219 L
897.322 249.473 L
898.203 252.622 L
899.085 254.492 L
899.967 252.268 L
900.848 248.77 L
901.73 253.445 L
902.612 255.773 L
903.493 249.338 L
904.375 251.536 L
905.257 254.836 L
906.138 252.466 L
907.02 248.605 L
907.902 255.051 L
908.783 254.014 L
909.665 251.076 L
910.547 250.405 L
911.428 255.849 L
912.31 253.526 L
913.192 247.991 L
914.073 255.795 L
914.955 254.151 L
915.837 248.936 L
916.718 251.835 L
917.6 256.893 L
918.482 253.354 L
919.363 248.586 L
920.245 254.175 L
921.127 254.793 L
922.008 249.339 L
922.89 251.526 L
923.772 255.632 L
924.653 252.647 L
925.535 250.375 L
926.417 254.097 L
927.298 256.684 L
928.18 248.341 L
929.062 251.986 L
929.943 257.522 L
930.825 249.987 L
931.707 249.238 L
932.588 254.784 L
933.47 256.688 L
934.352 250.68 L
935.233 250.934 L
936.115 254.063 L
936.997 248.563 L
937.878 249.741 L
938.76 255.284 L
939.642 253.177 L
940.523 250.147 L
941.405 250.869 L
942.287 256.181 L
943.168 252.394 L
944.05 249.131 L
944.932 254.955 L
945.813 254.526 L
946.695 247.208 L
947.577 252.121 L
948.458 254.64 L
949.34 252.402 L
950.222 250.085 L
951.103 252.856 L
951.985 254.307 L
952.867 248.96 L
953.748 252.811 L
954.63 255.23 L
955.512 251.37 L
956.393 250.319 L
957.275 254.327 L
958.157 253.33 L
959.038 250.677 L
959.92 252.966 L
960.802 253.366 L
961.683 252.723 L
962.565 249.565 L
963.447 255.496 L
964.328 252.909 L
965.21 250.918 L
966.092 252.861 L
966.973 253.805 L
967.855 252.294 L
968.737 250.177 L
969.618 255.315 L
970.5 252.599 L
971.382 249.308 L
972.263 253.77 L
973.145 255.311 L
974.027 250.101 L
974.908 250.927 L
975.79 254.617 L
976.672 253.126 L
977.553 251.312 L
978.435 252.771 L
979.317 254.266 L
980.198 251.25 L
981.08 251.468 L
981.962 254.758 L
982.843 252.023 L
983.725 250.937 L
984.607 252.874 L
985.488 252.548 L
986.37 253.032 L
987.252 250.959 L
988.133 252.984 L
989.015 254.172 L
989.897 250.774 L
990.778 252.78 L
991.66 253.942 L
992.542 251.889 L
993.423 252.058 L
994.305 252.648 L
995.187 253.145 L
996.068 251.65 L
996.95 251.829 L
997.832 253.337 L
998.713 252.597 L
999.595 251.757 L
1000.477 252.888 L
1001.358 252.724 L
1002.24 252.169 L
1003.122 252.376 L
1004.003 252.574 L
1004.885 252.89 L
1005.767 251.802 L
1006.648 252.452 L
1007.53 253.182 L
1008.412 252.128 L
1009.293 252.397 L
1010.175 252.575 L
1011.057 252.565 L
1011.938 252.416 L
1012.82 252.38 L
1013.702 252.658 L
1014.583 252.486 L
1015.465 252.365 L
1016.347 252.592 L
1017.228 252.584 L
1018.11 252.405 L
1018.992 252.475 L
1019.873 252.52 L
1020.755 252.513 L
1021.637 252.441 L
1022.518 252.487 L
1023.4 252.545 L
1024.282 252.473 L
1025.163 252.491 L
1026.045 252.525 L
1026.927 252.495 L
1027.808 252.496 L
1028.69 252.498 L
1029.572 252.506 L
1030.453 252.495 L
1031.335 252.489 L
1032.217 252.504 L
1033.098 252.506 L
1033.98 252.499 L
1034.862 252.497 L
1035.743 252.501 L
1036.625 252.5 L
1037.507 252.502 L
1038.388 252.501 L
1039.27 252.505 L
1040.152 252.5 L
1041.033 252.504 L
1041.915 252.496 L
1042.797 252.5 L
1043.678 252.498 L
1044.56 252.5 L
1045.442 252.501 L
1046.323 252.501 L
1047.205 252.497 L
1048.087 252.503 L
1048.968 252.502 L
1049.85 252.497 L
1050.732 252.497 L
1051.613 252.496 L
1052.495 252.502 L
1053.377 252.505 L
1054.258 252.499 L
1055.14 252.496 L
1056.022 252.503 L
1056.903 252.496 L
1057.785 252.498 L
1058.667 252.5 L
1059.548 252.498 L
1060.43 252.5 L
1061.312 252.502 L
1062.193 252.5 L
1063.075 252.503 L
1063.957 252.5 L
1064.838 252.501 L
1065.72 252.501 L
1066.602 252.501 L
1067.483 252.503 L
1068.365 252.496 L
1069.247 252.501 L
1070.128 252.503 L
1071.01 252.497 L
1071.892 252.496 L
1072.773 252.5 L
1073.655 252.496 L
1074.537 252.505 L
1075.418 252.497 L
1076.3 252.501 L
1077.182 252.498 L
1078.063 252.501 L
1078.945 252.496 L
1079.827 252.495 L
S
GR
%%Trailer
%%Pages: 1
%%EOF
