%!PS-Adobe-3.0 EPSF-3.0
%%Creator: (MATLAB, The Mathworks, Inc. Version 9.2.0.538062 \(R2017a\). Operating System: Linux)
%%Title: /home/chris/Storage/christina/Desktop/THMMY/????????/Project/authMultimediaAssignment2018/Level_3/quant_levels.eps
%%CreationDate: 2019-02-17T20:03:54
%%Pages: (atend)
%%BoundingBox: 0 0 420 315
%%LanguageLevel: 3
%%EndComments
%%BeginProlog
%%BeginResource: procset (Apache XML Graphics Std ProcSet) 1.2 0
%%Version: 1.2 0
%%Copyright: (Copyright 2001-2003,2010 The Apache Software Foundation. License terms: http://www.apache.org/licenses/LICENSE-2.0)
/bd{bind def}bind def
/ld{load def}bd
/GR/grestore ld
/M/moveto ld
/LJ/setlinejoin ld
/C/curveto ld
/f/fill ld
/LW/setlinewidth ld
/GC/setgray ld
/t/show ld
/N/newpath ld
/CT/concat ld
/cp/closepath ld
/S/stroke ld
/L/lineto ld
/CC/setcmykcolor ld
/A/ashow ld
/GS/gsave ld
/RC/setrgbcolor ld
/RM/rmoveto ld
/ML/setmiterlimit ld
/re {4 2 roll M
1 index 0 rlineto
0 exch rlineto
neg 0 rlineto
cp } bd
/_ctm matrix def
/_tm matrix def
/BT { _ctm currentmatrix pop matrix _tm copy pop 0 0 moveto } bd
/ET { _ctm setmatrix } bd
/iTm { _ctm setmatrix _tm concat } bd
/Tm { _tm astore pop iTm 0 0 moveto } bd
/ux 0.0 def
/uy 0.0 def
/F {
  /Tp exch def
  /Tf exch def
  Tf findfont Tp scalefont setfont
  /cf Tf def  /cs Tp def
} bd
/ULS {currentpoint /uy exch def /ux exch def} bd
/ULE {
  /Tcx currentpoint pop def
  gsave
  newpath
  cf findfont cs scalefont dup
  /FontMatrix get 0 get /Ts exch def /FontInfo get dup
  /UnderlinePosition get Ts mul /To exch def
  /UnderlineThickness get Ts mul /Tt exch def
  ux uy To add moveto  Tcx uy To add lineto
  Tt setlinewidth stroke
  grestore
} bd
/OLE {
  /Tcx currentpoint pop def
  gsave
  newpath
  cf findfont cs scalefont dup
  /FontMatrix get 0 get /Ts exch def /FontInfo get dup
  /UnderlinePosition get Ts mul /To exch def
  /UnderlineThickness get Ts mul /Tt exch def
  ux uy To add cs add moveto Tcx uy To add cs add lineto
  Tt setlinewidth stroke
  grestore
} bd
/SOE {
  /Tcx currentpoint pop def
  gsave
  newpath
  cf findfont cs scalefont dup
  /FontMatrix get 0 get /Ts exch def /FontInfo get dup
  /UnderlinePosition get Ts mul /To exch def
  /UnderlineThickness get Ts mul /Tt exch def
  ux uy To add cs 10 mul 26 idiv add moveto Tcx uy To add cs 10 mul 26 idiv add lineto
  Tt setlinewidth stroke
  grestore
} bd
/QT {
/Y22 exch store
/X22 exch store
/Y21 exch store
/X21 exch store
currentpoint
/Y21 load 2 mul add 3 div exch
/X21 load 2 mul add 3 div exch
/X21 load 2 mul /X22 load add 3 div
/Y21 load 2 mul /Y22 load add 3 div
/X22 load /Y22 load curveto
} bd
/SSPD {
dup length /d exch dict def
{
/v exch def
/k exch def
currentpagedevice k known {
/cpdv currentpagedevice k get def
v cpdv ne {
/upd false def
/nullv v type /nulltype eq def
/nullcpdv cpdv type /nulltype eq def
nullv nullcpdv or
{
/upd true def
} {
/sametype v type cpdv type eq def
sametype {
v type /arraytype eq {
/vlen v length def
/cpdvlen cpdv length def
vlen cpdvlen eq {
0 1 vlen 1 sub {
/i exch def
/obj v i get def
/cpdobj cpdv i get def
obj cpdobj ne {
/upd true def
exit
} if
} for
} {
/upd true def
} ifelse
} {
v type /dicttype eq {
v {
/dv exch def
/dk exch def
/cpddv cpdv dk get def
dv cpddv ne {
/upd true def
exit
} if
} forall
} {
/upd true def
} ifelse
} ifelse
} if
} ifelse
upd true eq {
d k v put
} if
} if
} if
} forall
d length 0 gt {
d setpagedevice
} if
} bd
/RE { % /NewFontName [NewEncodingArray] /FontName RE -
  findfont dup length dict begin
  {
    1 index /FID ne
    {def} {pop pop} ifelse
  } forall
  /Encoding exch def
  /FontName 1 index def
  currentdict definefont pop
  end
} bind def
%%EndResource
%%BeginResource: procset (Apache XML Graphics EPS ProcSet) 1.0 0
%%Version: 1.0 0
%%Copyright: (Copyright 2002-2003 The Apache Software Foundation. License terms: http://www.apache.org/licenses/LICENSE-2.0)
/BeginEPSF { %def
/b4_Inc_state save def         % Save state for cleanup
/dict_count countdictstack def % Count objects on dict stack
/op_count count 1 sub def      % Count objects on operand stack
userdict begin                 % Push userdict on dict stack
/showpage { } def              % Redefine showpage, { } = null proc
0 setgray 0 setlinecap         % Prepare graphics state
1 setlinewidth 0 setlinejoin
10 setmiterlimit [ ] 0 setdash newpath
/languagelevel where           % If level not equal to 1 then
{pop languagelevel             % set strokeadjust and
1 ne                           % overprint to their defaults.
{false setstrokeadjust false setoverprint
} if
} if
} bd
/EndEPSF { %def
count op_count sub {pop} repeat            % Clean up stacks
countdictstack dict_count sub {end} repeat
b4_Inc_state restore
} bd
%%EndResource
%FOPBeginFontDict
%%IncludeResource: font Courier-Bold
%%IncludeResource: font Helvetica
%%IncludeResource: font Courier-BoldOblique
%%IncludeResource: font Courier-Oblique
%%IncludeResource: font Times-Roman
%%IncludeResource: font Helvetica-BoldOblique
%%IncludeResource: font Helvetica-Bold
%%IncludeResource: font Helvetica-Oblique
%%IncludeResource: font Times-BoldItalic
%%IncludeResource: font Courier
%%IncludeResource: font Times-Italic
%%IncludeResource: font Times-Bold
%%IncludeResource: font Symbol
%%IncludeResource: font ZapfDingbats
%FOPEndFontDict
%%BeginResource: encoding WinAnsiEncoding
/WinAnsiEncoding [
/.notdef /.notdef /.notdef /.notdef /.notdef
/.notdef /.notdef /.notdef /.notdef /.notdef
/.notdef /.notdef /.notdef /.notdef /.notdef
/.notdef /.notdef /.notdef /.notdef /.notdef
/.notdef /.notdef /.notdef /.notdef /.notdef
/.notdef /.notdef /.notdef /.notdef /.notdef
/.notdef /.notdef /space /exclam /quotedbl
/numbersign /dollar /percent /ampersand /quotesingle
/parenleft /parenright /asterisk /plus /comma
/hyphen /period /slash /zero /one
/two /three /four /five /six
/seven /eight /nine /colon /semicolon
/less /equal /greater /question /at
/A /B /C /D /E
/F /G /H /I /J
/K /L /M /N /O
/P /Q /R /S /T
/U /V /W /X /Y
/Z /bracketleft /backslash /bracketright /asciicircum
/underscore /quoteleft /a /b /c
/d /e /f /g /h
/i /j /k /l /m
/n /o /p /q /r
/s /t /u /v /w
/x /y /z /braceleft /bar
/braceright /asciitilde /bullet /Euro /bullet
/quotesinglbase /florin /quotedblbase /ellipsis /dagger
/daggerdbl /circumflex /perthousand /Scaron /guilsinglleft
/OE /bullet /Zcaron /bullet /bullet
/quoteleft /quoteright /quotedblleft /quotedblright /bullet
/endash /emdash /asciitilde /trademark /scaron
/guilsinglright /oe /bullet /zcaron /Ydieresis
/space /exclamdown /cent /sterling /currency
/yen /brokenbar /section /dieresis /copyright
/ordfeminine /guillemotleft /logicalnot /sfthyphen /registered
/macron /degree /plusminus /twosuperior /threesuperior
/acute /mu /paragraph /middot /cedilla
/onesuperior /ordmasculine /guillemotright /onequarter /onehalf
/threequarters /questiondown /Agrave /Aacute /Acircumflex
/Atilde /Adieresis /Aring /AE /Ccedilla
/Egrave /Eacute /Ecircumflex /Edieresis /Igrave
/Iacute /Icircumflex /Idieresis /Eth /Ntilde
/Ograve /Oacute /Ocircumflex /Otilde /Odieresis
/multiply /Oslash /Ugrave /Uacute /Ucircumflex
/Udieresis /Yacute /Thorn /germandbls /agrave
/aacute /acircumflex /atilde /adieresis /aring
/ae /ccedilla /egrave /eacute /ecircumflex
/edieresis /igrave /iacute /icircumflex /idieresis
/eth /ntilde /ograve /oacute /ocircumflex
/otilde /odieresis /divide /oslash /ugrave
/uacute /ucircumflex /udieresis /yacute /thorn
/ydieresis
] def
%%EndResource
%FOPBeginFontReencode
/Courier-Bold findfont
dup length dict begin
  {1 index /FID ne {def} {pop pop} ifelse} forall
  /Encoding WinAnsiEncoding def
  currentdict
end
/Courier-Bold exch definefont pop
/Helvetica findfont
dup length dict begin
  {1 index /FID ne {def} {pop pop} ifelse} forall
  /Encoding WinAnsiEncoding def
  currentdict
end
/Helvetica exch definefont pop
/Courier-BoldOblique findfont
dup length dict begin
  {1 index /FID ne {def} {pop pop} ifelse} forall
  /Encoding WinAnsiEncoding def
  currentdict
end
/Courier-BoldOblique exch definefont pop
/Courier-Oblique findfont
dup length dict begin
  {1 index /FID ne {def} {pop pop} ifelse} forall
  /Encoding WinAnsiEncoding def
  currentdict
end
/Courier-Oblique exch definefont pop
/Times-Roman findfont
dup length dict begin
  {1 index /FID ne {def} {pop pop} ifelse} forall
  /Encoding WinAnsiEncoding def
  currentdict
end
/Times-Roman exch definefont pop
/Helvetica-BoldOblique findfont
dup length dict begin
  {1 index /FID ne {def} {pop pop} ifelse} forall
  /Encoding WinAnsiEncoding def
  currentdict
end
/Helvetica-BoldOblique exch definefont pop
/Helvetica-Bold findfont
dup length dict begin
  {1 index /FID ne {def} {pop pop} ifelse} forall
  /Encoding WinAnsiEncoding def
  currentdict
end
/Helvetica-Bold exch definefont pop
/Helvetica-Oblique findfont
dup length dict begin
  {1 index /FID ne {def} {pop pop} ifelse} forall
  /Encoding WinAnsiEncoding def
  currentdict
end
/Helvetica-Oblique exch definefont pop
/Times-BoldItalic findfont
dup length dict begin
  {1 index /FID ne {def} {pop pop} ifelse} forall
  /Encoding WinAnsiEncoding def
  currentdict
end
/Times-BoldItalic exch definefont pop
/Courier findfont
dup length dict begin
  {1 index /FID ne {def} {pop pop} ifelse} forall
  /Encoding WinAnsiEncoding def
  currentdict
end
/Courier exch definefont pop
/Times-Italic findfont
dup length dict begin
  {1 index /FID ne {def} {pop pop} ifelse} forall
  /Encoding WinAnsiEncoding def
  currentdict
end
/Times-Italic exch definefont pop
/Times-Bold findfont
dup length dict begin
  {1 index /FID ne {def} {pop pop} ifelse} forall
  /Encoding WinAnsiEncoding def
  currentdict
end
/Times-Bold exch definefont pop
%FOPEndFontReencode
%%EndProlog
%%Page: 1 1
%%PageBoundingBox: 0 0 420 315
%%BeginPageSetup
[1 0 0 -1 0 315] CT
%%EndPageSetup
GS
[0.75 0 0 0.75 0 0] CT
1 GC
N
0 0 560 420 re
f
GR
GS
[0.75 0 0 0.75 0 0] CT
1 GC
N
0 0 560 420 re
f
GR
GS
[0.75 0 0 0.75 0 0] CT
1 GC
N
73 374 M
507 374 L
507 31 L
73 31 L
cp
f
GR
GS
[0.75 0 0 0.75 0 0] CT
0.149 GC
1 LJ
0.667 LW
N
73 288.25 M
507 288.25 L
S
GR
GS
[0.75 0 0 0.75 0 0] CT
0.239 0.149 0.659 RC
N
76.72 288.25 M
81.68 288.25 L
81.68 360.962 L
76.72 360.962 L
cp
f
GR
GS
[0.75 0 0 0.75 0 0] CT
0.239 0.149 0.659 RC
N
82.92 288.25 M
87.88 288.25 L
87.88 253.95 L
82.92 253.95 L
cp
f
GR
GS
[0.75 0 0 0.75 0 0] CT
0.239 0.149 0.659 RC
N
89.12 288.25 M
94.08 288.25 L
94.08 266.813 L
89.12 266.813 L
cp
f
GR
GS
[0.75 0 0 0.75 0 0] CT
0.239 0.149 0.659 RC
N
95.32 288.25 M
100.28 288.25 L
100.28 292.538 L
95.32 292.538 L
cp
f
GR
GS
[0.75 0 0 0.75 0 0] CT
0.239 0.149 0.659 RC
N
101.52 288.25 M
106.48 288.25 L
106.48 309.688 L
101.52 309.688 L
cp
f
GR
GS
[0.75 0 0 0.75 0 0] CT
0.239 0.149 0.659 RC
N
107.72 288.25 M
112.68 288.25 L
112.68 266.813 L
107.72 266.813 L
cp
f
GR
GS
[0.75 0 0 0.75 0 0] CT
0.239 0.149 0.659 RC
N
113.92 288.25 M
118.88 288.25 L
118.88 292.538 L
113.92 292.538 L
cp
f
GR
GS
[0.75 0 0 0.75 0 0] CT
0.239 0.149 0.659 RC
N
120.12 288.25 M
125.08 288.25 L
125.08 301.112 L
120.12 301.112 L
cp
f
GR
GS
[0.75 0 0 0.75 0 0] CT
0.239 0.149 0.659 RC
N
126.32 288.25 M
131.28 288.25 L
131.28 279.675 L
126.32 279.675 L
cp
f
GR
GS
[0.75 0 0 0.75 0 0] CT
0.239 0.149 0.659 RC
N
132.52 288.25 M
137.48 288.25 L
137.48 279.675 L
132.52 279.675 L
cp
f
GR
GS
[0.75 0 0 0.75 0 0] CT
0.239 0.149 0.659 RC
N
138.72 288.25 M
143.68 288.25 L
143.68 322.55 L
138.72 322.55 L
cp
f
GR
GS
[0.75 0 0 0.75 0 0] CT
0.239 0.149 0.659 RC
N
144.92 288.25 M
149.88 288.25 L
149.88 258.237 L
144.92 258.237 L
cp
f
GR
GS
[0.75 0 0 0.75 0 0] CT
0.239 0.149 0.659 RC
N
151.12 288.25 M
156.08 288.25 L
156.08 322.55 L
151.12 322.55 L
cp
f
GR
GS
[0.75 0 0 0.75 0 0] CT
0.239 0.149 0.659 RC
N
157.32 288.25 M
162.28 288.25 L
162.28 275.388 L
157.32 275.388 L
cp
f
GR
GS
[0.75 0 0 0.75 0 0] CT
0.239 0.149 0.659 RC
N
163.52 288.25 M
168.48 288.25 L
168.48 296.825 L
163.52 296.825 L
cp
f
GR
GS
[0.75 0 0 0.75 0 0] CT
0.239 0.149 0.659 RC
N
169.72 288.25 M
174.68 288.25 L
174.68 275.388 L
169.72 275.388 L
cp
f
GR
GS
[0.75 0 0 0.75 0 0] CT
0.239 0.149 0.659 RC
N
175.92 288.25 M
180.88 288.25 L
180.88 309.688 L
175.92 309.688 L
cp
f
GR
GS
[0.75 0 0 0.75 0 0] CT
0.239 0.149 0.659 RC
N
182.12 288.25 M
187.08 288.25 L
187.08 292.538 L
182.12 292.538 L
cp
f
GR
GS
[0.75 0 0 0.75 0 0] CT
0.239 0.149 0.659 RC
N
188.32 288.25 M
193.28 288.25 L
193.28 279.675 L
188.32 279.675 L
cp
f
GR
GS
[0.75 0 0 0.75 0 0] CT
0.239 0.149 0.659 RC
N
194.52 288.25 M
199.48 288.25 L
199.48 305.4 L
194.52 305.4 L
cp
f
GR
GS
[0.75 0 0 0.75 0 0] CT
0.239 0.149 0.659 RC
N
200.72 288.25 M
205.68 288.25 L
205.68 275.388 L
200.72 275.388 L
cp
f
GR
GS
[0.75 0 0 0.75 0 0] CT
0.239 0.149 0.659 RC
N
206.92 288.25 M
211.88 288.25 L
211.88 283.962 L
206.92 283.962 L
cp
f
GR
GS
[0.75 0 0 0.75 0 0] CT
0.239 0.149 0.659 RC
N
213.12 288.25 M
218.08 288.25 L
218.08 348.275 L
213.12 348.275 L
cp
f
GR
GS
[0.75 0 0 0.75 0 0] CT
0.239 0.149 0.659 RC
N
219.32 288.25 M
224.28 288.25 L
224.28 223.938 L
219.32 223.938 L
cp
f
GR
GS
[0.75 0 0 0.75 0 0] CT
0.239 0.149 0.659 RC
N
225.52 288.25 M
230.48 288.25 L
230.48 296.825 L
225.52 296.825 L
cp
f
GR
GS
[0.75 0 0 0.75 0 0] CT
0.239 0.149 0.659 RC
N
231.72 288.25 M
236.68 288.25 L
236.68 275.388 L
231.72 275.388 L
cp
f
GR
GS
[0.75 0 0 0.75 0 0] CT
0.239 0.149 0.659 RC
N
237.92 288.25 M
242.88 288.25 L
242.88 309.688 L
237.92 309.688 L
cp
f
GR
GS
[0.75 0 0 0.75 0 0] CT
0.239 0.149 0.659 RC
N
244.12 288.25 M
249.08 288.25 L
249.08 305.4 L
244.12 305.4 L
cp
f
GR
GS
[0.75 0 0 0.75 0 0] CT
0.239 0.149 0.659 RC
N
250.32 288.25 M
255.28 288.25 L
255.28 279.675 L
250.32 279.675 L
cp
f
GR
GS
[0.75 0 0 0.75 0 0] CT
0.239 0.149 0.659 RC
N
256.52 288.25 M
261.48 288.25 L
261.48 275.388 L
256.52 275.388 L
cp
f
GR
GS
[0.75 0 0 0.75 0 0] CT
0.239 0.149 0.659 RC
N
262.72 288.25 M
267.68 288.25 L
267.68 283.962 L
262.72 283.962 L
cp
f
GR
GS
[0.75 0 0 0.75 0 0] CT
0.239 0.149 0.659 RC
N
268.92 288.25 M
273.88 288.25 L
273.88 292.538 L
268.92 292.538 L
cp
f
GR
GS
[0.75 0 0 0.75 0 0] CT
0.239 0.149 0.659 RC
N
275.12 288.25 M
280.08 288.25 L
280.08 292.538 L
275.12 292.538 L
cp
f
GR
GS
[0.75 0 0 0.75 0 0] CT
0.239 0.149 0.659 RC
N
281.32 288.25 M
286.28 288.25 L
286.28 279.675 L
281.32 279.675 L
cp
f
GR
GS
[0.75 0 0 0.75 0 0] CT
0.239 0.149 0.659 RC
N
287.52 288.25 M
292.48 288.25 L
292.48 318.263 L
287.52 318.263 L
cp
f
GR
GS
[0.75 0 0 0.75 0 0] CT
0.239 0.149 0.659 RC
N
293.72 288.25 M
298.68 288.25 L
298.68 283.962 L
293.72 283.962 L
cp
f
GR
GS
[0.75 0 0 0.75 0 0] CT
0.239 0.149 0.659 RC
N
299.92 288.25 M
304.88 288.25 L
304.88 283.962 L
299.92 283.962 L
cp
f
GR
GS
[0.75 0 0 0.75 0 0] CT
0.239 0.149 0.659 RC
N
306.12 288.25 M
311.08 288.25 L
311.08 283.962 L
306.12 283.962 L
cp
f
GR
GS
[0.75 0 0 0.75 0 0] CT
0.239 0.149 0.659 RC
N
312.32 288.25 M
317.28 288.25 L
317.28 288.25 L
312.32 288.25 L
cp
f
GR
GS
[0.75 0 0 0.75 0 0] CT
0.239 0.149 0.659 RC
N
318.52 288.25 M
323.48 288.25 L
323.48 292.538 L
318.52 292.538 L
cp
f
GR
GS
[0.75 0 0 0.75 0 0] CT
0.239 0.149 0.659 RC
N
324.72 288.25 M
329.68 288.25 L
329.68 292.538 L
324.72 292.538 L
cp
f
GR
GS
[0.75 0 0 0.75 0 0] CT
0.239 0.149 0.659 RC
N
330.92 288.25 M
335.88 288.25 L
335.88 288.25 L
330.92 288.25 L
cp
f
GR
GS
[0.75 0 0 0.75 0 0] CT
0.239 0.149 0.659 RC
N
337.12 288.25 M
342.08 288.25 L
342.08 288.25 L
337.12 288.25 L
cp
f
GR
GS
[0.75 0 0 0.75 0 0] CT
0.239 0.149 0.659 RC
N
343.32 288.25 M
348.28 288.25 L
348.28 292.538 L
343.32 292.538 L
cp
f
GR
GS
[0.75 0 0 0.75 0 0] CT
0.239 0.149 0.659 RC
N
349.52 288.25 M
354.48 288.25 L
354.48 305.4 L
349.52 305.4 L
cp
f
GR
GS
[0.75 0 0 0.75 0 0] CT
0.239 0.149 0.659 RC
N
355.72 288.25 M
360.68 288.25 L
360.68 275.388 L
355.72 275.388 L
cp
f
GR
GS
[0.75 0 0 0.75 0 0] CT
0.239 0.149 0.659 RC
N
361.92 288.25 M
366.88 288.25 L
366.88 283.962 L
361.92 283.962 L
cp
f
GR
GS
[0.75 0 0 0.75 0 0] CT
0.239 0.149 0.659 RC
N
368.12 288.25 M
373.08 288.25 L
373.08 288.25 L
368.12 288.25 L
cp
f
GR
GS
[0.75 0 0 0.75 0 0] CT
0.239 0.149 0.659 RC
N
374.32 288.25 M
379.28 288.25 L
379.28 279.675 L
374.32 279.675 L
cp
f
GR
GS
[0.75 0 0 0.75 0 0] CT
0.239 0.149 0.659 RC
N
380.52 288.25 M
385.48 288.25 L
385.48 292.538 L
380.52 292.538 L
cp
f
GR
GS
[0.75 0 0 0.75 0 0] CT
0.239 0.149 0.659 RC
N
386.72 288.25 M
391.68 288.25 L
391.68 283.962 L
386.72 283.962 L
cp
f
GR
GS
[0.75 0 0 0.75 0 0] CT
0.239 0.149 0.659 RC
N
392.92 288.25 M
397.88 288.25 L
397.88 296.825 L
392.92 296.825 L
cp
f
GR
GS
[0.75 0 0 0.75 0 0] CT
0.239 0.149 0.659 RC
N
399.12 288.25 M
404.08 288.25 L
404.08 288.25 L
399.12 288.25 L
cp
f
GR
GS
[0.75 0 0 0.75 0 0] CT
0.239 0.149 0.659 RC
N
405.32 288.25 M
410.28 288.25 L
410.28 292.538 L
405.32 292.538 L
cp
f
GR
GS
[0.75 0 0 0.75 0 0] CT
0.239 0.149 0.659 RC
N
411.52 288.25 M
416.48 288.25 L
416.48 292.538 L
411.52 292.538 L
cp
f
GR
GS
[0.75 0 0 0.75 0 0] CT
0.239 0.149 0.659 RC
N
417.72 288.25 M
422.68 288.25 L
422.68 288.25 L
417.72 288.25 L
cp
f
GR
GS
[0.75 0 0 0.75 0 0] CT
0.239 0.149 0.659 RC
N
423.92 288.25 M
428.88 288.25 L
428.88 283.962 L
423.92 283.962 L
cp
f
GR
GS
[0.75 0 0 0.75 0 0] CT
0.239 0.149 0.659 RC
N
430.12 288.25 M
435.08 288.25 L
435.08 288.25 L
430.12 288.25 L
cp
f
GR
GS
[0.75 0 0 0.75 0 0] CT
0.239 0.149 0.659 RC
N
436.32 288.25 M
441.28 288.25 L
441.28 288.25 L
436.32 288.25 L
cp
f
GR
GS
[0.75 0 0 0.75 0 0] CT
0.239 0.149 0.659 RC
N
442.52 288.25 M
447.48 288.25 L
447.48 296.825 L
442.52 296.825 L
cp
f
GR
GS
[0.75 0 0 0.75 0 0] CT
0.239 0.149 0.659 RC
N
448.72 288.25 M
453.68 288.25 L
453.68 292.538 L
448.72 292.538 L
cp
f
GR
GS
[0.75 0 0 0.75 0 0] CT
0.239 0.149 0.659 RC
N
454.92 288.25 M
459.88 288.25 L
459.88 288.25 L
454.92 288.25 L
cp
f
GR
GS
[0.75 0 0 0.75 0 0] CT
0.239 0.149 0.659 RC
N
461.12 288.25 M
466.08 288.25 L
466.08 292.538 L
461.12 292.538 L
cp
f
GR
GS
[0.75 0 0 0.75 0 0] CT
0.239 0.149 0.659 RC
N
467.32 288.25 M
472.28 288.25 L
472.28 301.112 L
467.32 301.112 L
cp
f
GR
GS
[0.75 0 0 0.75 0 0] CT
0.239 0.149 0.659 RC
N
473.52 288.25 M
478.48 288.25 L
478.48 292.538 L
473.52 292.538 L
cp
f
GR
GS
[0.75 0 0 0.75 0 0] CT
0.239 0.149 0.659 RC
N
479.72 288.25 M
484.68 288.25 L
484.68 288.25 L
479.72 288.25 L
cp
f
GR
GS
[0.75 0 0 0.75 0 0] CT
0.239 0.149 0.659 RC
N
485.92 288.25 M
490.88 288.25 L
490.88 292.538 L
485.92 292.538 L
cp
f
GR
GS
[0.75 0 0 0.75 0 0] CT
0.239 0.149 0.659 RC
N
492.12 288.25 M
497.08 288.25 L
497.08 288.25 L
492.12 288.25 L
cp
f
GR
GS
[0.75 0 0 0.75 0 0] CT
0.239 0.149 0.659 RC
N
498.32 288.25 M
503.28 288.25 L
503.28 35.287 L
498.32 35.287 L
cp
f
GR
GS
[0.75 0 0 0.75 0 0] CT
10.0 ML
0.667 LW
N
76.72 288.25 M
76.72 360.962 L
81.68 360.962 L
81.68 288.25 L
cp
S
GR
GS
[0.75 0 0 0.75 0 0] CT
10.0 ML
0.667 LW
N
82.92 288.25 M
82.92 253.95 L
87.88 253.95 L
87.88 288.25 L
cp
S
GR
GS
[0.75 0 0 0.75 0 0] CT
10.0 ML
0.667 LW
N
89.12 288.25 M
89.12 266.813 L
94.08 266.813 L
94.08 288.25 L
cp
S
GR
GS
[0.75 0 0 0.75 0 0] CT
10.0 ML
0.667 LW
N
95.32 288.25 M
95.32 292.538 L
100.28 292.538 L
100.28 288.25 L
cp
S
GR
GS
[0.75 0 0 0.75 0 0] CT
10.0 ML
0.667 LW
N
101.52 288.25 M
101.52 309.688 L
106.48 309.688 L
106.48 288.25 L
cp
S
GR
GS
[0.75 0 0 0.75 0 0] CT
10.0 ML
0.667 LW
N
107.72 288.25 M
107.72 266.813 L
112.68 266.813 L
112.68 288.25 L
cp
S
GR
GS
[0.75 0 0 0.75 0 0] CT
10.0 ML
0.667 LW
N
113.92 288.25 M
113.92 292.538 L
118.88 292.538 L
118.88 288.25 L
cp
S
GR
GS
[0.75 0 0 0.75 0 0] CT
10.0 ML
0.667 LW
N
120.12 288.25 M
120.12 301.112 L
125.08 301.112 L
125.08 288.25 L
cp
S
GR
GS
[0.75 0 0 0.75 0 0] CT
10.0 ML
0.667 LW
N
126.32 288.25 M
126.32 279.675 L
131.28 279.675 L
131.28 288.25 L
cp
S
GR
GS
[0.75 0 0 0.75 0 0] CT
10.0 ML
0.667 LW
N
132.52 288.25 M
132.52 279.675 L
137.48 279.675 L
137.48 288.25 L
cp
S
GR
GS
[0.75 0 0 0.75 0 0] CT
10.0 ML
0.667 LW
N
138.72 288.25 M
138.72 322.55 L
143.68 322.55 L
143.68 288.25 L
cp
S
GR
GS
[0.75 0 0 0.75 0 0] CT
10.0 ML
0.667 LW
N
144.92 288.25 M
144.92 258.237 L
149.88 258.237 L
149.88 288.25 L
cp
S
GR
GS
[0.75 0 0 0.75 0 0] CT
10.0 ML
0.667 LW
N
151.12 288.25 M
151.12 322.55 L
156.08 322.55 L
156.08 288.25 L
cp
S
GR
GS
[0.75 0 0 0.75 0 0] CT
10.0 ML
0.667 LW
N
157.32 288.25 M
157.32 275.388 L
162.28 275.388 L
162.28 288.25 L
cp
S
GR
GS
[0.75 0 0 0.75 0 0] CT
10.0 ML
0.667 LW
N
163.52 288.25 M
163.52 296.825 L
168.48 296.825 L
168.48 288.25 L
cp
S
GR
GS
[0.75 0 0 0.75 0 0] CT
10.0 ML
0.667 LW
N
169.72 288.25 M
169.72 275.388 L
174.68 275.388 L
174.68 288.25 L
cp
S
GR
GS
[0.75 0 0 0.75 0 0] CT
10.0 ML
0.667 LW
N
175.92 288.25 M
175.92 309.688 L
180.88 309.688 L
180.88 288.25 L
cp
S
GR
GS
[0.75 0 0 0.75 0 0] CT
10.0 ML
0.667 LW
N
182.12 288.25 M
182.12 292.538 L
187.08 292.538 L
187.08 288.25 L
cp
S
GR
GS
[0.75 0 0 0.75 0 0] CT
10.0 ML
0.667 LW
N
188.32 288.25 M
188.32 279.675 L
193.28 279.675 L
193.28 288.25 L
cp
S
GR
GS
[0.75 0 0 0.75 0 0] CT
10.0 ML
0.667 LW
N
194.52 288.25 M
194.52 305.4 L
199.48 305.4 L
199.48 288.25 L
cp
S
GR
GS
[0.75 0 0 0.75 0 0] CT
10.0 ML
0.667 LW
N
200.72 288.25 M
200.72 275.388 L
205.68 275.388 L
205.68 288.25 L
cp
S
GR
GS
[0.75 0 0 0.75 0 0] CT
10.0 ML
0.667 LW
N
206.92 288.25 M
206.92 283.962 L
211.88 283.962 L
211.88 288.25 L
cp
S
GR
GS
[0.75 0 0 0.75 0 0] CT
10.0 ML
0.667 LW
N
213.12 288.25 M
213.12 348.275 L
218.08 348.275 L
218.08 288.25 L
cp
S
GR
GS
[0.75 0 0 0.75 0 0] CT
10.0 ML
0.667 LW
N
219.32 288.25 M
219.32 223.938 L
224.28 223.938 L
224.28 288.25 L
cp
S
GR
GS
[0.75 0 0 0.75 0 0] CT
10.0 ML
0.667 LW
N
225.52 288.25 M
225.52 296.825 L
230.48 296.825 L
230.48 288.25 L
cp
S
GR
GS
[0.75 0 0 0.75 0 0] CT
10.0 ML
0.667 LW
N
231.72 288.25 M
231.72 275.388 L
236.68 275.388 L
236.68 288.25 L
cp
S
GR
GS
[0.75 0 0 0.75 0 0] CT
10.0 ML
0.667 LW
N
237.92 288.25 M
237.92 309.688 L
242.88 309.688 L
242.88 288.25 L
cp
S
GR
GS
[0.75 0 0 0.75 0 0] CT
10.0 ML
0.667 LW
N
244.12 288.25 M
244.12 305.4 L
249.08 305.4 L
249.08 288.25 L
cp
S
GR
GS
[0.75 0 0 0.75 0 0] CT
10.0 ML
0.667 LW
N
250.32 288.25 M
250.32 279.675 L
255.28 279.675 L
255.28 288.25 L
cp
S
GR
GS
[0.75 0 0 0.75 0 0] CT
10.0 ML
0.667 LW
N
256.52 288.25 M
256.52 275.388 L
261.48 275.388 L
261.48 288.25 L
cp
S
GR
GS
[0.75 0 0 0.75 0 0] CT
10.0 ML
0.667 LW
N
262.72 288.25 M
262.72 283.962 L
267.68 283.962 L
267.68 288.25 L
cp
S
GR
GS
[0.75 0 0 0.75 0 0] CT
10.0 ML
0.667 LW
N
268.92 288.25 M
268.92 292.538 L
273.88 292.538 L
273.88 288.25 L
cp
S
GR
GS
[0.75 0 0 0.75 0 0] CT
10.0 ML
0.667 LW
N
275.12 288.25 M
275.12 292.538 L
280.08 292.538 L
280.08 288.25 L
cp
S
GR
GS
[0.75 0 0 0.75 0 0] CT
10.0 ML
0.667 LW
N
281.32 288.25 M
281.32 279.675 L
286.28 279.675 L
286.28 288.25 L
cp
S
GR
GS
[0.75 0 0 0.75 0 0] CT
10.0 ML
0.667 LW
N
287.52 288.25 M
287.52 318.263 L
292.48 318.263 L
292.48 288.25 L
cp
S
GR
GS
[0.75 0 0 0.75 0 0] CT
10.0 ML
0.667 LW
N
293.72 288.25 M
293.72 283.962 L
298.68 283.962 L
298.68 288.25 L
cp
S
GR
GS
[0.75 0 0 0.75 0 0] CT
10.0 ML
0.667 LW
N
299.92 288.25 M
299.92 283.962 L
304.88 283.962 L
304.88 288.25 L
cp
S
GR
GS
[0.75 0 0 0.75 0 0] CT
10.0 ML
0.667 LW
N
306.12 288.25 M
306.12 283.962 L
311.08 283.962 L
311.08 288.25 L
cp
S
GR
GS
[0.75 0 0 0.75 0 0] CT
10.0 ML
0.667 LW
N
312.32 288.25 M
312.32 288.25 L
317.28 288.25 L
317.28 288.25 L
cp
S
GR
GS
[0.75 0 0 0.75 0 0] CT
10.0 ML
0.667 LW
N
318.52 288.25 M
318.52 292.538 L
323.48 292.538 L
323.48 288.25 L
cp
S
GR
GS
[0.75 0 0 0.75 0 0] CT
10.0 ML
0.667 LW
N
324.72 288.25 M
324.72 292.538 L
329.68 292.538 L
329.68 288.25 L
cp
S
GR
GS
[0.75 0 0 0.75 0 0] CT
10.0 ML
0.667 LW
N
330.92 288.25 M
330.92 288.25 L
335.88 288.25 L
335.88 288.25 L
cp
S
GR
GS
[0.75 0 0 0.75 0 0] CT
10.0 ML
0.667 LW
N
337.12 288.25 M
337.12 288.25 L
342.08 288.25 L
342.08 288.25 L
cp
S
GR
GS
[0.75 0 0 0.75 0 0] CT
10.0 ML
0.667 LW
N
343.32 288.25 M
343.32 292.538 L
348.28 292.538 L
348.28 288.25 L
cp
S
GR
GS
[0.75 0 0 0.75 0 0] CT
10.0 ML
0.667 LW
N
349.52 288.25 M
349.52 305.4 L
354.48 305.4 L
354.48 288.25 L
cp
S
GR
GS
[0.75 0 0 0.75 0 0] CT
10.0 ML
0.667 LW
N
355.72 288.25 M
355.72 275.388 L
360.68 275.388 L
360.68 288.25 L
cp
S
GR
GS
[0.75 0 0 0.75 0 0] CT
10.0 ML
0.667 LW
N
361.92 288.25 M
361.92 283.962 L
366.88 283.962 L
366.88 288.25 L
cp
S
GR
GS
[0.75 0 0 0.75 0 0] CT
10.0 ML
0.667 LW
N
368.12 288.25 M
368.12 288.25 L
373.08 288.25 L
373.08 288.25 L
cp
S
GR
GS
[0.75 0 0 0.75 0 0] CT
10.0 ML
0.667 LW
N
374.32 288.25 M
374.32 279.675 L
379.28 279.675 L
379.28 288.25 L
cp
S
GR
GS
[0.75 0 0 0.75 0 0] CT
10.0 ML
0.667 LW
N
380.52 288.25 M
380.52 292.538 L
385.48 292.538 L
385.48 288.25 L
cp
S
GR
GS
[0.75 0 0 0.75 0 0] CT
10.0 ML
0.667 LW
N
386.72 288.25 M
386.72 283.962 L
391.68 283.962 L
391.68 288.25 L
cp
S
GR
GS
[0.75 0 0 0.75 0 0] CT
10.0 ML
0.667 LW
N
392.92 288.25 M
392.92 296.825 L
397.88 296.825 L
397.88 288.25 L
cp
S
GR
GS
[0.75 0 0 0.75 0 0] CT
10.0 ML
0.667 LW
N
399.12 288.25 M
399.12 288.25 L
404.08 288.25 L
404.08 288.25 L
cp
S
GR
GS
[0.75 0 0 0.75 0 0] CT
10.0 ML
0.667 LW
N
405.32 288.25 M
405.32 292.538 L
410.28 292.538 L
410.28 288.25 L
cp
S
GR
GS
[0.75 0 0 0.75 0 0] CT
10.0 ML
0.667 LW
N
411.52 288.25 M
411.52 292.538 L
416.48 292.538 L
416.48 288.25 L
cp
S
GR
GS
[0.75 0 0 0.75 0 0] CT
10.0 ML
0.667 LW
N
417.72 288.25 M
417.72 288.25 L
422.68 288.25 L
422.68 288.25 L
cp
S
GR
GS
[0.75 0 0 0.75 0 0] CT
10.0 ML
0.667 LW
N
423.92 288.25 M
423.92 283.962 L
428.88 283.962 L
428.88 288.25 L
cp
S
GR
GS
[0.75 0 0 0.75 0 0] CT
10.0 ML
0.667 LW
N
430.12 288.25 M
430.12 288.25 L
435.08 288.25 L
435.08 288.25 L
cp
S
GR
GS
[0.75 0 0 0.75 0 0] CT
10.0 ML
0.667 LW
N
436.32 288.25 M
436.32 288.25 L
441.28 288.25 L
441.28 288.25 L
cp
S
GR
GS
[0.75 0 0 0.75 0 0] CT
10.0 ML
0.667 LW
N
442.52 288.25 M
442.52 296.825 L
447.48 296.825 L
447.48 288.25 L
cp
S
GR
GS
[0.75 0 0 0.75 0 0] CT
10.0 ML
0.667 LW
N
448.72 288.25 M
448.72 292.538 L
453.68 292.538 L
453.68 288.25 L
cp
S
GR
GS
[0.75 0 0 0.75 0 0] CT
10.0 ML
0.667 LW
N
454.92 288.25 M
454.92 288.25 L
459.88 288.25 L
459.88 288.25 L
cp
S
GR
GS
[0.75 0 0 0.75 0 0] CT
10.0 ML
0.667 LW
N
461.12 288.25 M
461.12 292.538 L
466.08 292.538 L
466.08 288.25 L
cp
S
GR
GS
[0.75 0 0 0.75 0 0] CT
10.0 ML
0.667 LW
N
467.32 288.25 M
467.32 301.112 L
472.28 301.112 L
472.28 288.25 L
cp
S
GR
GS
[0.75 0 0 0.75 0 0] CT
10.0 ML
0.667 LW
N
473.52 288.25 M
473.52 292.538 L
478.48 292.538 L
478.48 288.25 L
cp
S
GR
GS
[0.75 0 0 0.75 0 0] CT
10.0 ML
0.667 LW
N
479.72 288.25 M
479.72 288.25 L
484.68 288.25 L
484.68 288.25 L
cp
S
GR
GS
[0.75 0 0 0.75 0 0] CT
10.0 ML
0.667 LW
N
485.92 288.25 M
485.92 292.538 L
490.88 292.538 L
490.88 288.25 L
cp
S
GR
GS
[0.75 0 0 0.75 0 0] CT
10.0 ML
0.667 LW
N
492.12 288.25 M
492.12 288.25 L
497.08 288.25 L
497.08 288.25 L
cp
S
GR
GS
[0.75 0 0 0.75 0 0] CT
10.0 ML
0.667 LW
N
498.32 288.25 M
498.32 35.287 L
503.28 35.287 L
503.28 288.25 L
cp
S
GR
GS
[0.75 0 0 0.75 0 0] CT
0.149 GC
2 setlinecap
1 LJ
0.667 LW
N
73 374 M
507 374 L
S
GR
GS
[0.75 0 0 0.75 0 0] CT
0.149 GC
2 setlinecap
1 LJ
0.667 LW
N
73 31 M
507 31 L
S
GR
GS
[0.75 0 0 0.75 0 0] CT
0.149 GC
2 setlinecap
1 LJ
0.667 LW
N
73 374 M
73 369.66 L
S
GR
GS
[0.75 0 0 0.75 0 0] CT
0.149 GC
2 setlinecap
1 LJ
0.667 LW
N
135 374 M
135 369.66 L
S
GR
GS
[0.75 0 0 0.75 0 0] CT
0.149 GC
2 setlinecap
1 LJ
0.667 LW
N
197 374 M
197 369.66 L
S
GR
GS
[0.75 0 0 0.75 0 0] CT
0.149 GC
2 setlinecap
1 LJ
0.667 LW
N
259 374 M
259 369.66 L
S
GR
GS
[0.75 0 0 0.75 0 0] CT
0.149 GC
2 setlinecap
1 LJ
0.667 LW
N
321 374 M
321 369.66 L
S
GR
GS
[0.75 0 0 0.75 0 0] CT
0.149 GC
2 setlinecap
1 LJ
0.667 LW
N
383 374 M
383 369.66 L
S
GR
GS
[0.75 0 0 0.75 0 0] CT
0.149 GC
2 setlinecap
1 LJ
0.667 LW
N
445 374 M
445 369.66 L
S
GR
GS
[0.75 0 0 0.75 0 0] CT
0.149 GC
2 setlinecap
1 LJ
0.667 LW
N
507 374 M
507 369.66 L
S
GR
GS
[0.75 0 0 0.75 0 0] CT
0.149 GC
2 setlinecap
1 LJ
0.667 LW
N
73 31 M
73 35.34 L
S
GR
GS
[0.75 0 0 0.75 0 0] CT
0.149 GC
2 setlinecap
1 LJ
0.667 LW
N
135 31 M
135 35.34 L
S
GR
GS
[0.75 0 0 0.75 0 0] CT
0.149 GC
2 setlinecap
1 LJ
0.667 LW
N
197 31 M
197 35.34 L
S
GR
GS
[0.75 0 0 0.75 0 0] CT
0.149 GC
2 setlinecap
1 LJ
0.667 LW
N
259 31 M
259 35.34 L
S
GR
GS
[0.75 0 0 0.75 0 0] CT
0.149 GC
2 setlinecap
1 LJ
0.667 LW
N
321 31 M
321 35.34 L
S
GR
GS
[0.75 0 0 0.75 0 0] CT
0.149 GC
2 setlinecap
1 LJ
0.667 LW
N
383 31 M
383 35.34 L
S
GR
GS
[0.75 0 0 0.75 0 0] CT
0.149 GC
2 setlinecap
1 LJ
0.667 LW
N
445 31 M
445 35.34 L
S
GR
GS
[0.75 0 0 0.75 0 0] CT
0.149 GC
2 setlinecap
1 LJ
0.667 LW
N
507 31 M
507 35.34 L
S
GR
GS
[0.75 0 0 0.75 54.75 284.50001] CT
0.149 GC
/Helvetica 13.333 F
GS
[1 0 0 1 0 0] CT
-4.5 13 moveto 
1 -1 scale
(0) t 
GR
GR
GS
[0.75 0 0 0.75 101.25 284.50001] CT
0.149 GC
/Helvetica 13.333 F
GS
[1 0 0 1 0 0] CT
-8.5 13 moveto 
1 -1 scale
(10) t 
GR
GR
GS
[0.75 0 0 0.75 147.75 284.50001] CT
0.149 GC
/Helvetica 13.333 F
GS
[1 0 0 1 0 0] CT
-8.5 13 moveto 
1 -1 scale
(20) t 
GR
GR
GS
[0.75 0 0 0.75 194.25 284.50001] CT
0.149 GC
/Helvetica 13.333 F
GS
[1 0 0 1 0 0] CT
-8.5 13 moveto 
1 -1 scale
(30) t 
GR
GR
GS
[0.75 0 0 0.75 240.75 284.50001] CT
0.149 GC
/Helvetica 13.333 F
GS
[1 0 0 1 0 0] CT
-8.5 13 moveto 
1 -1 scale
(40) t 
GR
GR
GS
[0.75 0 0 0.75 287.25 284.50001] CT
0.149 GC
/Helvetica 13.333 F
GS
[1 0 0 1 0 0] CT
-8.5 13 moveto 
1 -1 scale
(50) t 
GR
GR
GS
[0.75 0 0 0.75 333.75 284.50001] CT
0.149 GC
/Helvetica 13.333 F
GS
[1 0 0 1 0 0] CT
-8.5 13 moveto 
1 -1 scale
(60) t 
GR
GR
GS
[0.75 0 0 0.75 380.25 284.50001] CT
0.149 GC
/Helvetica 13.333 F
GS
[1 0 0 1 0 0] CT
-8.5 13 moveto 
1 -1 scale
(70) t 
GR
GR
GS
[0.75 0 0 0.75 0 0] CT
0.149 GC
2 setlinecap
1 LJ
0.667 LW
N
73 374 M
73 31 L
S
GR
GS
[0.75 0 0 0.75 0 0] CT
0.149 GC
2 setlinecap
1 LJ
0.667 LW
N
507 374 M
507 31 L
S
GR
GS
[0.75 0 0 0.75 0 0] CT
0.149 GC
2 setlinecap
1 LJ
0.667 LW
N
73 374 M
77.34 374 L
S
GR
GS
[0.75 0 0 0.75 0 0] CT
0.149 GC
2 setlinecap
1 LJ
0.667 LW
N
73 331.125 M
77.34 331.125 L
S
GR
GS
[0.75 0 0 0.75 0 0] CT
0.149 GC
2 setlinecap
1 LJ
0.667 LW
N
73 288.25 M
77.34 288.25 L
S
GR
GS
[0.75 0 0 0.75 0 0] CT
0.149 GC
2 setlinecap
1 LJ
0.667 LW
N
73 245.375 M
77.34 245.375 L
S
GR
GS
[0.75 0 0 0.75 0 0] CT
0.149 GC
2 setlinecap
1 LJ
0.667 LW
N
73 202.5 M
77.34 202.5 L
S
GR
GS
[0.75 0 0 0.75 0 0] CT
0.149 GC
2 setlinecap
1 LJ
0.667 LW
N
73 159.625 M
77.34 159.625 L
S
GR
GS
[0.75 0 0 0.75 0 0] CT
0.149 GC
2 setlinecap
1 LJ
0.667 LW
N
73 116.75 M
77.34 116.75 L
S
GR
GS
[0.75 0 0 0.75 0 0] CT
0.149 GC
2 setlinecap
1 LJ
0.667 LW
N
73 73.875 M
77.34 73.875 L
S
GR
GS
[0.75 0 0 0.75 0 0] CT
0.149 GC
2 setlinecap
1 LJ
0.667 LW
N
73 31 M
77.34 31 L
S
GR
GS
[0.75 0 0 0.75 0 0] CT
0.149 GC
2 setlinecap
1 LJ
0.667 LW
N
507 374 M
502.66 374 L
S
GR
GS
[0.75 0 0 0.75 0 0] CT
0.149 GC
2 setlinecap
1 LJ
0.667 LW
N
507 331.125 M
502.66 331.125 L
S
GR
GS
[0.75 0 0 0.75 0 0] CT
0.149 GC
2 setlinecap
1 LJ
0.667 LW
N
507 288.25 M
502.66 288.25 L
S
GR
GS
[0.75 0 0 0.75 0 0] CT
0.149 GC
2 setlinecap
1 LJ
0.667 LW
N
507 245.375 M
502.66 245.375 L
S
GR
GS
[0.75 0 0 0.75 0 0] CT
0.149 GC
2 setlinecap
1 LJ
0.667 LW
N
507 202.5 M
502.66 202.5 L
S
GR
GS
[0.75 0 0 0.75 0 0] CT
0.149 GC
2 setlinecap
1 LJ
0.667 LW
N
507 159.625 M
502.66 159.625 L
S
GR
GS
[0.75 0 0 0.75 0 0] CT
0.149 GC
2 setlinecap
1 LJ
0.667 LW
N
507 116.75 M
502.66 116.75 L
S
GR
GS
[0.75 0 0 0.75 0 0] CT
0.149 GC
2 setlinecap
1 LJ
0.667 LW
N
507 73.875 M
502.66 73.875 L
S
GR
GS
[0.75 0 0 0.75 0 0] CT
0.149 GC
2 setlinecap
1 LJ
0.667 LW
N
507 31 M
502.66 31 L
S
GR
GS
[0.75 0 0 0.75 50.75 280.5] CT
0.149 GC
/Helvetica 13.333 F
GS
[1 0 0 1 0 0] CT
-22 4.5 moveto 
1 -1 scale
(-20) t 
GR
GR
GS
[0.75 0 0 0.75 50.75 248.34375] CT
0.149 GC
/Helvetica 13.333 F
GS
[1 0 0 1 0 0] CT
-22 4.5 moveto 
1 -1 scale
(-10) t 
GR
GR
GS
[0.75 0 0 0.75 50.75 216.1875] CT
0.149 GC
/Helvetica 13.333 F
GS
[1 0 0 1 0 0] CT
-9 4.5 moveto 
1 -1 scale
(0) t 
GR
GR
GS
[0.75 0 0 0.75 50.75 184.03125] CT
0.149 GC
/Helvetica 13.333 F
GS
[1 0 0 1 0 0] CT
-17 4.5 moveto 
1 -1 scale
(10) t 
GR
GR
GS
[0.75 0 0 0.75 50.75 151.875] CT
0.149 GC
/Helvetica 13.333 F
GS
[1 0 0 1 0 0] CT
-17 4.5 moveto 
1 -1 scale
(20) t 
GR
GR
GS
[0.75 0 0 0.75 50.75 119.71875] CT
0.149 GC
/Helvetica 13.333 F
GS
[1 0 0 1 0 0] CT
-17 4.5 moveto 
1 -1 scale
(30) t 
GR
GR
GS
[0.75 0 0 0.75 50.75 87.5625] CT
0.149 GC
/Helvetica 13.333 F
GS
[1 0 0 1 0 0] CT
-17 4.5 moveto 
1 -1 scale
(40) t 
GR
GR
GS
[0.75 0 0 0.75 50.75 55.40625] CT
0.149 GC
/Helvetica 13.333 F
GS
[1 0 0 1 0 0] CT
-17 4.5 moveto 
1 -1 scale
(50) t 
GR
GR
GS
[0.75 0 0 0.75 50.75 23.25] CT
0.149 GC
/Helvetica 13.333 F
GS
[1 0 0 1 0 0] CT
-17 4.5 moveto 
1 -1 scale
(60) t 
GR
GR
%%Trailer
%%Pages: 1
%%EOF
